OBJECT Codeunit 5778 Whse. Create Pick
{
  OBJECT-PROPERTIES
  {
    Date=26.07.02;
    Time=12:00:00;
    Version List=NAVW13.60;
  }
  PROPERTIES
  {
    TableNo=7326;
    OnRun=BEGIN
            WkshPickLine.COPY(Rec);
            WhseCreatePick.SetWkshPickLine(WkshPickLine);
            WhseCreatePick.RUNMODAL;
            IF WhseCreatePick.GetResultMessage THEN
              AutofillQtyToHandle(Rec);
            CLEAR(WhseCreatePick);

            RESET;
            SETCURRENTKEY("Worksheet Template Name",Name,"Location Code","Sorting Sequence No.");
            FILTERGROUP := 2;
            SETRANGE("Worksheet Template Name","Worksheet Template Name");
            SETRANGE(Name,Name);
            SETRANGE("Location Code","Location Code");
            FILTERGROUP := 0;
          END;

  }
  CODE
  {
    VAR
      WkshPickLine@1000 : Record 7326;
      WhseCreatePick@1001 : Report 5754;

    BEGIN
    END.
  }
}

