OBJECT Codeunit 5779 Whse.-Printed
{
  OBJECT-PROPERTIES
  {
    Date=25.02.04;
    Time=12:00:00;
    Version List=NAVW13.70.01;
  }
  PROPERTIES
  {
    TableNo=5766;
    OnRun=BEGIN
            LOCKTABLE;
            FIND;
            "No. Printed" := "No. Printed" + 1;
            "Date of Last Printing" := TODAY;
            "Time of Last Printing" := TIME;
            MODIFY;
            COMMIT;
          END;

  }
  CODE
  {

    BEGIN
    END.
  }
}

