OBJECT Codeunit 43 LanguageManagement
{
  OBJECT-PROPERTIES
  {
    Date=23.01.17;
    Time=12:00:00;
    Version List=NAVW110.00.00.15052;
  }
  PROPERTIES
  {
    OnRun=BEGIN
          END;

  }
  CODE
  {
    VAR
      SavedGlobalLanguageID@1000 : Integer;

    PROCEDURE SetGlobalLanguage@1();
    VAR
      TempLanguage@1001 : TEMPORARY Record 2000000045;
    BEGIN
      GetApplicationLanguages(TempLanguage);

      WITH TempLanguage DO BEGIN
        SETCURRENTKEY(Name);
        IF GET(GLOBALLANGUAGE) THEN;
        PAGE.RUN(PAGE::"Application Languages",TempLanguage);
      END;
    END;

    LOCAL PROCEDURE GetApplicationLanguages@2(VAR TempLanguage@1034 : TEMPORARY Record 2000000045);
    VAR
      Language@1035 : Record 2000000045;
      ApplicationManagement@1000 : Codeunit 1;
    BEGIN
      WITH Language DO BEGIN
        SETRANGE("Localization Exist",TRUE);
        SETRANGE("Globally Enabled",TRUE);
        IF FINDSET THEN
          REPEAT
            TempLanguage := Language;
            TempLanguage.INSERT;
          UNTIL NEXT = 0;
        IF GET(ApplicationManagement.ApplicationLanguage) THEN BEGIN
          TempLanguage := Language;
          IF TempLanguage.INSERT THEN;
        END;
      END;
    END;

    PROCEDURE ValidateApplicationLanguage@3(LanguageID@1037 : Integer);
    VAR
      TempLanguage@1038 : TEMPORARY Record 2000000045;
    BEGIN
      GetApplicationLanguages(TempLanguage);

      WITH TempLanguage DO BEGIN
        SETRANGE("Language ID",LanguageID);
        FINDFIRST;
      END;
    END;

    PROCEDURE LookupApplicationLanguage@4(VAR LanguageID@1040 : Integer);
    VAR
      TempLanguage@1039 : TEMPORARY Record 2000000045;
    BEGIN
      GetApplicationLanguages(TempLanguage);

      WITH TempLanguage DO BEGIN
        IF GET(LanguageID) THEN;
        IF PAGE.RUNMODAL(PAGE::"Windows Languages",TempLanguage) = ACTION::LookupOK THEN
          LanguageID := "Language ID";
      END;
    END;

    PROCEDURE LookupWindowsLocale@5(VAR LocaleID@1000 : Integer);
    VAR
      WindowsLanguage@1002 : Record 2000000045;
    BEGIN
      WITH WindowsLanguage DO BEGIN
        SETCURRENTKEY(Name);
        IF PAGE.RUNMODAL(PAGE::"Windows Languages",WindowsLanguage) = ACTION::LookupOK THEN
          LocaleID := "Language ID";
      END;
    END;

    PROCEDURE SetGlobalLanguageByCode@150(LanguageCode@1000 : Code[10]);
    VAR
      Language@1001 : Record 8;
    BEGIN
      IF LanguageCode = '' THEN
        EXIT;
      SavedGlobalLanguageID := GLOBALLANGUAGE;
      GLOBALLANGUAGE(Language.GetLanguageID(LanguageCode));
    END;

    PROCEDURE RestoreGlobalLanguage@151();
    BEGIN
      IF SavedGlobalLanguageID <> 0 THEN BEGIN
        GLOBALLANGUAGE(SavedGlobalLanguageID);
        SavedGlobalLanguageID := 0;
      END;
    END;

    BEGIN
    END.
  }
}

