OBJECT Codeunit 7706 Miniform Logoff
{
  OBJECT-PROPERTIES
  {
    Date=07.09.12;
    Time=12:00:00;
    Version List=NAVW17.00;
  }
  PROPERTIES
  {
    TableNo=7700;
    OnRun=VAR
            MiniformMgt@1000 : Codeunit 7702;
          BEGIN
            MiniformMgt.Initialize(
              MiniformHeader,Rec,DOMxmlin,ReturnedNode,
              RootNode,XMLDOMMgt,ADCSCommunication,ADCSUserId,
              CurrentCode,StackCode,WhseEmpId,LocationFilter);

            IF Code <> CurrentCode THEN
              SendForm(1)
            ELSE
              Process;

            CLEAR(DOMxmlin);
          END;

  }
  CODE
  {
    VAR
      MiniformHeader@1010 : Record 7700;
      MiniformHeader2@1012 : Record 7700;
      XMLDOMMgt@1004 : Codeunit 6224;
      ADCSCommunication@1015 : Codeunit 7701;
      ADCSMgt@1021 : Codeunit 7700;
      ReturnedNode@1009 : DotNet "'System.Xml, Version=4.0.0.0, Culture=neutral, PublicKeyToken=b77a5c561934e089'.System.Xml.XmlNode";
      RootNode@1007 : DotNet "'System.Xml, Version=4.0.0.0, Culture=neutral, PublicKeyToken=b77a5c561934e089'.System.Xml.XmlNode";
      DOMxmlin@1006 : DotNet "'System.Xml, Version=4.0.0.0, Culture=neutral, PublicKeyToken=b77a5c561934e089'.System.Xml.XmlDocument";
      TextValue@1002 : Text[250];
      ADCSUserId@1001 : Text[250];
      WhseEmpId@1000 : Text[250];
      LocationFilter@1014 : Text[250];
      CurrentCode@1003 : Text[250];
      StackCode@1008 : Text[250];
      Text001@1005 : TextConst 'DEU=Kein Eingabeknoten gefunden.;ENU=No input Node found.';

    LOCAL PROCEDURE Process@16();
    BEGIN
      IF XMLDOMMgt.FindNode(RootNode,'Header/Input',ReturnedNode) THEN
        TextValue := ReturnedNode.InnerText
      ELSE
        ERROR(Text001);

      ADCSCommunication.GetCallMiniForm(MiniformHeader.Code,MiniformHeader2,TextValue);
      ADCSCommunication.IncreaseStack(DOMxmlin,MiniformHeader.Code);
      MiniformHeader2.SaveXMLin(DOMxmlin);
      CODEUNIT.RUN(MiniformHeader2."Handling Codeunit",MiniformHeader2);
    END;

    LOCAL PROCEDURE SendForm@1(ActiveInputField@1000 : Integer);
    BEGIN
      ADCSCommunication.EncodeMiniForm(MiniformHeader,'',DOMxmlin,ActiveInputField,'',ADCSUserId);
      ADCSCommunication.GetReturnXML(DOMxmlin);
      ADCSMgt.SendXMLReply(DOMxmlin);
    END;

    BEGIN
    END.
  }
}

