OBJECT Codeunit 6661 Return Receipt - Printed
{
  OBJECT-PROPERTIES
  {
    Date=25.02.02;
    Time=12:00:00;
    Version List=NAVW13.10.01;
  }
  PROPERTIES
  {
    TableNo=6660;
    Permissions=TableData 6660=rimd;
    OnRun=BEGIN
            FIND;
            "No. Printed" := "No. Printed" + 1;
            MODIFY;
            COMMIT;
          END;

  }
  CODE
  {

    BEGIN
    END.
  }
}

