OBJECT Codeunit 8613 Config. Try Validate
{
  OBJECT-PROPERTIES
  {
    Date=24.11.16;
    Time=12:00:00;
    Version List=NAVW110.00.00.14199;
  }
  PROPERTIES
  {
    OnRun=BEGIN
            RunInsertValidate;
          END;

  }
  CODE
  {
    VAR
      RecRefToInsert@1002 : RecordRef;
      FieldRefToValidate@1001 : FieldRef;
      ValidateValue@1000 : Variant;
      TryAction@1003 : ',Validate,Insert';

    PROCEDURE SetValidateParameters@1(VAR SourceFieldRef@1000 : FieldRef;SourceValue@1001 : Variant);
    BEGIN
      FieldRefToValidate := SourceFieldRef;
      ValidateValue := SourceValue;
      TryAction := TryAction::Validate;
    END;

    PROCEDURE SetInsertParameters@3(VAR SourceRecRef@1000 : RecordRef);
    BEGIN
      RecRefToInsert := SourceRecRef;
      TryAction := TryAction::Insert;
    END;

    LOCAL PROCEDURE InsertWithValidation@65();
    BEGIN
      RecRefToInsert.INSERT(TRUE);
    END;

    LOCAL PROCEDURE ValidateFieldValue@2();
    BEGIN
      FieldRefToValidate.VALIDATE(ValidateValue);
    END;

    LOCAL PROCEDURE RunInsertValidate@9();
    BEGIN
      CASE TryAction OF
        TryAction::Validate:
          ValidateFieldValue;
        TryAction::Insert:
          InsertWithValidation;
      END;
      CLEAR(TryAction);
    END;

    BEGIN
    END.
  }
}

