OBJECT Codeunit 1343 Setup Job Activities Mgt.
{
  OBJECT-PROPERTIES
  {
    Date=25.10.16;
    Time=12:00:00;
    Version List=NAVW110.00;
  }
  PROPERTIES
  {
    OnRun=BEGIN
            IF IsActivitiesVisible THEN
              DisableActivitiesForCurrentUser
            ELSE
              EnableActivitiesForCurrentUser;
          END;

  }
  CODE
  {
    VAR
      SETUPJOBACTIVITIESTxt@1000 : TextConst '@@@={Locked};DEU=SETUPJOBACTIVITIES;ENU=SETUPJOBACTIVITIES';

    LOCAL PROCEDURE EnableActivitiesForCurrentUser@9();
    VAR
      UserPreference@1000 : Record 1306;
    BEGIN
      UserPreference.EnableInstruction(GetActivitiesCode);
    END;

    LOCAL PROCEDURE DisableActivitiesForCurrentUser@4();
    VAR
      UserPreference@1000 : Record 1306;
    BEGIN
      UserPreference.DisableInstruction(GetActivitiesCode);
    END;

    PROCEDURE IsActivitiesVisible@3() : Boolean;
    VAR
      UserPreference@1000 : Record 1306;
    BEGIN
      EXIT(NOT UserPreference.GET(USERID,GetActivitiesCode));
    END;

    LOCAL PROCEDURE GetActivitiesCode@2() : Code[20];
    BEGIN
      EXIT(SETUPJOBACTIVITIESTxt);
    END;

    BEGIN
    END.
  }
}

