OBJECT Codeunit 8621 Config. Validate Package
{
  OBJECT-PROPERTIES
  {
    Date=25.10.16;
    Time=12:00:00;
    Version List=NAVW110.00;
  }
  PROPERTIES
  {
    TableNo=8613;
    OnRun=VAR
            TempConfigPackageTable@1001 : TEMPORARY Record 8613;
            ConfigPackageMgt@1002 : Codeunit 8611;
          BEGIN
            ConfigPackageMgt.SetHideDialog(TRUE);
            ConfigPackageMgt.ValidatePackageRelations(Rec,TempConfigPackageTable,TRUE);
          END;

  }
  CODE
  {

    BEGIN
    END.
  }
}

