OBJECT Codeunit 391 Shipment Header - Edit
{
  OBJECT-PROPERTIES
  {
    Date=07.09.12;
    Time=12:00:00;
    Version List=NAVW17.00;
  }
  PROPERTIES
  {
    TableNo=110;
    Permissions=TableData 110=m;
    OnRun=BEGIN
            SalesShptHeader := Rec;
            SalesShptHeader.LOCKTABLE;
            SalesShptHeader.FIND;
            SalesShptHeader."Shipping Agent Code" := "Shipping Agent Code";
            SalesShptHeader."Shipping Agent Service Code" := "Shipping Agent Service Code";
            SalesShptHeader."Package Tracking No." := "Package Tracking No.";
            SalesShptHeader.MODIFY;
            Rec := SalesShptHeader;
          END;

  }
  CODE
  {
    VAR
      SalesShptHeader@1000 : Record 110;

    BEGIN
    END.
  }
}

