OBJECT Codeunit 245 Item Reg.-Show Ledger
{
  OBJECT-PROPERTIES
  {
    Date=07.09.12;
    Time=12:00:00;
    Version List=NAVW17.00;
  }
  PROPERTIES
  {
    TableNo=46;
    OnRun=BEGIN
            ItemLedgEntry.SETRANGE("Entry No.","From Entry No.","To Entry No.");
            PAGE.RUN(PAGE::"Item Ledger Entries",ItemLedgEntry);
          END;

  }
  CODE
  {
    VAR
      ItemLedgEntry@1000 : Record 32;

    BEGIN
    END.
  }
}

