OBJECT Codeunit 1706 Exp. Pre-Mapping Foot Pos. Pay
{
  OBJECT-PROPERTIES
  {
    Date=15.09.15;
    Time=12:00:00;
    Version List=NAVW19.00;
  }
  PROPERTIES
  {
    OnRun=BEGIN
          END;

  }
  CODE
  {

    BEGIN
    END.
  }
}

