OBJECT Codeunit 441 Prepayment Mgt.
{
  OBJECT-PROPERTIES
  {
    Date=25.10.16;
    Time=12:00:00;
    Version List=NAVW110.00;
  }
  PROPERTIES
  {
    OnRun=BEGIN
          END;

  }
  CODE
  {

    PROCEDURE SetSalesPrepaymentPct@1000000000(VAR SalesLine@1000000000 : Record 37;Date@1000000002 : Date);
    VAR
      Cust@1000 : Record 18;
      SalesPrepaymentPct@1000000001 : Record 459;
    BEGIN
      WITH SalesPrepaymentPct DO BEGIN
        IF (SalesLine.Type <> SalesLine.Type::Item) OR (SalesLine."No." = '') OR
           (SalesLine."Document Type" <> SalesLine."Document Type"::Order)
        THEN
          EXIT;
        SETFILTER("Starting Date",'..%1',Date);
        SETFILTER("Ending Date",'%1|>=%2',0D,Date);
        SETRANGE("Item No.",SalesLine."No.");
        FOR "Sales Type" := "Sales Type"::Customer TO "Sales Type"::"All Customers" DO BEGIN
          SETRANGE("Sales Type","Sales Type");
          CASE "Sales Type" OF
            "Sales Type"::Customer:
              BEGIN
                SETRANGE("Sales Code",SalesLine."Bill-to Customer No.");
                IF ApplySalesPrepaymentPct(SalesLine,SalesPrepaymentPct) THEN
                  EXIT;
              END;
            "Sales Type"::"Customer Price Group":
              BEGIN
                Cust.GET(SalesLine."Bill-to Customer No.");
                IF Cust."Customer Price Group" <> '' THEN
                  SETRANGE("Sales Code",Cust."Customer Price Group");
                IF ApplySalesPrepaymentPct(SalesLine,SalesPrepaymentPct) THEN
                  EXIT;
              END;
            "Sales Type"::"All Customers":
              BEGIN
                SETRANGE("Sales Code");
                IF ApplySalesPrepaymentPct(SalesLine,SalesPrepaymentPct) THEN
                  EXIT;
              END;
          END;
        END;
      END;
    END;

    LOCAL PROCEDURE ApplySalesPrepaymentPct@3(VAR SalesLine@1000 : Record 37;VAR SalesPrepaymentPct@1001 : Record 459) : Boolean;
    BEGIN
      WITH SalesPrepaymentPct DO
        IF FINDLAST THEN BEGIN
          SalesLine."Prepayment %" := "Prepayment %";
          EXIT(TRUE);
        END;
    END;

    PROCEDURE SetPurchPrepaymentPct@1(VAR PurchLine@1000000000 : Record 39;Date@1000000002 : Date);
    VAR
      PurchPrepaymentPct@1000000001 : Record 460;
    BEGIN
      WITH PurchPrepaymentPct DO BEGIN
        IF (PurchLine.Type <> PurchLine.Type::Item) OR (PurchLine."No." = '') OR
           (PurchLine."Document Type" <> PurchLine."Document Type"::Order )
        THEN
          EXIT;
        SETFILTER("Starting Date",'..%1',Date);
        SETFILTER("Ending Date",'%1|>=%2',0D,Date);
        SETRANGE("Item No.",PurchLine."No.");
        SETRANGE("Vendor No.",PurchLine."Pay-to Vendor No.");
        IF ApplyPurchPrepaymentPct(PurchLine,PurchPrepaymentPct) THEN
          EXIT;

        // All Vendors
        SETRANGE("Vendor No.",'');
        IF ApplyPurchPrepaymentPct(PurchLine,PurchPrepaymentPct) THEN
          EXIT;
      END;
    END;

    LOCAL PROCEDURE ApplyPurchPrepaymentPct@2(VAR PurchLine@1000 : Record 39;VAR PurchPrepaymentPct@1001 : Record 460) : Boolean;
    BEGIN
      WITH PurchPrepaymentPct DO
        IF FINDLAST THEN BEGIN
          PurchLine."Prepayment %" := "Prepayment %";
          EXIT(TRUE);
        END;
    END;

    PROCEDURE TestSalesPrepayment@37(SalesHeader@1000 : Record 36) : Boolean;
    VAR
      SalesLine@1001 : Record 37;
    BEGIN
      SalesLine.SETRANGE("Document Type",SalesHeader."Document Type");
      SalesLine.SETRANGE("Document No.",SalesHeader."No.");
      SalesLine.SETFILTER("Prepmt. Line Amount",'<>%1',0);
      IF SalesLine.FINDSET THEN
        REPEAT
          IF SalesLine."Prepmt. Amt. Inv." <> SalesLine."Prepmt. Line Amount" THEN
            EXIT(TRUE);
        UNTIL SalesLine.NEXT = 0;
    END;

    PROCEDURE TestPurchasePrepayment@36(PurchaseHeader@1000 : Record 38) : Boolean;
    VAR
      PurchaseLine@1001 : Record 39;
    BEGIN
      PurchaseLine.SETRANGE("Document Type",PurchaseHeader."Document Type");
      PurchaseLine.SETRANGE("Document No.",PurchaseHeader."No.");
      PurchaseLine.SETFILTER("Prepmt. Line Amount",'<>%1',0);
      IF PurchaseLine.FINDSET THEN
        REPEAT
          IF PurchaseLine."Prepmt. Amt. Inv." <> PurchaseLine."Prepmt. Line Amount" THEN
            EXIT(TRUE);
        UNTIL PurchaseLine.NEXT = 0;
    END;

    PROCEDURE TestSalesPayment@30(SalesHeader@1000 : Record 36) : Boolean;
    VAR
      SalesSetup@1002 : Record 311;
      CustLedgerEntry@1004 : Record 21;
      SalesInvHeader@1005 : Record 112;
    BEGIN
      SalesSetup.GET;
      IF NOT SalesSetup."Check Prepmt. when Posting" THEN
        EXIT(FALSE);

      SalesInvHeader.SETCURRENTKEY("Prepayment Order No.","Prepayment Invoice");
      SalesInvHeader.SETRANGE("Prepayment Order No.",SalesHeader."No.");
      SalesInvHeader.SETRANGE("Prepayment Invoice",TRUE);
      IF SalesInvHeader.FINDSET THEN
        REPEAT
          CustLedgerEntry.SETCURRENTKEY("Document No.");
          CustLedgerEntry.SETRANGE("Document Type",CustLedgerEntry."Document Type"::Invoice);
          CustLedgerEntry.SETRANGE("Document No.",SalesInvHeader."No.");
          CustLedgerEntry.SETFILTER("Remaining Amt. (LCY)",'<>%1',0);
          IF NOT CustLedgerEntry.ISEMPTY THEN
            EXIT(TRUE);
        UNTIL SalesInvHeader.NEXT = 0;

      EXIT(FALSE);
    END;

    PROCEDURE TestPurchasePayment@35(PurchaseHeader@1004 : Record 38) : Boolean;
    VAR
      PurchasesPayablesSetup@1003 : Record 312;
      VendLedgerEntry@1002 : Record 25;
      PurchInvHeader@1001 : Record 122;
    BEGIN
      PurchasesPayablesSetup.GET;
      IF NOT PurchasesPayablesSetup."Check Prepmt. when Posting" THEN
        EXIT(FALSE);

      PurchInvHeader.SETCURRENTKEY("Prepayment Order No.","Prepayment Invoice");
      PurchInvHeader.SETRANGE("Prepayment Order No.",PurchaseHeader."No.");
      PurchInvHeader.SETRANGE("Prepayment Invoice",TRUE);
      IF PurchInvHeader.FINDSET THEN
        REPEAT
          VendLedgerEntry.SETCURRENTKEY("Document No.");
          VendLedgerEntry.SETRANGE("Document Type",VendLedgerEntry."Document Type"::Invoice);
          VendLedgerEntry.SETRANGE("Document No.",PurchInvHeader."No.");
          VendLedgerEntry.SETFILTER("Remaining Amt. (LCY)",'<>%1',0);
          IF NOT VendLedgerEntry.ISEMPTY THEN
            EXIT(TRUE);
        UNTIL PurchInvHeader.NEXT = 0;

      EXIT(FALSE);
    END;

    BEGIN
    END.
  }
}

