OBJECT Codeunit 5764 Whse.-Post Ship. (Ship/Invoic)
{
  OBJECT-PROPERTIES
  {
    Date=15.09.15;
    Time=12:00:00;
    Version List=NAVW19.00;
  }
  PROPERTIES
  {
    TableNo=7321;
    OnRun=BEGIN
            WhseShipLine.COPY(Rec);
            Code;
            Rec := WhseShipLine;
          END;

  }
  CODE
  {
    VAR
      WhseShipLine@1001 : Record 7321;
      WhsePostShipment@1002 : Codeunit 5763;
      Selection@1003 : Integer;
      Text000@1006 : TextConst 'DEU=&Liefern,Liefern &und fakturieren;ENU=&Ship,Ship &and Invoice';

    LOCAL PROCEDURE Code@1();
    VAR
      Invoice@1001 : Boolean;
    BEGIN
      WITH WhseShipLine DO BEGIN
        IF FIND THEN BEGIN
          Selection := STRMENU(Text000,1);
          IF Selection = 0 THEN
            EXIT;
          Invoice := (Selection = 2);
        END;

        WhsePostShipment.SetPostingSettings(Invoice);
        WhsePostShipment.SetPrint(FALSE);
        WhsePostShipment.RUN(WhseShipLine);
        WhsePostShipment.GetResultMessage;
        CLEAR(WhsePostShipment);
      END;
    END;

    BEGIN
    END.
  }
}

