OBJECT Codeunit 5005362 Calc. Qty. Expected All Lines
{
  OBJECT-PROPERTIES
  {
    Date=07.09.12;
    Time=12:00:00;
    Version List=NAVDACH7.00;
  }
  PROPERTIES
  {
    TableNo=5005350;
    OnRun=BEGIN
            PhysInvtOrderHeader.COPY(Rec);

            Selection := STRMENU(Text1140000,1);
            IF Selection = 0 THEN
              EXIT;

            WITH PhysInvtOrderHeader DO BEGIN
              PhysInvtOrderLine.RESET;
              PhysInvtOrderLine.SETRANGE("Document No.","No.");
              IF PhysInvtOrderLine.FIND('-') THEN
                REPEAT
                  IF (Selection = 1) OR
                     ((Selection = 2) AND NOT PhysInvtOrderLine."Qty. Exp. Calculated")
                  THEN BEGIN
                    IF NOT PhysInvtOrderLine.EmptyLine THEN BEGIN
                      PhysInvtOrderLine.TESTFIELD("Item No.");
                      PhysInvtOrderLine.CalcQtyAndTrackLinesExpected;
                      PhysInvtOrderLine.MODIFY;
                    END;
                  END;
                UNTIL PhysInvtOrderLine.NEXT = 0;
            END;

            Rec := PhysInvtOrderHeader;
          END;

  }
  CODE
  {
    VAR
      Text1140000@1140000 : TextConst 'DEU=Alle Auftragszeilen,Nur noch nicht kalkulierte Zeilen;ENU=All Order Lines,Only No Calculated Lines';
      PhysInvtOrderHeader@1140001 : Record 5005350;
      PhysInvtOrderLine@1140002 : Record 5005351;
      Selection@1140003 : Integer;

    BEGIN
    END.
  }
}

