OBJECT Page 620 IC Comment Sheet
{
  OBJECT-PROPERTIES
  {
    Date=05.11.08;
    Time=12:00:00;
    Version List=NAVW16.00;
  }
  PROPERTIES
  {
    CaptionML=[DEU=IC-Bemerkungen;
               ENU=IC Comment Sheet];
    MultipleNewLines=Yes;
    LinksAllowed=No;
    SourceTable=Table424;
    DelayedInsert=Yes;
    DataCaptionFields=Table Name,Transaction No.,IC Partner Code;
    PageType=List;
    AutoSplitKey=Yes;
    OnNewRecord=BEGIN
                  SetUpNewLine;
                END;

  }
  CONTROLS
  {
    { 1900000001;0;Container;
                ContainerType=ContentArea }

    { 1   ;1   ;Group     ;
                GroupType=Repeater }

    { 2   ;2   ;Field     ;
                SourceExpr=Date }

    { 4   ;2   ;Field     ;
                SourceExpr=Comment }

  }
  CODE
  {

    BEGIN
    END.
  }
}

