OBJECT Page 1307 O365 Getting Started Device
{
  OBJECT-PROPERTIES
  {
    Date=25.10.16;
    Time=12:00:00;
    Version List=NAVW110.00;
  }
  PROPERTIES
  {
    CaptionML=[DEU=Erste Schritte;
               ENU=Getting Started];
    SourceTable=Table1309;
    PageType=NavigatePage;
    OnInit=BEGIN
             SETRANGE("User ID",USERID);
           END;

    OnOpenPage=BEGIN
                 CurrentPageID := 1;
                 FirstPageVisible := TRUE;

                 LoadRecords;

                 IF NOT AlreadyShown THEN BEGIN
                   MarkAsShown;
                   "Tour Completed" := TRUE;
                   MODIFY;
                 END;
               END;

    ActionList=ACTIONS
    {
      { 6       ;    ;ActionContainer;
                      ActionContainerType=ActionItems }
      { 7       ;1   ;Action    ;
                      Name=GetStarted;
                      CaptionML=[DEU=Los!;
                                 ENU=Go!];
                      ApplicationArea=#Basic,#Suite;
                      InFooterBar=Yes;
                      Image=Start;
                      OnAction=BEGIN
                                 CurrPage.CLOSE;
                               END;
                                }
    }
  }
  CONTROLS
  {
    { 5   ;0   ;Container ;
                ContainerType=ContentArea }

    { 4   ;1   ;Group     ;
                Visible=FirstPageVisible;
                GroupType=Group }

    { 3   ;2   ;Field     ;
                Name=Image1;
                CaptionML=[DEU=Bild;
                           ENU=Image];
                ApplicationArea=#Basic,#Suite;
                SourceExpr=ImageO365GettingStartedPageData.Image;
                Editable=FALSE;
                ShowCaption=No }

    { 2   ;2   ;Group     ;
                Name=Page1Group;
                CaptionML=[DEU=Unterwegs produktiv sein;
                           ENU=Be productive on the go];
                GroupType=Group }

    { 1   ;3   ;Field     ;
                Name=BodyText1;
                CaptionML=[DEU=Text1;
                           ENU=BodyText1];
                ApplicationArea=#Basic,#Suite;
                SourceExpr=BodyText;
                Editable=FALSE;
                MultiLine=Yes;
                ShowCaption=No }

  }
  CODE
  {
    VAR
      ImageO365GettingStartedPageData@1003 : Record 1308;
      FirstPageVisible@1001 : Boolean;
      BodyText@1002 : BigText;
      CurrentPageID@1000 : Integer;

    LOCAL PROCEDURE LoadRecords@1();
    VAR
      TextO365GettingStartedPageData@1000 : Record 1308;
      TextInstream@1001 : InStream;
    BEGIN
      ImageO365GettingStartedPageData.GetPageImage(ImageO365GettingStartedPageData,CurrentPageID,PAGE::"O365 Getting Started Device");
      TextO365GettingStartedPageData.GetPageBodyText(TextO365GettingStartedPageData,CurrentPageID,PAGE::"O365 Getting Started Device");
      TextO365GettingStartedPageData."Body Text".CREATEINSTREAM(TextInstream,TEXTENCODING::UTF8);
      BodyText.READ(TextInstream);
    END;

    BEGIN
    END.
  }
}

