OBJECT Page 559 Analysis View Budget Entries
{
  OBJECT-PROPERTIES
  {
    Date=25.10.16;
    Time=12:00:00;
    Version List=NAVW110.00;
  }
  PROPERTIES
  {
    Editable=No;
    CaptionML=[DEU=Analyseansichtsbudgetposten;
               ENU=Analysis View Budget Entries];
    SourceTable=Table366;
    PageType=List;
    OnAfterGetCurrRecord=BEGIN
                           IF "Analysis View Code" <> xRec."Analysis View Code" THEN;
                         END;

  }
  CONTROLS
  {
    { 1900000001;0;Container;
                ContainerType=ContentArea }

    { 1   ;1   ;Group     ;
                GroupType=Repeater }

    { 2   ;2   ;Field     ;
                SourceExpr="Analysis View Code" }

    { 4   ;2   ;Field     ;
                SourceExpr="Budget Name" }

    { 6   ;2   ;Field     ;
                SourceExpr="Business Unit Code" }

    { 8   ;2   ;Field     ;
                SourceExpr="G/L Account No." }

    { 10  ;2   ;Field     ;
                SourceExpr="Dimension 1 Value Code" }

    { 12  ;2   ;Field     ;
                SourceExpr="Dimension 2 Value Code" }

    { 14  ;2   ;Field     ;
                SourceExpr="Dimension 3 Value Code" }

    { 16  ;2   ;Field     ;
                SourceExpr="Dimension 4 Value Code" }

    { 18  ;2   ;Field     ;
                SourceExpr="Posting Date" }

    { 20  ;2   ;Field     ;
                SourceExpr=Amount;
                OnDrillDown=BEGIN
                              DrillDown;
                            END;
                             }

    { 1900000007;0;Container;
                ContainerType=FactBoxArea }

    { 1900383207;1;Part   ;
                Visible=FALSE;
                PartType=System;
                SystemPartID=RecordLinks }

    { 1905767507;1;Part   ;
                Visible=FALSE;
                PartType=System;
                SystemPartID=Notes }

  }
  CODE
  {

    LOCAL PROCEDURE DrillDown@1();
    VAR
      GLBudgetEntry@1000 : Record 96;
    BEGIN
      GLBudgetEntry.SETRANGE("Entry No.","Entry No.");
      PAGE.RUNMODAL(PAGE::"G/L Budget Entries",GLBudgetEntry);
    END;

    BEGIN
    END.
  }
}

