OBJECT Page 555 Analysis View Card
{
  OBJECT-PROPERTIES
  {
    Date=07.09.12;
    Time=12:00:00;
    Version List=NAVW17.00;
  }
  PROPERTIES
  {
    CaptionML=[DEU=Analyseansichtskarte;
               ENU=Analysis View Card];
    SourceTable=Table363;
    PageType=Card;
    OnOpenPage=BEGIN
                 GLAccountSource := TRUE;
               END;

    OnAfterGetRecord=BEGIN
                       SetGLAccountSource;
                     END;

    ActionList=ACTIONS
    {
      { 1900000003;0 ;ActionContainer;
                      ActionContainerType=RelatedInformation }
      { 6       ;1   ;ActionGroup;
                      CaptionML=[DEU=A&nalyseansicht;
                                 ENU=&Analysis];
                      Image=AnalysisView }
      { 38      ;2   ;Action    ;
                      CaptionML=[DEU=Filter;
                                 ENU=Filter];
                      RunObject=Page 557;
                      RunPageLink=Analysis View Code=FIELD(Code);
                      Image=Filter }
      { 1900000004;0 ;ActionContainer;
                      ActionContainerType=ActionItems }
      { 7       ;1   ;Action    ;
                      CaptionML=[DEU=A&ktualisieren;
                                 ENU=&Update];
                      RunObject=Codeunit 410;
                      Promoted=Yes;
                      Image=Refresh;
                      PromotedCategory=Process }
      { 3       ;1   ;Action    ;
                      CaptionML=[DEU=Update bei Buchung aktivieren;
                                 ENU=Enable Update on Posting];
                      Image=Apply;
                      OnAction=BEGIN
                                 SetUpdateOnPosting(TRUE);
                               END;
                                }
      { 5       ;1   ;Action    ;
                      CaptionML=[DEU=Update bei Buchung deaktivieren;
                                 ENU=Disable Update on Posting];
                      Image=UnApply;
                      OnAction=BEGIN
                                 SetUpdateOnPosting(FALSE);
                               END;
                                }
    }
  }
  CONTROLS
  {
    { 1900000001;0;Container;
                ContainerType=ContentArea }

    { 1   ;1   ;Group     ;
                CaptionML=[DEU=Allgemein;
                           ENU=General] }

    { 2   ;2   ;Field     ;
                SourceExpr=Code }

    { 4   ;2   ;Field     ;
                SourceExpr=Name }

    { 9   ;2   ;Field     ;
                SourceExpr="Account Source";
                OnValidate=BEGIN
                             SetGLAccountSource;
                           END;
                            }

    { 8   ;2   ;Field     ;
                SourceExpr="Account Filter";
                OnLookup=VAR
                           GLAccList@1002 : Page 18;
                           CFAccList@1000 : Page 855;
                         BEGIN
                           IF "Account Source" = "Account Source"::"G/L Account" THEN BEGIN
                             GLAccList.LOOKUPMODE(TRUE);
                             IF NOT (GLAccList.RUNMODAL = ACTION::LookupOK) THEN
                               EXIT(FALSE);

                             Text := GLAccList.GetSelectionFilter;
                           END ELSE BEGIN
                             CFAccList.LOOKUPMODE(TRUE);
                             IF NOT (CFAccList.RUNMODAL = ACTION::LookupOK) THEN
                               EXIT(FALSE);

                             Text := CFAccList.GetSelectionFilter;
                           END;

                           EXIT(TRUE);
                         END;
                          }

    { 24  ;2   ;Field     ;
                SourceExpr="Date Compression" }

    { 12  ;2   ;Field     ;
                SourceExpr="Starting Date" }

    { 14  ;2   ;Field     ;
                SourceExpr="Last Date Updated";
                Editable=FALSE }

    { 16  ;2   ;Field     ;
                SourceExpr="Last Entry No.";
                Editable=FALSE }

    { 18  ;2   ;Field     ;
                SourceExpr="Last Budget Entry No.";
                Editable=FALSE }

    { 20  ;2   ;Field     ;
                SourceExpr="Update on Posting" }

    { 39  ;2   ;Field     ;
                SourceExpr="Include Budgets";
                Editable=GLAccountSource }

    { 41  ;2   ;Field     ;
                SourceExpr=Blocked }

    { 1900309501;1;Group  ;
                CaptionML=[DEU=Dimensionen;
                           ENU=Dimensions] }

    { 26  ;2   ;Field     ;
                SourceExpr="Dimension 1 Code" }

    { 28  ;2   ;Field     ;
                SourceExpr="Dimension 2 Code" }

    { 30  ;2   ;Field     ;
                SourceExpr="Dimension 3 Code" }

    { 32  ;2   ;Field     ;
                SourceExpr="Dimension 4 Code" }

    { 1900000007;0;Container;
                ContainerType=FactBoxArea }

    { 1900383207;1;Part   ;
                Visible=FALSE;
                PartType=System;
                SystemPartID=RecordLinks }

    { 1905767507;1;Part   ;
                Visible=FALSE;
                PartType=System;
                SystemPartID=Notes }

  }
  CODE
  {
    VAR
      GLAccountSource@1000 : Boolean;

    LOCAL PROCEDURE SetGLAccountSource@1();
    BEGIN
      GLAccountSource := "Account Source" = "Account Source"::"G/L Account";
    END;

    BEGIN
    END.
  }
}

