OBJECT Page 5362 CRM UnitGroup List
{
  OBJECT-PROPERTIES
  {
    Date=25.10.16;
    Time=12:00:00;
    Version List=NAVW110.00;
  }
  PROPERTIES
  {
    Editable=No;
    CaptionML=[DEU=Microsoft Dynamics CRM-Einheitengruppen;
               ENU=Microsoft Dynamics CRM Unit Groups];
    SourceTable=Table5362;
    SourceTableView=SORTING(Name);
    PageType=List;
    OnInit=BEGIN
             CODEUNIT.RUN(CODEUNIT::"CRM Integration Management");
           END;

    OnAfterGetRecord=VAR
                       CRMIntegrationRecord@1000 : Record 5331;
                       RecordID@1001 : RecordID;
                     BEGIN
                       IF CRMIntegrationRecord.FindRecordIDFromID(UoMScheduleId,DATABASE::"Unit of Measure",RecordID) THEN
                         IF CurrentlyCoupledCRMUomschedule.UoMScheduleId = UoMScheduleId THEN BEGIN
                           Coupled := 'Current';
                           FirstColumnStyle := 'Strong';
                         END ELSE BEGIN
                           Coupled := 'Yes';
                           FirstColumnStyle := 'Subordinate';
                         END
                       ELSE BEGIN
                         Coupled := 'No';
                         FirstColumnStyle := 'None';
                       END;
                     END;

  }
  CONTROLS
  {
    { 1   ;0   ;Container ;
                ContainerType=ContentArea }

    { 2   ;1   ;Group     ;
                GroupType=Repeater }

    { 4   ;2   ;Field     ;
                CaptionML=[DEU=Name;
                           ENU=Name];
                ToolTipML=[DEU=Gibt den Namen des Datensatzes an.;
                           ENU=Specifies the name of the record.];
                ApplicationArea=#Suite;
                SourceExpr=Name;
                StyleExpr=FirstColumnStyle }

    { 5   ;2   ;Field     ;
                CaptionML=[DEU=Basiseinheitenname;
                           ENU=Base Unit Name];
                ToolTipML=[DEU=Gibt die Basiseinheit des Dynamics CRM-Datensatzes an.;
                           ENU=Specifies the base unit of measure of the Dynamics CRM record.];
                ApplicationArea=#Suite;
                SourceExpr=BaseUoMName }

    { 6   ;2   ;Field     ;
                CaptionML=[DEU=Status;
                           ENU=Status];
                ApplicationArea=#Suite;
                SourceExpr=StateCode }

    { 7   ;2   ;Field     ;
                CaptionML=[DEU=Statusgrund;
                           ENU=Status Reason];
                ApplicationArea=#Suite;
                SourceExpr=StatusCode }

    { 3   ;2   ;Field     ;
                Name=Coupled;
                CaptionML=[DEU=Gekoppelt;
                           ENU=Coupled];
                ToolTipML=[DEU=Gibt an, ob der Dynamics CRM-Datensatz mit Dynamics NAV gekoppelt ist.;
                           ENU=Specifies if the Dynamics CRM record is coupled to Dynamics NAV.];
                ApplicationArea=#Suite;
                SourceExpr=Coupled }

  }
  CODE
  {
    VAR
      CurrentlyCoupledCRMUomschedule@1003 : Record 5362;
      Coupled@1001 : Text;
      FirstColumnStyle@1004 : Text;

    PROCEDURE SetCurrentlyCoupledCRMUomschedule@2(CRMUomschedule@1000 : Record 5362);
    BEGIN
      CurrentlyCoupledCRMUomschedule := CRMUomschedule;
    END;

    BEGIN
    END.
  }
}

