OBJECT Page 7183 Receipt Lines Subform
{
  OBJECT-PROPERTIES
  {
    Date=25.10.16;
    Time=12:00:00;
    Version List=NAVW110.00;
  }
  PROPERTIES
  {
    Editable=No;
    CaptionML=[DEU=Zeilen;
               ENU=Lines];
    MultipleNewLines=Yes;
    SourceTable=Table121;
    PageType=ListPart;
  }
  CONTROLS
  {
  }
  CODE
  {

    BEGIN
    END.
  }
}

