OBJECT Page 396 Sales Shipment Statistics
{
  OBJECT-PROPERTIES
  {
    Date=05.11.08;
    Time=12:00:00;
    Version List=NAVW16.00;
  }
  PROPERTIES
  {
    Editable=No;
    CaptionML=[DEU=Verkaufslieferungsstatistik;
               ENU=Sales Shipment Statistics];
    LinksAllowed=No;
    SourceTable=Table110;
    PageType=Card;
    OnAfterGetRecord=BEGIN
                       CLEARALL;

                       SalesShptLine.SETRANGE("Document No.","No.");

                       IF SalesShptLine.FIND('-') THEN
                         REPEAT
                           LineQty := LineQty + SalesShptLine.Quantity;
                           TotalNetWeight := TotalNetWeight + (SalesShptLine.Quantity * SalesShptLine."Net Weight");
                           TotalGrossWeight := TotalGrossWeight + (SalesShptLine.Quantity * SalesShptLine."Gross Weight");
                           TotalVolume := TotalVolume + (SalesShptLine.Quantity * SalesShptLine."Unit Volume");
                           IF SalesShptLine."Units per Parcel" > 0 THEN
                             TotalParcels := TotalParcels + ROUND(SalesShptLine.Quantity / SalesShptLine."Units per Parcel",1,'>');
                         UNTIL SalesShptLine.NEXT = 0;
                     END;

  }
  CONTROLS
  {
    { 1900000001;0;Container;
                ContainerType=ContentArea }

    { 2   ;1   ;Group     ;
                CaptionML=[DEU=Allgemein;
                           ENU=General] }

    { 3   ;2   ;Field     ;
                CaptionML=[DEU=Menge;
                           ENU=Quantity];
                DecimalPlaces=0:5;
                SourceExpr=LineQty }

    { 13  ;2   ;Field     ;
                CaptionML=[DEU=Pakete;
                           ENU=Parcels];
                DecimalPlaces=0:5;
                SourceExpr=TotalParcels }

    { 7   ;2   ;Field     ;
                CaptionML=[DEU=Nettogewicht;
                           ENU=Net Weight];
                DecimalPlaces=0:5;
                SourceExpr=TotalNetWeight }

    { 10  ;2   ;Field     ;
                CaptionML=[DEU=Bruttogewicht;
                           ENU=Gross Weight];
                DecimalPlaces=0:5;
                SourceExpr=TotalGrossWeight }

    { 17  ;2   ;Field     ;
                CaptionML=[DEU=Volumen;
                           ENU=Volume];
                DecimalPlaces=0:5;
                SourceExpr=TotalVolume }

  }
  CODE
  {
    VAR
      SalesShptLine@1000 : Record 111;
      LineQty@1001 : Decimal;
      TotalNetWeight@1002 : Decimal;
      TotalGrossWeight@1003 : Decimal;
      TotalVolume@1004 : Decimal;
      TotalParcels@1005 : Decimal;

    BEGIN
    END.
  }
}

