OBJECT Page 130408 CAL Test Coverage Map
{
  OBJECT-PROPERTIES
  {
    Date=25.10.16;
    Time=12:00:00;
    Version List=NAVW110.00;
  }
  PROPERTIES
  {
    CaptionML=[DEU=CAL Test Coverage Map;
               ENU=CAL Test Coverage Map];
    InsertAllowed=No;
    ModifyAllowed=No;
    SourceTable=Table130406;
    SourceTableView=SORTING(Object Type,Object ID);
    PageType=List;
    OnOpenPage=BEGIN
                 TestCodeunitVisible := GETFILTER("Test Codeunit ID") = '';
                 ObjectVisible := (GETFILTER("Object ID") = '') AND (GETFILTER("Object Type") = '');
               END;

    ActionList=ACTIONS
    {
      { 8       ;    ;ActionContainer;
                      ActionContainerType=ActionItems }
      { 10      ;1   ;Action    ;
                      Name=ImportExportTestMap;
                      CaptionML=[DEU=Import/Export;
                                 ENU=Import/Export];
                      ApplicationArea=#All;
                      Promoted=Yes;
                      PromotedIsBig=Yes;
                      Image=ImportExport;
                      PromotedCategory=Process;
                      OnAction=BEGIN
                                 XMLPORT.RUN(XMLPORT::"CAL Test Coverage Map");
                               END;
                                }
      { 11      ;1   ;Action    ;
                      Name=ImportFromFolder;
                      CaptionML=[DEU=Import TestMap From Folder;
                                 ENU=Import TestMap From Folder];
                      ToolTipML=[DEU=Import test maps from folder;
                                 ENU=Import test maps from folder];
                      ApplicationArea=#All;
                      Image=ImportExport;
                      OnAction=VAR
                                 TempNameValueBuffer@1000 : TEMPORARY Record 823;
                                 FileManagement@1001 : Codeunit 419;
                                 File@1005 : File;
                                 InStream@1004 : InStream;
                                 ImportFolderPath@1002 : Text;
                                 ServerFolderPath@1003 : Text;
                               BEGIN
                                 IF FileManagement.SelectFolderDialog(ImportFromFolderLbl,ImportFolderPath) THEN BEGIN
                                   ServerFolderPath := FileManagement.UploadClientDirectorySilent(ImportFolderPath,'*.txt',FALSE);
                                   FileManagement.GetServerDirectoryFilesList(TempNameValueBuffer,ServerFolderPath);
                                   IF TempNameValueBuffer.FINDSET THEN
                                     REPEAT
                                       File.OPEN(TempNameValueBuffer.Name);
                                       File.CREATEINSTREAM(InStream);
                                       XMLPORT.IMPORT(XMLPORT::"CAL Test Coverage Map",InStream);
                                       File.CLOSE;
                                     UNTIL TempNameValueBuffer.NEXT = 0;
                                 END;
                               END;
                                }
    }
  }
  CONTROLS
  {
    { 1   ;0   ;Container ;
                ContainerType=ContentArea }

    { 2   ;1   ;Group     ;
                Name=Group;
                GroupType=Repeater }

    { 3   ;2   ;Field     ;
                ApplicationArea=#All;
                SourceExpr="Object Type";
                Visible=ObjectVisible }

    { 4   ;2   ;Field     ;
                ApplicationArea=#All;
                SourceExpr="Object ID";
                Visible=ObjectVisible }

    { 6   ;2   ;Field     ;
                ApplicationArea=#All;
                SourceExpr="Object Name";
                Visible=ObjectVisible }

    { 7   ;2   ;Field     ;
                ApplicationArea=#All;
                SourceExpr="Hit by Test Codeunits";
                Visible=ObjectVisible;
                OnDrillDown=BEGIN
                              ShowTestCodeunits;
                            END;
                             }

    { 5   ;2   ;Field     ;
                ApplicationArea=#All;
                SourceExpr="Test Codeunit ID";
                Visible=TestCodeunitVisible }

    { 9   ;2   ;Field     ;
                ApplicationArea=#All;
                SourceExpr="Test Codeunit Name";
                Visible=TestCodeunitVisible }

  }
  CODE
  {
    VAR
      ObjectVisible@1000 : Boolean;
      TestCodeunitVisible@1001 : Boolean;
      ImportFromFolderLbl@1002 : TextConst 'DEU=Select folder to import TestMaps from;ENU=Select folder to import TestMaps from';

    BEGIN
    END.
  }
}

