OBJECT Page 9186 Generic Chart Query Columns
{
  OBJECT-PROPERTIES
  {
    Date=25.10.16;
    Time=12:00:00;
    Version List=NAVW110.00;
  }
  PROPERTIES
  {
    CaptionML=[DEU=Generisches Diagramm - Abfragespalten;
               ENU=Generic Chart Query Columns];
    InsertAllowed=No;
    DeleteAllowed=No;
    ModifyAllowed=No;
    SourceTable=Table9183;
    PageType=List;
    SourceTableTemporary=Yes;
  }
  CONTROLS
  {
    { 1   ;0   ;Container ;
                ContainerType=ContentArea }

    { 2   ;1   ;Group     ;
                Name=Group;
                GroupType=Repeater }

    { 3   ;2   ;Field     ;
                ToolTipML=[DEU=Gibt die Nummer der Abfrage an, die zum Generieren von Spaltendaten im Diagramm verwendet wird.;
                           ENU=Specifies the number of the query that is used to generate column data in the chart.];
                ApplicationArea=#Basic,#Suite;
                SourceExpr="Query No." }

    { 4   ;2   ;Field     ;
                ToolTipML=[DEU=Gibt die Nummer der Abfragespalte an, die zum Generieren von Spaltendaten im Diagramm verwendet wird.;
                           ENU=Specifies the number of the query column that is used to generate column data in the chart.];
                ApplicationArea=#Basic,#Suite;
                SourceExpr="Query Column No." }

    { 5   ;2   ;Field     ;
                ToolTipML=[DEU=Gibt den Namen der Abfrage an, die zum Generieren von Spaltendaten im Diagramm verwendet wird.;
                           ENU=Specifies the name of the query that is used to generate column data in the chart.];
                ApplicationArea=#Basic,#Suite;
                SourceExpr="Column Name" }

  }
  CODE
  {

    BEGIN
    END.
  }
}

