OBJECT Page 7172 Sales Lines Subform
{
  OBJECT-PROPERTIES
  {
    Date=25.10.16;
    Time=12:00:00;
    Version List=NAVW110.00;
  }
  PROPERTIES
  {
    Editable=No;
    CaptionML=[DEU=Zeilen;
               ENU=Lines];
    MultipleNewLines=Yes;
    LinksAllowed=No;
    SourceTable=Table37;
    PageType=ListPart;
  }
  CONTROLS
  {
  }
  CODE
  {

    BEGIN
    END.
  }
}

