OBJECT Page 71 User Time Registers
{
  OBJECT-PROPERTIES
  {
    Date=08.06.01;
    Time=12:00:00;
    Version List=NAVW13.00;
  }
  PROPERTIES
  {
    CaptionML=[DEU=Zeitprotokolle;
               ENU=User Time Registers];
    SourceTable=Table51;
    PageType=List;
  }
  CONTROLS
  {
    { 1900000001;0;Container;
                ContainerType=ContentArea }

    { 1   ;1   ;Group     ;
                GroupType=Repeater }

    { 2   ;2   ;Field     ;
                SourceExpr="User ID" }

    { 4   ;2   ;Field     ;
                SourceExpr=Date }

    { 6   ;2   ;Field     ;
                SourceExpr=Minutes }

    { 1900000007;0;Container;
                ContainerType=FactBoxArea }

    { 1900383207;1;Part   ;
                Visible=FALSE;
                PartType=System;
                SystemPartID=RecordLinks }

    { 1905767507;1;Part   ;
                Visible=FALSE;
                PartType=System;
                SystemPartID=Notes }

  }
  CODE
  {

    BEGIN
    END.
  }
}

