OBJECT Query 251 G/L Budget Entry Dimensions
{
  OBJECT-PROPERTIES
  {
    Date=25.10.16;
    Time=12:00:00;
    Version List=NAVW110.00;
  }
  PROPERTIES
  {
    CaptionML=[DEU=Dimensionen Finanzbudgetposten;
               ENU=G/L Budget Entry Dimensions];
  }
  ELEMENTS
  {
    { 1   ;0   ;DataItem;                    ;
               DataItemTable=Table96 }

    { 7   ;1   ;Filter  ;                    ;
               DataSource=Budget Name }

    { 2   ;1   ;Filter  ;                    ;
               DataSource=G/L Account No. }

    { 3   ;1   ;Filter  ;                    ;
               DataSource=Date }

    { 8   ;1   ;Filter  ;                    ;
               DataSource=Business Unit Code }

    { 5   ;1   ;Filter  ;                    ;
               DataSource=Global Dimension 1 Code }

    { 9   ;1   ;Filter  ;                    ;
               DataSource=Global Dimension 2 Code }

    { 4   ;1   ;Column  ;                    ;
               DataSource=Dimension Set ID }

    { 6   ;1   ;Column  ;                    ;
               DataSource=Amount;
               MethodType=Totals;
               Method=Sum }

  }
  CODE
  {

    BEGIN
    END.
  }
}

