OBJECT Report 6004 Batch Post Service Invoices
{
  OBJECT-PROPERTIES
  {
    Date=15.09.15;
    Time=12:00:00;
    Version List=NAVW19.00;
  }
  PROPERTIES
  {
    CaptionML=[DEU=Servicerechnungen stapelbuchen;
               ENU=Batch Post Service Invoices];
    ProcessingOnly=Yes;
  }
  DATASET
  {
    { 1634;    ;DataItem;                    ;
               DataItemTable=Table5900;
               DataItemTableView=SORTING(Document Type,No.)
                                 WHERE(Document Type=CONST(Invoice));
               OnPreDataItem=BEGIN
                               IF ReplacePostingDate AND (PostingDateReq = 0D) THEN
                                 ERROR(Text000);
                               CounterTotal := COUNT;
                               Window.OPEN(Text001);
                             END;

               OnAfterGetRecord=BEGIN
                                  IF CalcInvDisc THEN
                                    CalculateInvoiceDiscount;

                                  Counter := Counter + 1;
                                  Window.UPDATE(1,"No.");
                                  Window.UPDATE(2,ROUND(Counter / CounterTotal * 10000,1));
                                  CLEAR(ServPost);
                                  ServPost.SetPostingDate(ReplacePostingDate,ReplaceDocumentDate,PostingDateReq);
                                  ServPost.SetPostingOptions(TRUE,FALSE,TRUE); // ship, consume, invoice
                                  IF ServPost.RUN("Service Header") THEN BEGIN
                                    CounterOK := CounterOK + 1;
                                    IF MARKEDONLY THEN
                                      MARK(FALSE);
                                  END;
                                END;

               OnPostDataItem=BEGIN
                                Window.CLOSE;
                                MESSAGE(Text002,CounterOK,CounterTotal);
                              END;

               ReqFilterFields=No.,Status,Priority }

  }
  REQUESTPAGE
  {
    PROPERTIES
    {
      SaveValues=Yes;
      OnOpenPage=BEGIN
                   SalesSetup.GET;
                   CalcInvDisc := SalesSetup."Calc. Inv. Discount";
                   ReplacePostingDate := FALSE;
                   ReplaceDocumentDate := FALSE;
                 END;

    }
    CONTROLS
    {
      { 1900000001;0;Container;
                  ContainerType=ContentArea }

      { 1900000002;1;Group  ;
                  CaptionML=[DEU=Optionen;
                             ENU=Options] }

      { 1   ;2   ;Field     ;
                  Name=PostingDate;
                  CaptionML=[DEU=Buchungsdatum;
                             ENU=Posting Date];
                  SourceExpr=PostingDateReq }

      { 2   ;2   ;Field     ;
                  Name=ReplacePostingDate;
                  CaptionML=[DEU=Buchungsdatum ersetzen;
                             ENU=Replace Posting Date];
                  SourceExpr=ReplacePostingDate;
                  OnValidate=BEGIN
                               IF ReplacePostingDate THEN
                                 MESSAGE(Text003);
                             END;
                              }

      { 3   ;2   ;Field     ;
                  CaptionML=[DEU=Belegdatum ersetzen;
                             ENU=Replace Document Date];
                  SourceExpr=ReplaceDocumentDate }

      { 5   ;2   ;Field     ;
                  CaptionML=[DEU=Rechnungsrab. berechnen;
                             ENU=Calc. Inv. Discount];
                  SourceExpr=CalcInvDisc;
                  OnValidate=BEGIN
                               SalesSetup.GET;
                               SalesSetup.TESTFIELD("Calc. Inv. Discount",FALSE);
                             END;
                              }

    }
  }
  LABELS
  {
  }
  CODE
  {
    VAR
      Text000@1000 : TextConst 'DEU=Geben Sie das Buchungsdatum ein.;ENU=Enter the posting date.';
      Text001@1001 : TextConst 'DEU=Rechnungen buchen  #1########## @2@@@@@@@@@@@@@;ENU=Posting invoices   #1########## @2@@@@@@@@@@@@@';
      Text002@1002 : TextConst 'DEU=%1 Rechnungen von insgesamt %2 wurden gebucht.;ENU=%1 invoices out of a total of %2 have now been posted.';
      Text003@1003 : TextConst 'DEU=Der dem neuen Buchungsdatum im Servicekopf zugeordnete Wechselkurs wird nicht auf die Servicezeilen angewendet.;ENU=The exchange rate associated with the new posting date on the service header will not apply to the service lines.';
      ServLine@1005 : Record 5902;
      SalesSetup@1006 : Record 311;
      ServCalcDisc@1007 : Codeunit 5950;
      ServPost@1008 : Codeunit 5980;
      Window@1009 : Dialog;
      PostingDateReq@1010 : Date;
      CounterTotal@1011 : Integer;
      Counter@1012 : Integer;
      CounterOK@1013 : Integer;
      ReplacePostingDate@1014 : Boolean;
      ReplaceDocumentDate@1015 : Boolean;
      CalcInvDisc@1016 : Boolean;

    LOCAL PROCEDURE CalculateInvoiceDiscount@1();
    BEGIN
      ServLine.RESET;
      ServLine.SETRANGE("Document Type","Service Header"."Document Type");
      ServLine.SETRANGE("Document No.","Service Header"."No.");
      IF ServLine.FINDFIRST THEN
        IF ServCalcDisc.RUN(ServLine) THEN BEGIN
          "Service Header".GET("Service Header"."Document Type","Service Header"."No.");
          COMMIT;
        END;
    END;

    PROCEDURE InitializeRequest@2(PostingDateReqFrom@1000 : Date;ReplacePostingDateFrom@1003 : Boolean;ReplaceDocumentDateFrom@1002 : Boolean;CalcInvDiscFrom@1001 : Boolean);
    BEGIN
      PostingDateReq := PostingDateReqFrom;
      ReplacePostingDate := ReplacePostingDateFrom;
      ReplaceDocumentDate := ReplaceDocumentDateFrom;
      CalcInvDisc := CalcInvDiscFrom;
    END;

    BEGIN
    END.
  }
  RDLDATA
  {
  }
}

