OBJECT Report 7307 Whse. Phys. Inventory List
{
  OBJECT-PROPERTIES
  {
    Date=25.10.16;
    Time=12:00:00;
    Version List=NAVW110.00;
  }
  PROPERTIES
  {
    CaptionML=[DEU=Logistik Inventurliste;
               ENU=Whse. Phys. Inventory List];
    OnPreReport=BEGIN
                  WhseJnlLineFilter := "Warehouse Journal Line".GETFILTERS;
                  WhseJnlBatchFilter := "Warehouse Journal Batch".GETFILTERS;
                END;

  }
  DATASET
  {
    { 6455;    ;DataItem;PageLoop            ;
               DataItemTable=Table2000000026;
               DataItemTableView=SORTING(Number)
                                 WHERE(Number=CONST(1)) }

    { 57  ;1   ;Column  ;CompanyName         ;
               SourceExpr=COMPANYNAME }

    { 1   ;1   ;Column  ;CaptionWhseJnlBatFilter;
               SourceExpr="Warehouse Journal Batch".TABLECAPTION + ': ' + WhseJnlBatchFilter }

    { 10  ;1   ;Column  ;WhseJnlBatchFilter  ;
               SourceExpr=WhseJnlBatchFilter }

    { 2   ;1   ;Column  ;CaptionWhseJnlLineFilter;
               SourceExpr="Warehouse Journal Line".TABLECAPTION + ': ' + WhseJnlLineFilter }

    { 12  ;1   ;Column  ;WhseJnlLineFilter   ;
               SourceExpr=WhseJnlLineFilter }

    { 58  ;1   ;Column  ;WhsePhysInvListCaption;
               SourceExpr=WhsePhysInvListCaptionLbl }

    { 61  ;1   ;Column  ;CurrReportPageNoCaption;
               SourceExpr=CurrReportPageNoCaptionLbl }

    { 19  ;1   ;Column  ;WarehuseJnlLinRegDtCapt;
               SourceExpr=WarehuseJnlLinRegDtCaptLbl }

    { 53  ;1   ;Column  ;QtyPhysInventoryCaption;
               SourceExpr=QtyPhysInventoryCaptionLbl }

    { 28  ;1   ;Column  ;WhseDocNo_WhseJnlLineCaption;
               SourceExpr="Warehouse Journal Line".FIELDCAPTION("Whse. Document No.") }

    { 27  ;1   ;Column  ;ItemNo_WarehouseJournlLinCaption;
               SourceExpr="Warehouse Journal Line".FIELDCAPTION("Item No.") }

    { 26  ;1   ;Column  ;Desc_WarehouseJnlLineCaption;
               SourceExpr="Warehouse Journal Line".FIELDCAPTION(Description) }

    { 25  ;1   ;Column  ;LocCode_WarehouseJnlLineCaption;
               SourceExpr="Warehouse Journal Line".FIELDCAPTION("Location Code") }

    { 24  ;1   ;Column  ;QtyCalculated_WhseJnlLineCaption;
               SourceExpr="Warehouse Journal Line".FIELDCAPTION("Qty. (Calculated)") }

    { 23  ;1   ;Column  ;ZoneCode_WarehouseJnlLineCaption;
               SourceExpr="Warehouse Journal Line".FIELDCAPTION("Zone Code") }

    { 22  ;1   ;Column  ;BinCode_WarehouseJnlLineCaption;
               SourceExpr="Warehouse Journal Line".FIELDCAPTION("Bin Code") }

    { 9945;1   ;DataItem;                    ;
               DataItemTable=Table7310;
               PrintOnlyIfDetail=Yes;
               ReqFilterFields=Journal Template Name,Name,Location Code }

    { 9893;2   ;DataItem;                    ;
               DataItemTable=Table7311;
               ReqFilterFields=Zone Code,Bin Code;
               DataItemLink=Journal Template Name=FIELD(Journal Template Name),
                            Journal Batch Name=FIELD(Name),
                            Location Code=FIELD(Location Code) }

    { 3   ;3   ;Column  ;RegDt_WarehouseJnlLine;
               SourceExpr=FORMAT("Registering Date") }

    { 7   ;3   ;Column  ;WhseDocNo_WhseJnlLine;
               SourceExpr="Whse. Document No." }

    { 9   ;3   ;Column  ;ItemNo_WarehouseJournlLin;
               SourceExpr="Item No." }

    { 11  ;3   ;Column  ;Desc_WarehouseJnlLine;
               SourceExpr=Description }

    { 17  ;3   ;Column  ;LocCode_WarehouseJnlLine;
               SourceExpr="Location Code" }

    { 5   ;3   ;Column  ;EmptyString         ;
               SourceExpr='' }

    { 6   ;3   ;Column  ;QtyCalculated_WhseJnlLine;
               SourceExpr="Qty. (Calculated)" }

    { 13  ;3   ;Column  ;ZoneCode_WarehouseJnlLine;
               SourceExpr="Zone Code" }

    { 16  ;3   ;Column  ;BinCode_WarehouseJnlLine;
               SourceExpr="Bin Code" }

    { 40  ;3   ;Column  ;LotNo_WarehuseJournalLine;
               SourceExpr="Lot No." }

    { 42  ;3   ;Column  ;SerialNo_WarehouseJnlLine;
               SourceExpr="Serial No." }

    { 4   ;3   ;Column  ;ShowLotSN           ;
               SourceExpr=ShowLotSN }

    { 8   ;3   ;Column  ;ShowQtyCalculated   ;
               SourceExpr=ShowQtyCalculated }

    { 15  ;3   ;Column  ;LotNo_WarehuseJournalLineCaption;
               SourceExpr=FIELDCAPTION("Lot No.") }

    { 21  ;3   ;Column  ;SerialNo_WarehouseJnlLineCaption;
               SourceExpr=FIELDCAPTION("Serial No.") }

  }
  REQUESTPAGE
  {
    PROPERTIES
    {
    }
    CONTROLS
    {
      { 3   ;0   ;Container ;
                  ContainerType=ContentArea }

      { 2   ;1   ;Group     ;
                  CaptionML=[DEU=Optionen;
                             ENU=Options] }

      { 1   ;2   ;Field     ;
                  Name=ShowCalculatedQty;
                  CaptionML=[DEU=Menge (berechnet) anzeigen;
                             ENU=Show Qty. (Calculated)];
                  SourceExpr=ShowQtyCalculated }

      { 4   ;2   ;Field     ;
                  Name=ShowSerialLotNumber;
                  CaptionML=[DEU=Seriennr./Chargennr. anzeigen;
                             ENU=Show Serial/Lot Number];
                  SourceExpr=ShowLotSN }

    }
  }
  LABELS
  {
  }
  CODE
  {
    VAR
      WhseJnlLineFilter@1000 : Text;
      WhseJnlBatchFilter@1003 : Text;
      ShowQtyCalculated@1001 : Boolean;
      ShowLotSN@1002 : Boolean;
      WhsePhysInvListCaptionLbl@1425 : TextConst 'DEU=Inventurliste Lager;ENU=Warehouse Physical Inventory List';
      CurrReportPageNoCaptionLbl@2595 : TextConst 'DEU=Seite;ENU=Page';
      WarehuseJnlLinRegDtCaptLbl@6329 : TextConst 'DEU=Registriert am;ENU=Registering Date';
      QtyPhysInventoryCaptionLbl@5566 : TextConst 'DEU=Menge (Inventur);ENU=Quantity (Physical Inventory)';

    PROCEDURE Initialize@1(ShowQtyCalculated2@1000 : Boolean);
    BEGIN
      ShowQtyCalculated := ShowQtyCalculated2;
    END;

    BEGIN
    END.
  }
  RDLDATA
  {
    <?xml version="1.0" encoding="utf-8"?>
<Report xmlns:rd="http://schemas.microsoft.com/SQLServer/reporting/reportdesigner" xmlns="http://schemas.microsoft.com/sqlserver/reporting/2010/01/reportdefinition">
  <AutoRefresh>0</AutoRefresh>
  <DataSources>
    <DataSource Name="DataSource">
      <ConnectionProperties>
        <DataProvider>SQL</DataProvider>
        <ConnectString />
      </ConnectionProperties>
      <rd:SecurityType>None</rd:SecurityType>
      <rd:DataSourceID>92d4b3c4-d5b9-4979-9b27-cd92bea6d947</rd:DataSourceID>
    </DataSource>
  </DataSources>
  <DataSets>
    <DataSet Name="DataSet_Result">
      <Query>
        <DataSourceName>DataSource</DataSourceName>
        <CommandText />
      </Query>
      <Fields>
        <Field Name="CompanyName">
          <DataField>CompanyName</DataField>
        </Field>
        <Field Name="CaptionWhseJnlBatFilter">
          <DataField>CaptionWhseJnlBatFilter</DataField>
        </Field>
        <Field Name="WhseJnlBatchFilter">
          <DataField>WhseJnlBatchFilter</DataField>
        </Field>
        <Field Name="CaptionWhseJnlLineFilter">
          <DataField>CaptionWhseJnlLineFilter</DataField>
        </Field>
        <Field Name="WhseJnlLineFilter">
          <DataField>WhseJnlLineFilter</DataField>
        </Field>
        <Field Name="WhsePhysInvListCaption">
          <DataField>WhsePhysInvListCaption</DataField>
        </Field>
        <Field Name="CurrReportPageNoCaption">
          <DataField>CurrReportPageNoCaption</DataField>
        </Field>
        <Field Name="WarehuseJnlLinRegDtCapt">
          <DataField>WarehuseJnlLinRegDtCapt</DataField>
        </Field>
        <Field Name="QtyPhysInventoryCaption">
          <DataField>QtyPhysInventoryCaption</DataField>
        </Field>
        <Field Name="WhseDocNo_WhseJnlLineCaption">
          <DataField>WhseDocNo_WhseJnlLineCaption</DataField>
        </Field>
        <Field Name="ItemNo_WarehouseJournlLinCaption">
          <DataField>ItemNo_WarehouseJournlLinCaption</DataField>
        </Field>
        <Field Name="Desc_WarehouseJnlLineCaption">
          <DataField>Desc_WarehouseJnlLineCaption</DataField>
        </Field>
        <Field Name="LocCode_WarehouseJnlLineCaption">
          <DataField>LocCode_WarehouseJnlLineCaption</DataField>
        </Field>
        <Field Name="QtyCalculated_WhseJnlLineCaption">
          <DataField>QtyCalculated_WhseJnlLineCaption</DataField>
        </Field>
        <Field Name="ZoneCode_WarehouseJnlLineCaption">
          <DataField>ZoneCode_WarehouseJnlLineCaption</DataField>
        </Field>
        <Field Name="BinCode_WarehouseJnlLineCaption">
          <DataField>BinCode_WarehouseJnlLineCaption</DataField>
        </Field>
        <Field Name="RegDt_WarehouseJnlLine">
          <DataField>RegDt_WarehouseJnlLine</DataField>
        </Field>
        <Field Name="WhseDocNo_WhseJnlLine">
          <DataField>WhseDocNo_WhseJnlLine</DataField>
        </Field>
        <Field Name="ItemNo_WarehouseJournlLin">
          <DataField>ItemNo_WarehouseJournlLin</DataField>
        </Field>
        <Field Name="Desc_WarehouseJnlLine">
          <DataField>Desc_WarehouseJnlLine</DataField>
        </Field>
        <Field Name="LocCode_WarehouseJnlLine">
          <DataField>LocCode_WarehouseJnlLine</DataField>
        </Field>
        <Field Name="EmptyString">
          <DataField>EmptyString</DataField>
        </Field>
        <Field Name="QtyCalculated_WhseJnlLine">
          <DataField>QtyCalculated_WhseJnlLine</DataField>
        </Field>
        <Field Name="QtyCalculated_WhseJnlLineFormat">
          <DataField>QtyCalculated_WhseJnlLineFormat</DataField>
        </Field>
        <Field Name="ZoneCode_WarehouseJnlLine">
          <DataField>ZoneCode_WarehouseJnlLine</DataField>
        </Field>
        <Field Name="BinCode_WarehouseJnlLine">
          <DataField>BinCode_WarehouseJnlLine</DataField>
        </Field>
        <Field Name="LotNo_WarehuseJournalLine">
          <DataField>LotNo_WarehuseJournalLine</DataField>
        </Field>
        <Field Name="SerialNo_WarehouseJnlLine">
          <DataField>SerialNo_WarehouseJnlLine</DataField>
        </Field>
        <Field Name="ShowLotSN">
          <DataField>ShowLotSN</DataField>
        </Field>
        <Field Name="ShowQtyCalculated">
          <DataField>ShowQtyCalculated</DataField>
        </Field>
        <Field Name="LotNo_WarehuseJournalLineCaption">
          <DataField>LotNo_WarehuseJournalLineCaption</DataField>
        </Field>
        <Field Name="SerialNo_WarehouseJnlLineCaption">
          <DataField>SerialNo_WarehouseJnlLineCaption</DataField>
        </Field>
      </Fields>
      <rd:DataSetInfo>
        <rd:DataSetName>DataSet</rd:DataSetName>
        <rd:SchemaPath>Report.xsd</rd:SchemaPath>
        <rd:TableName>Result</rd:TableName>
      </rd:DataSetInfo>
    </DataSet>
  </DataSets>
  <ReportSections>
    <ReportSection>
      <Body>
        <ReportItems>
          <Tablix Name="WhseInvListTable">
            <TablixBody>
              <TablixColumns>
                <TablixColumn>
                  <Width>0.74991in</Width>
                </TablixColumn>
                <TablixColumn>
                  <Width>0.78117in</Width>
                </TablixColumn>
                <TablixColumn>
                  <Width>0.64961in</Width>
                </TablixColumn>
                <TablixColumn>
                  <Width>1.49606in</Width>
                </TablixColumn>
                <TablixColumn>
                  <Width>0.64961in</Width>
                </TablixColumn>
                <TablixColumn>
                  <Width>0.62077in</Width>
                </TablixColumn>
                <TablixColumn>
                  <Width>0.72253in</Width>
                </TablixColumn>
                <TablixColumn>
                  <Width>0.74803in</Width>
                </TablixColumn>
                <TablixColumn>
                  <Width>0.72364in</Width>
                </TablixColumn>
              </TablixColumns>
              <TablixRows>
                <TablixRow>
                  <Height>0.13889in</Height>
                  <TablixCells>
                    <TablixCell>
                      <CellContents>
                        <Textbox Name="WarehouseJnlLineRegDtCaption">
                          <CanGrow>true</CanGrow>
                          <KeepTogether>true</KeepTogether>
                          <Paragraphs>
                            <Paragraph>
                              <TextRuns>
                                <TextRun>
                                  <Value>=First(Fields!WarehuseJnlLinRegDtCapt.Value)</Value>
                                  <Style>
                                    <FontStyle>Normal</FontStyle>
                                    <FontFamily>Segoe UI</FontFamily>
                                    <FontSize>8pt</FontSize>
                                    <FontWeight>Bold</FontWeight>
                                  </Style>
                                </TextRun>
                              </TextRuns>
                              <Style>
                                <TextAlign>Left</TextAlign>
                              </Style>
                            </Paragraph>
                          </Paragraphs>
                          <ZIndex>53</ZIndex>
                          <Style>
                            <VerticalAlign>Bottom</VerticalAlign>
                            <PaddingRight>5pt</PaddingRight>
                          </Style>
                        </Textbox>
                      </CellContents>
                    </TablixCell>
                    <TablixCell>
                      <CellContents>
                        <Textbox Name="WhseJnlLineWhseDocNoCaption">
                          <CanGrow>true</CanGrow>
                          <KeepTogether>true</KeepTogether>
                          <Paragraphs>
                            <Paragraph>
                              <TextRuns>
                                <TextRun>
                                  <Value>=First(Fields!WhseDocNo_WhseJnlLineCaption.Value)</Value>
                                  <Style>
                                    <FontStyle>Normal</FontStyle>
                                    <FontFamily>Segoe UI</FontFamily>
                                    <FontSize>8pt</FontSize>
                                    <FontWeight>Bold</FontWeight>
                                  </Style>
                                </TextRun>
                              </TextRuns>
                              <Style />
                            </Paragraph>
                          </Paragraphs>
                          <ZIndex>52</ZIndex>
                          <Style>
                            <VerticalAlign>Bottom</VerticalAlign>
                            <PaddingLeft>5pt</PaddingLeft>
                            <PaddingRight>5pt</PaddingRight>
                          </Style>
                        </Textbox>
                      </CellContents>
                    </TablixCell>
                    <TablixCell>
                      <CellContents>
                        <Textbox Name="WarehouseJournalLineItemNoCaption">
                          <CanGrow>true</CanGrow>
                          <KeepTogether>true</KeepTogether>
                          <Paragraphs>
                            <Paragraph>
                              <TextRuns>
                                <TextRun>
                                  <Value>=First(Fields!ItemNo_WarehouseJournlLinCaption.Value)</Value>
                                  <Style>
                                    <FontStyle>Normal</FontStyle>
                                    <FontFamily>Segoe UI</FontFamily>
                                    <FontSize>8pt</FontSize>
                                    <FontWeight>Bold</FontWeight>
                                  </Style>
                                </TextRun>
                              </TextRuns>
                              <Style />
                            </Paragraph>
                          </Paragraphs>
                          <ZIndex>51</ZIndex>
                          <Style>
                            <VerticalAlign>Bottom</VerticalAlign>
                            <PaddingLeft>5pt</PaddingLeft>
                            <PaddingRight>5pt</PaddingRight>
                          </Style>
                        </Textbox>
                      </CellContents>
                    </TablixCell>
                    <TablixCell>
                      <CellContents>
                        <Textbox Name="WarehouseJnlLineDescCaption">
                          <CanGrow>true</CanGrow>
                          <KeepTogether>true</KeepTogether>
                          <Paragraphs>
                            <Paragraph>
                              <TextRuns>
                                <TextRun>
                                  <Value>=First(Fields!Desc_WarehouseJnlLineCaption.Value)</Value>
                                  <Style>
                                    <FontStyle>Normal</FontStyle>
                                    <FontFamily>Segoe UI</FontFamily>
                                    <FontSize>8pt</FontSize>
                                    <FontWeight>Bold</FontWeight>
                                  </Style>
                                </TextRun>
                              </TextRuns>
                              <Style />
                            </Paragraph>
                          </Paragraphs>
                          <ZIndex>50</ZIndex>
                          <Style>
                            <VerticalAlign>Bottom</VerticalAlign>
                            <PaddingLeft>5pt</PaddingLeft>
                            <PaddingRight>5pt</PaddingRight>
                          </Style>
                        </Textbox>
                      </CellContents>
                    </TablixCell>
                    <TablixCell>
                      <CellContents>
                        <Textbox Name="WarehouseJnlLineLocCodeCaption">
                          <CanGrow>true</CanGrow>
                          <KeepTogether>true</KeepTogether>
                          <Paragraphs>
                            <Paragraph>
                              <TextRuns>
                                <TextRun>
                                  <Value>=First(Fields!LocCode_WarehouseJnlLineCaption.Value)</Value>
                                  <Style>
                                    <FontStyle>Normal</FontStyle>
                                    <FontFamily>Segoe UI</FontFamily>
                                    <FontSize>8pt</FontSize>
                                    <FontWeight>Bold</FontWeight>
                                  </Style>
                                </TextRun>
                              </TextRuns>
                              <Style />
                            </Paragraph>
                          </Paragraphs>
                          <ZIndex>49</ZIndex>
                          <Style>
                            <VerticalAlign>Bottom</VerticalAlign>
                            <PaddingLeft>5pt</PaddingLeft>
                            <PaddingRight>5pt</PaddingRight>
                          </Style>
                        </Textbox>
                      </CellContents>
                    </TablixCell>
                    <TablixCell>
                      <CellContents>
                        <Textbox Name="WarehouseJnlLineZoneCodeCaption">
                          <CanGrow>true</CanGrow>
                          <KeepTogether>true</KeepTogether>
                          <Paragraphs>
                            <Paragraph>
                              <TextRuns>
                                <TextRun>
                                  <Value>=First(Fields!ZoneCode_WarehouseJnlLineCaption.Value)</Value>
                                  <Style>
                                    <FontStyle>Normal</FontStyle>
                                    <FontFamily>Segoe UI</FontFamily>
                                    <FontSize>8pt</FontSize>
                                    <FontWeight>Bold</FontWeight>
                                  </Style>
                                </TextRun>
                              </TextRuns>
                              <Style />
                            </Paragraph>
                          </Paragraphs>
                          <ZIndex>48</ZIndex>
                          <Style>
                            <VerticalAlign>Bottom</VerticalAlign>
                            <PaddingLeft>5pt</PaddingLeft>
                            <PaddingRight>5pt</PaddingRight>
                          </Style>
                        </Textbox>
                      </CellContents>
                    </TablixCell>
                    <TablixCell>
                      <CellContents>
                        <Textbox Name="WarehouseJnlLineBinCodeCaption">
                          <CanGrow>true</CanGrow>
                          <KeepTogether>true</KeepTogether>
                          <Paragraphs>
                            <Paragraph>
                              <TextRuns>
                                <TextRun>
                                  <Value>=First(Fields!BinCode_WarehouseJnlLineCaption.Value)</Value>
                                  <Style>
                                    <FontStyle>Normal</FontStyle>
                                    <FontFamily>Segoe UI</FontFamily>
                                    <FontSize>8pt</FontSize>
                                    <FontWeight>Bold</FontWeight>
                                  </Style>
                                </TextRun>
                              </TextRuns>
                              <Style />
                            </Paragraph>
                          </Paragraphs>
                          <ZIndex>47</ZIndex>
                          <Style>
                            <VerticalAlign>Bottom</VerticalAlign>
                            <PaddingLeft>5pt</PaddingLeft>
                            <PaddingRight>5pt</PaddingRight>
                          </Style>
                        </Textbox>
                      </CellContents>
                    </TablixCell>
                    <TablixCell>
                      <CellContents>
                        <Textbox Name="WhseJnlLineQtyCalculatedCaption">
                          <CanGrow>true</CanGrow>
                          <KeepTogether>true</KeepTogether>
                          <Paragraphs>
                            <Paragraph>
                              <TextRuns>
                                <TextRun>
                                  <Value>=First(Fields!QtyCalculated_WhseJnlLineCaption.Value)</Value>
                                  <Style>
                                    <FontStyle>Normal</FontStyle>
                                    <FontFamily>Segoe UI</FontFamily>
                                    <FontSize>8pt</FontSize>
                                    <FontWeight>Bold</FontWeight>
                                  </Style>
                                </TextRun>
                              </TextRuns>
                              <Style>
                                <TextAlign>Right</TextAlign>
                              </Style>
                            </Paragraph>
                          </Paragraphs>
                          <ZIndex>46</ZIndex>
                          <Visibility>
                            <Hidden>=IIF(Fields!ShowQtyCalculated.Value="TRUE",FALSE,TRUE)</Hidden>
                          </Visibility>
                          <DataElementOutput>NoOutput</DataElementOutput>
                          <Style>
                            <VerticalAlign>Bottom</VerticalAlign>
                            <PaddingLeft>5pt</PaddingLeft>
                            <PaddingRight>5pt</PaddingRight>
                          </Style>
                        </Textbox>
                      </CellContents>
                    </TablixCell>
                    <TablixCell>
                      <CellContents>
                        <Textbox Name="QtyPhysInventoryCaption">
                          <CanGrow>true</CanGrow>
                          <KeepTogether>true</KeepTogether>
                          <Paragraphs>
                            <Paragraph>
                              <TextRuns>
                                <TextRun>
                                  <Value>=First(Fields!QtyPhysInventoryCaption.Value)</Value>
                                  <Style>
                                    <FontStyle>Normal</FontStyle>
                                    <FontFamily>Segoe UI</FontFamily>
                                    <FontSize>8pt</FontSize>
                                    <FontWeight>Bold</FontWeight>
                                  </Style>
                                </TextRun>
                              </TextRuns>
                              <Style>
                                <TextAlign>Right</TextAlign>
                              </Style>
                            </Paragraph>
                          </Paragraphs>
                          <ZIndex>45</ZIndex>
                          <Style>
                            <VerticalAlign>Bottom</VerticalAlign>
                            <PaddingLeft>5pt</PaddingLeft>
                          </Style>
                        </Textbox>
                      </CellContents>
                    </TablixCell>
                  </TablixCells>
                </TablixRow>
                <TablixRow>
                  <Height>0.06944in</Height>
                  <TablixCells>
                    <TablixCell>
                      <CellContents>
                        <Textbox Name="Textbox20">
                          <CanGrow>true</CanGrow>
                          <KeepTogether>true</KeepTogether>
                          <Paragraphs>
                            <Paragraph>
                              <TextRuns>
                                <TextRun>
                                  <Value />
                                  <Style>
                                    <FontStyle>Normal</FontStyle>
                                    <FontFamily>Segoe UI</FontFamily>
                                    <FontSize>8pt</FontSize>
                                    <FontWeight>Bold</FontWeight>
                                  </Style>
                                </TextRun>
                              </TextRuns>
                              <Style />
                            </Paragraph>
                          </Paragraphs>
                          <rd:DefaultName>Textbox20</rd:DefaultName>
                          <Style>
                            <VerticalAlign>Bottom</VerticalAlign>
                          </Style>
                        </Textbox>
                        <ColSpan>9</ColSpan>
                      </CellContents>
                    </TablixCell>
                    <TablixCell />
                    <TablixCell />
                    <TablixCell />
                    <TablixCell />
                    <TablixCell />
                    <TablixCell />
                    <TablixCell />
                    <TablixCell />
                  </TablixCells>
                </TablixRow>
                <TablixRow>
                  <Height>0.06944in</Height>
                  <TablixCells>
                    <TablixCell>
                      <CellContents>
                        <Textbox Name="Textbox2">
                          <CanGrow>true</CanGrow>
                          <KeepTogether>true</KeepTogether>
                          <Paragraphs>
                            <Paragraph>
                              <TextRuns>
                                <TextRun>
                                  <Value />
                                  <Style>
                                    <FontStyle>Normal</FontStyle>
                                    <FontFamily>Segoe UI</FontFamily>
                                    <FontSize>8pt</FontSize>
                                    <FontWeight>Bold</FontWeight>
                                  </Style>
                                </TextRun>
                              </TextRuns>
                              <Style />
                            </Paragraph>
                          </Paragraphs>
                          <rd:DefaultName>Textbox2</rd:DefaultName>
                          <Style>
                            <Border>
                              <Style>None</Style>
                            </Border>
                            <TopBorder>
                              <Style>Solid</Style>
                            </TopBorder>
                            <VerticalAlign>Bottom</VerticalAlign>
                          </Style>
                        </Textbox>
                        <ColSpan>9</ColSpan>
                      </CellContents>
                    </TablixCell>
                    <TablixCell />
                    <TablixCell />
                    <TablixCell />
                    <TablixCell />
                    <TablixCell />
                    <TablixCell />
                    <TablixCell />
                    <TablixCell />
                  </TablixCells>
                </TablixRow>
                <TablixRow>
                  <Height>0.13889in</Height>
                  <TablixCells>
                    <TablixCell>
                      <CellContents>
                        <Textbox Name="WarehouseJnlLineRegDt">
                          <CanGrow>true</CanGrow>
                          <KeepTogether>true</KeepTogether>
                          <Paragraphs>
                            <Paragraph>
                              <TextRuns>
                                <TextRun>
                                  <Value>=Fields!RegDt_WarehouseJnlLine.Value</Value>
                                  <Style>
                                    <FontStyle>Normal</FontStyle>
                                    <FontFamily>Segoe UI</FontFamily>
                                    <FontSize>8pt</FontSize>
                                    <Format>d</Format>
                                  </Style>
                                </TextRun>
                              </TextRuns>
                              <Style>
                                <TextAlign>Left</TextAlign>
                              </Style>
                            </Paragraph>
                          </Paragraphs>
                          <ZIndex>35</ZIndex>
                          <Style>
                            <BackgroundColor>=iif(RowNumber(Nothing) mod 2, "#EFEFEF", "#FFFFFF")</BackgroundColor>
                            <VerticalAlign>Top</VerticalAlign>
                            <PaddingRight>5pt</PaddingRight>
                          </Style>
                        </Textbox>
                      </CellContents>
                    </TablixCell>
                    <TablixCell>
                      <CellContents>
                        <Textbox Name="WhseJnlLineWhseDocNo">
                          <KeepTogether>true</KeepTogether>
                          <Paragraphs>
                            <Paragraph>
                              <TextRuns>
                                <TextRun>
                                  <Value>=Fields!WhseDocNo_WhseJnlLine.Value</Value>
                                  <Style>
                                    <FontStyle>Normal</FontStyle>
                                    <FontFamily>Segoe UI</FontFamily>
                                    <FontSize>8pt</FontSize>
                                  </Style>
                                </TextRun>
                              </TextRuns>
                              <Style>
                                <TextAlign>Left</TextAlign>
                              </Style>
                            </Paragraph>
                          </Paragraphs>
                          <ZIndex>34</ZIndex>
                          <Style>
                            <BackgroundColor>=iif(RowNumber(Nothing) mod 2, "#EFEFEF", "#FFFFFF")</BackgroundColor>
                            <VerticalAlign>Top</VerticalAlign>
                            <PaddingLeft>5pt</PaddingLeft>
                            <PaddingRight>5pt</PaddingRight>
                          </Style>
                        </Textbox>
                      </CellContents>
                    </TablixCell>
                    <TablixCell>
                      <CellContents>
                        <Textbox Name="WarehouseJournalLineItemNo">
                          <KeepTogether>true</KeepTogether>
                          <Paragraphs>
                            <Paragraph>
                              <TextRuns>
                                <TextRun>
                                  <Value>=Fields!ItemNo_WarehouseJournlLin.Value</Value>
                                  <Style>
                                    <FontStyle>Normal</FontStyle>
                                    <FontFamily>Segoe UI</FontFamily>
                                    <FontSize>8pt</FontSize>
                                  </Style>
                                </TextRun>
                              </TextRuns>
                              <Style>
                                <TextAlign>Left</TextAlign>
                              </Style>
                            </Paragraph>
                          </Paragraphs>
                          <ZIndex>33</ZIndex>
                          <Style>
                            <BackgroundColor>=iif(RowNumber(Nothing) mod 2, "#EFEFEF", "#FFFFFF")</BackgroundColor>
                            <VerticalAlign>Top</VerticalAlign>
                            <PaddingLeft>5pt</PaddingLeft>
                            <PaddingRight>5pt</PaddingRight>
                          </Style>
                        </Textbox>
                      </CellContents>
                    </TablixCell>
                    <TablixCell>
                      <CellContents>
                        <Textbox Name="WarehouseJnlLineDesc">
                          <KeepTogether>true</KeepTogether>
                          <Paragraphs>
                            <Paragraph>
                              <TextRuns>
                                <TextRun>
                                  <Value>=Fields!Desc_WarehouseJnlLine.Value</Value>
                                  <Style>
                                    <FontStyle>Normal</FontStyle>
                                    <FontFamily>Segoe UI</FontFamily>
                                    <FontSize>8pt</FontSize>
                                  </Style>
                                </TextRun>
                              </TextRuns>
                              <Style />
                            </Paragraph>
                          </Paragraphs>
                          <ZIndex>32</ZIndex>
                          <Style>
                            <BackgroundColor>=iif(RowNumber(Nothing) mod 2, "#EFEFEF", "#FFFFFF")</BackgroundColor>
                            <VerticalAlign>Top</VerticalAlign>
                            <PaddingLeft>5pt</PaddingLeft>
                            <PaddingRight>5pt</PaddingRight>
                          </Style>
                        </Textbox>
                      </CellContents>
                    </TablixCell>
                    <TablixCell>
                      <CellContents>
                        <Textbox Name="WarehouseJnlLineLocCode">
                          <KeepTogether>true</KeepTogether>
                          <Paragraphs>
                            <Paragraph>
                              <TextRuns>
                                <TextRun>
                                  <Value>=Fields!LocCode_WarehouseJnlLine.Value</Value>
                                  <Style>
                                    <FontStyle>Normal</FontStyle>
                                    <FontFamily>Segoe UI</FontFamily>
                                    <FontSize>8pt</FontSize>
                                  </Style>
                                </TextRun>
                              </TextRuns>
                              <Style />
                            </Paragraph>
                          </Paragraphs>
                          <ZIndex>31</ZIndex>
                          <Style>
                            <BackgroundColor>=iif(RowNumber(Nothing) mod 2, "#EFEFEF", "#FFFFFF")</BackgroundColor>
                            <VerticalAlign>Top</VerticalAlign>
                            <PaddingLeft>5pt</PaddingLeft>
                            <PaddingRight>5pt</PaddingRight>
                          </Style>
                        </Textbox>
                      </CellContents>
                    </TablixCell>
                    <TablixCell>
                      <CellContents>
                        <Textbox Name="WarehouseJnlLineZoneCode">
                          <KeepTogether>true</KeepTogether>
                          <Paragraphs>
                            <Paragraph>
                              <TextRuns>
                                <TextRun>
                                  <Value>=Fields!ZoneCode_WarehouseJnlLine.Value</Value>
                                  <Style>
                                    <FontStyle>Normal</FontStyle>
                                    <FontFamily>Segoe UI</FontFamily>
                                    <FontSize>8pt</FontSize>
                                  </Style>
                                </TextRun>
                              </TextRuns>
                              <Style />
                            </Paragraph>
                          </Paragraphs>
                          <ZIndex>30</ZIndex>
                          <Style>
                            <BackgroundColor>=iif(RowNumber(Nothing) mod 2, "#EFEFEF", "#FFFFFF")</BackgroundColor>
                            <VerticalAlign>Top</VerticalAlign>
                            <PaddingLeft>5pt</PaddingLeft>
                            <PaddingRight>5pt</PaddingRight>
                          </Style>
                        </Textbox>
                      </CellContents>
                    </TablixCell>
                    <TablixCell>
                      <CellContents>
                        <Textbox Name="WarehouseJnlLineBinCode">
                          <KeepTogether>true</KeepTogether>
                          <Paragraphs>
                            <Paragraph>
                              <TextRuns>
                                <TextRun>
                                  <Value>=Fields!BinCode_WarehouseJnlLine.Value</Value>
                                  <Style>
                                    <FontStyle>Normal</FontStyle>
                                    <FontFamily>Segoe UI</FontFamily>
                                    <FontSize>8pt</FontSize>
                                  </Style>
                                </TextRun>
                              </TextRuns>
                              <Style />
                            </Paragraph>
                          </Paragraphs>
                          <ZIndex>29</ZIndex>
                          <Style>
                            <BackgroundColor>=iif(RowNumber(Nothing) mod 2, "#EFEFEF", "#FFFFFF")</BackgroundColor>
                            <VerticalAlign>Top</VerticalAlign>
                            <PaddingLeft>5pt</PaddingLeft>
                            <PaddingRight>5pt</PaddingRight>
                          </Style>
                        </Textbox>
                      </CellContents>
                    </TablixCell>
                    <TablixCell>
                      <CellContents>
                        <Textbox Name="WhseJnlLineQtyCalculated">
                          <KeepTogether>true</KeepTogether>
                          <Paragraphs>
                            <Paragraph>
                              <TextRuns>
                                <TextRun>
                                  <Value>=Fields!QtyCalculated_WhseJnlLine.Value</Value>
                                  <Style>
                                    <FontStyle>Normal</FontStyle>
                                    <FontFamily>Segoe UI</FontFamily>
                                    <FontSize>8pt</FontSize>
                                  </Style>
                                </TextRun>
                              </TextRuns>
                              <Style />
                            </Paragraph>
                          </Paragraphs>
                          <ZIndex>28</ZIndex>
                          <Visibility>
                            <Hidden>=IIF(Fields!ShowQtyCalculated.Value="TRUE",FALSE,TRUE)</Hidden>
                          </Visibility>
                          <DataElementOutput>NoOutput</DataElementOutput>
                          <Style>
                            <BackgroundColor>=iif(RowNumber(Nothing) mod 2, "#EFEFEF", "#FFFFFF")</BackgroundColor>
                            <VerticalAlign>Top</VerticalAlign>
                            <PaddingLeft>5pt</PaddingLeft>
                            <PaddingRight>5pt</PaddingRight>
                          </Style>
                        </Textbox>
                      </CellContents>
                    </TablixCell>
                    <TablixCell>
                      <CellContents>
                        <Textbox Name="EmptyString">
                          <KeepTogether>true</KeepTogether>
                          <Paragraphs>
                            <Paragraph>
                              <TextRuns>
                                <TextRun>
                                  <Value>=Fields!EmptyString.Value</Value>
                                  <Style>
                                    <FontStyle>Normal</FontStyle>
                                    <FontFamily>Segoe UI</FontFamily>
                                    <FontSize>8pt</FontSize>
                                  </Style>
                                </TextRun>
                              </TextRuns>
                              <Style />
                            </Paragraph>
                          </Paragraphs>
                          <ZIndex>27</ZIndex>
                          <Style>
                            <BottomBorder>
                              <Style>Solid</Style>
                            </BottomBorder>
                            <BackgroundColor>=iif(RowNumber(Nothing) mod 2, "#EFEFEF", "#FFFFFF")</BackgroundColor>
                            <VerticalAlign>Top</VerticalAlign>
                            <PaddingLeft>5pt</PaddingLeft>
                          </Style>
                        </Textbox>
                      </CellContents>
                    </TablixCell>
                  </TablixCells>
                </TablixRow>
                <TablixRow>
                  <Height>0.13889in</Height>
                  <TablixCells>
                    <TablixCell>
                      <CellContents>
                        <Textbox Name="TextBox1">
                          <KeepTogether>true</KeepTogether>
                          <Paragraphs>
                            <Paragraph>
                              <TextRuns>
                                <TextRun>
                                  <Value />
                                  <Style />
                                </TextRun>
                              </TextRuns>
                              <Style />
                            </Paragraph>
                          </Paragraphs>
                          <ZIndex>26</ZIndex>
                          <Style>
                            <VerticalAlign>Middle</VerticalAlign>
                          </Style>
                        </Textbox>
                        <ColSpan>3</ColSpan>
                      </CellContents>
                    </TablixCell>
                    <TablixCell />
                    <TablixCell />
                    <TablixCell>
                      <CellContents>
                        <Textbox Name="WarehouseJournalLineLotNo">
                          <CanGrow>true</CanGrow>
                          <KeepTogether>true</KeepTogether>
                          <Paragraphs>
                            <Paragraph>
                              <TextRuns>
                                <TextRun>
                                  <Value>=Fields!LotNo_WarehuseJournalLineCaption.Value &amp;" "&amp; Fields!LotNo_WarehuseJournalLine.Value</Value>
                                  <Style>
                                    <FontStyle>Normal</FontStyle>
                                    <FontFamily>Segoe UI</FontFamily>
                                    <FontSize>8pt</FontSize>
                                  </Style>
                                </TextRun>
                              </TextRuns>
                              <Style />
                            </Paragraph>
                          </Paragraphs>
                          <ZIndex>23</ZIndex>
                          <Style>
                            <VerticalAlign>Middle</VerticalAlign>
                            <PaddingLeft>5pt</PaddingLeft>
                            <PaddingRight>5pt</PaddingRight>
                          </Style>
                        </Textbox>
                      </CellContents>
                    </TablixCell>
                    <TablixCell>
                      <CellContents>
                        <Textbox Name="WarehouseJnlLineSerialNoCaption">
                          <CanGrow>true</CanGrow>
                          <KeepTogether>true</KeepTogether>
                          <Paragraphs>
                            <Paragraph>
                              <TextRuns>
                                <TextRun>
                                  <Value>=Fields!SerialNo_WarehouseJnlLineCaption.Value</Value>
                                  <Style>
                                    <FontStyle>Normal</FontStyle>
                                    <FontFamily>Segoe UI</FontFamily>
                                    <FontSize>8pt</FontSize>
                                    <FontWeight>Bold</FontWeight>
                                  </Style>
                                </TextRun>
                              </TextRuns>
                              <Style />
                            </Paragraph>
                          </Paragraphs>
                          <ZIndex>22</ZIndex>
                          <Style>
                            <VerticalAlign>Bottom</VerticalAlign>
                            <PaddingLeft>5pt</PaddingLeft>
                            <PaddingRight>5pt</PaddingRight>
                          </Style>
                        </Textbox>
                      </CellContents>
                    </TablixCell>
                    <TablixCell>
                      <CellContents>
                        <Textbox Name="WarehouseJnlLineSerialNo">
                          <KeepTogether>true</KeepTogether>
                          <Paragraphs>
                            <Paragraph>
                              <TextRuns>
                                <TextRun>
                                  <Value>=Fields!SerialNo_WarehouseJnlLine.Value</Value>
                                  <Style>
                                    <FontStyle>Normal</FontStyle>
                                    <FontFamily>Segoe UI</FontFamily>
                                    <FontSize>8pt</FontSize>
                                  </Style>
                                </TextRun>
                              </TextRuns>
                              <Style />
                            </Paragraph>
                          </Paragraphs>
                          <ZIndex>21</ZIndex>
                          <Style>
                            <VerticalAlign>Middle</VerticalAlign>
                            <PaddingLeft>5pt</PaddingLeft>
                            <PaddingRight>5pt</PaddingRight>
                          </Style>
                        </Textbox>
                      </CellContents>
                    </TablixCell>
                    <TablixCell>
                      <CellContents>
                        <Textbox Name="TextBox13">
                          <KeepTogether>true</KeepTogether>
                          <Paragraphs>
                            <Paragraph>
                              <TextRuns>
                                <TextRun>
                                  <Value />
                                  <Style />
                                </TextRun>
                              </TextRuns>
                              <Style />
                            </Paragraph>
                          </Paragraphs>
                          <ZIndex>20</ZIndex>
                          <Style>
                            <VerticalAlign>Middle</VerticalAlign>
                          </Style>
                        </Textbox>
                        <ColSpan>3</ColSpan>
                      </CellContents>
                    </TablixCell>
                    <TablixCell />
                    <TablixCell />
                  </TablixCells>
                </TablixRow>
                <TablixRow>
                  <Height>0.13889in</Height>
                  <TablixCells>
                    <TablixCell>
                      <CellContents>
                        <Textbox Name="TextBox16">
                          <KeepTogether>true</KeepTogether>
                          <Paragraphs>
                            <Paragraph>
                              <TextRuns>
                                <TextRun>
                                  <Value />
                                  <Style />
                                </TextRun>
                              </TextRuns>
                              <Style />
                            </Paragraph>
                          </Paragraphs>
                          <ZIndex>17</ZIndex>
                          <Style>
                            <VerticalAlign>Middle</VerticalAlign>
                          </Style>
                        </Textbox>
                        <ColSpan>3</ColSpan>
                      </CellContents>
                    </TablixCell>
                    <TablixCell />
                    <TablixCell />
                    <TablixCell>
                      <CellContents>
                        <Textbox Name="WarehouseJournalLineLotNoControl36">
                          <CanGrow>true</CanGrow>
                          <KeepTogether>true</KeepTogether>
                          <Paragraphs>
                            <Paragraph>
                              <TextRuns>
                                <TextRun>
                                  <Value>=Fields!LotNo_WarehuseJournalLineCaption.Value &amp;" "&amp; Fields!LotNo_WarehuseJournalLine.Value</Value>
                                  <Style>
                                    <FontStyle>Normal</FontStyle>
                                    <FontFamily>Segoe UI</FontFamily>
                                    <FontSize>8pt</FontSize>
                                  </Style>
                                </TextRun>
                              </TextRuns>
                              <Style />
                            </Paragraph>
                          </Paragraphs>
                          <ZIndex>14</ZIndex>
                          <Style>
                            <VerticalAlign>Middle</VerticalAlign>
                            <PaddingLeft>5pt</PaddingLeft>
                            <PaddingRight>5pt</PaddingRight>
                          </Style>
                        </Textbox>
                      </CellContents>
                    </TablixCell>
                    <TablixCell>
                      <CellContents>
                        <Textbox Name="TextBox19">
                          <KeepTogether>true</KeepTogether>
                          <Paragraphs>
                            <Paragraph>
                              <TextRuns>
                                <TextRun>
                                  <Value />
                                  <Style />
                                </TextRun>
                              </TextRuns>
                              <Style />
                            </Paragraph>
                          </Paragraphs>
                          <ZIndex>13</ZIndex>
                          <Style>
                            <VerticalAlign>Middle</VerticalAlign>
                          </Style>
                        </Textbox>
                        <ColSpan>5</ColSpan>
                      </CellContents>
                    </TablixCell>
                    <TablixCell />
                    <TablixCell />
                    <TablixCell />
                    <TablixCell />
                  </TablixCells>
                </TablixRow>
                <TablixRow>
                  <Height>0.13889in</Height>
                  <TablixCells>
                    <TablixCell>
                      <CellContents>
                        <Textbox Name="TextBox114">
                          <KeepTogether>true</KeepTogether>
                          <Paragraphs>
                            <Paragraph>
                              <TextRuns>
                                <TextRun>
                                  <Value />
                                  <Style />
                                </TextRun>
                              </TextRuns>
                              <Style />
                            </Paragraph>
                          </Paragraphs>
                          <ZIndex>8</ZIndex>
                          <Style>
                            <VerticalAlign>Middle</VerticalAlign>
                          </Style>
                        </Textbox>
                        <ColSpan>3</ColSpan>
                      </CellContents>
                    </TablixCell>
                    <TablixCell />
                    <TablixCell />
                    <TablixCell>
                      <CellContents>
                        <Textbox Name="WarehouseJnlLineSerialNoControl46">
                          <CanGrow>true</CanGrow>
                          <KeepTogether>true</KeepTogether>
                          <Paragraphs>
                            <Paragraph>
                              <TextRuns>
                                <TextRun>
                                  <Value>=Fields!LotNo_WarehuseJournalLineCaption.Value &amp;" "&amp; Fields!SerialNo_WarehouseJnlLine.Value</Value>
                                  <Style>
                                    <FontStyle>Normal</FontStyle>
                                    <FontFamily>Segoe UI</FontFamily>
                                    <FontSize>8pt</FontSize>
                                  </Style>
                                </TextRun>
                              </TextRuns>
                              <Style />
                            </Paragraph>
                          </Paragraphs>
                          <ZIndex>5</ZIndex>
                          <Style>
                            <VerticalAlign>Middle</VerticalAlign>
                            <PaddingLeft>5pt</PaddingLeft>
                            <PaddingRight>5pt</PaddingRight>
                          </Style>
                        </Textbox>
                      </CellContents>
                    </TablixCell>
                    <TablixCell>
                      <CellContents>
                        <Textbox Name="TextBox117">
                          <KeepTogether>true</KeepTogether>
                          <Paragraphs>
                            <Paragraph>
                              <TextRuns>
                                <TextRun>
                                  <Value />
                                  <Style />
                                </TextRun>
                              </TextRuns>
                              <Style />
                            </Paragraph>
                          </Paragraphs>
                          <ZIndex>4</ZIndex>
                          <Style>
                            <VerticalAlign>Middle</VerticalAlign>
                          </Style>
                        </Textbox>
                        <ColSpan>5</ColSpan>
                      </CellContents>
                    </TablixCell>
                    <TablixCell />
                    <TablixCell />
                    <TablixCell />
                    <TablixCell />
                  </TablixCells>
                </TablixRow>
              </TablixRows>
            </TablixBody>
            <TablixColumnHierarchy>
              <TablixMembers>
                <TablixMember />
                <TablixMember />
                <TablixMember />
                <TablixMember />
                <TablixMember />
                <TablixMember />
                <TablixMember />
                <TablixMember />
                <TablixMember />
              </TablixMembers>
            </TablixColumnHierarchy>
            <TablixRowHierarchy>
              <TablixMembers>
                <TablixMember>
                  <KeepWithGroup>After</KeepWithGroup>
                  <RepeatOnNewPage>true</RepeatOnNewPage>
                  <KeepTogether>true</KeepTogether>
                </TablixMember>
                <TablixMember>
                  <KeepWithGroup>After</KeepWithGroup>
                  <RepeatOnNewPage>true</RepeatOnNewPage>
                </TablixMember>
                <TablixMember>
                  <KeepWithGroup>After</KeepWithGroup>
                  <RepeatOnNewPage>true</RepeatOnNewPage>
                </TablixMember>
                <TablixMember>
                  <Group Name="Table1_Details_Group">
                    <DataElementName>Detail</DataElementName>
                  </Group>
                  <TablixMembers>
                    <TablixMember />
                    <TablixMember>
                      <Visibility>
                        <Hidden>=IIF((Fields!ShowLotSN.Value="TRUE") and (Fields!LotNo_WarehuseJournalLine.Value &lt;&gt; "") and (Fields!SerialNo_WarehouseJnlLine.Value &lt;&gt; ""),FALSE,TRUE)</Hidden>
                      </Visibility>
                    </TablixMember>
                    <TablixMember>
                      <Visibility>
                        <Hidden>=IIF((Fields!ShowLotSN.Value="TRUE") and (Fields!LotNo_WarehuseJournalLine.Value &lt;&gt; "") and (Fields!SerialNo_WarehouseJnlLine.Value = ""),FALSE,TRUE)</Hidden>
                      </Visibility>
                    </TablixMember>
                    <TablixMember>
                      <Visibility>
                        <Hidden>=IIF((Fields!ShowLotSN.Value="TRUE") and (Fields!LotNo_WarehuseJournalLine.Value = "") and (Fields!SerialNo_WarehouseJnlLine.Value &lt;&gt; ""),FALSE,TRUE)</Hidden>
                      </Visibility>
                    </TablixMember>
                  </TablixMembers>
                  <DataElementName>Detail_Collection</DataElementName>
                  <DataElementOutput>Output</DataElementOutput>
                  <KeepTogether>true</KeepTogether>
                </TablixMember>
              </TablixMembers>
            </TablixRowHierarchy>
            <DataSetName>DataSet_Result</DataSetName>
            <Top>0.82201cm</Top>
            <Height>2.11666cm</Height>
            <Width>18.13899cm</Width>
            <Style />
          </Tablix>
          <Textbox Name="CAPTIONWhseJnlLineFilter">
            <KeepTogether>true</KeepTogether>
            <Paragraphs>
              <Paragraph>
                <TextRuns>
                  <TextRun>
                    <Value>=First(Fields!CaptionWhseJnlLineFilter.Value)</Value>
                    <Style>
                      <FontStyle>Normal</FontStyle>
                      <FontFamily>Segoe UI</FontFamily>
                      <FontSize>8pt</FontSize>
                    </Style>
                  </TextRun>
                </TextRuns>
                <Style />
              </Paragraph>
            </Paragraphs>
            <Top>0.43678cm</Top>
            <Height>11pt</Height>
            <Width>18.13899cm</Width>
            <ZIndex>1</ZIndex>
            <Visibility>
              <Hidden>=IIF(Fields!WhseJnlLineFilter.Value="",TRUE,FALSE)</Hidden>
            </Visibility>
            <DataElementOutput>NoOutput</DataElementOutput>
            <Style>
              <VerticalAlign>Top</VerticalAlign>
            </Style>
          </Textbox>
          <Textbox Name="CAPTIONWhseJnlBatFilter">
            <KeepTogether>true</KeepTogether>
            <Paragraphs>
              <Paragraph>
                <TextRuns>
                  <TextRun>
                    <Value>=First(Fields!CaptionWhseJnlBatFilter.Value)</Value>
                    <Style>
                      <FontStyle>Normal</FontStyle>
                      <FontFamily>Segoe UI</FontFamily>
                      <FontSize>8pt</FontSize>
                    </Style>
                  </TextRun>
                </TextRuns>
                <Style />
              </Paragraph>
            </Paragraphs>
            <Top>0.03528cm</Top>
            <Height>11pt</Height>
            <Width>18.13899cm</Width>
            <ZIndex>2</ZIndex>
            <Visibility>
              <Hidden>=IIF(Fields!WhseJnlBatchFilter.Value="",TRUE,FALSE)</Hidden>
            </Visibility>
            <DataElementOutput>NoOutput</DataElementOutput>
            <Style>
              <VerticalAlign>Top</VerticalAlign>
            </Style>
          </Textbox>
        </ReportItems>
        <Height>2.97043cm</Height>
        <Style />
      </Body>
      <Width>18.13899cm</Width>
      <Page>
        <PageHeader>
          <Height>1.8733cm</Height>
          <PrintOnFirstPage>true</PrintOnFirstPage>
          <PrintOnLastPage>true</PrintOnLastPage>
          <ReportItems>
            <Textbox Name="CurrReportPAGENOCaption1">
              <KeepTogether>true</KeepTogether>
              <Paragraphs>
                <Paragraph>
                  <TextRuns>
                    <TextRun>
                      <Value>=First(Fields!CurrReportPageNoCaption.Value, "DataSet_Result") &amp;" "&amp; Globals!PageNumber</Value>
                      <Style>
                        <FontStyle>Normal</FontStyle>
                        <FontFamily>Segoe UI</FontFamily>
                        <FontSize>8pt</FontSize>
                      </Style>
                    </TextRun>
                  </TextRuns>
                  <Style>
                    <TextAlign>Right</TextAlign>
                  </Style>
                </Paragraph>
              </Paragraphs>
              <Top>0.40993cm</Top>
              <Left>14.95992cm</Left>
              <Height>11pt</Height>
              <Width>3.17907cm</Width>
              <Style>
                <VerticalAlign>Top</VerticalAlign>
              </Style>
            </Textbox>
            <Textbox Name="WhsePhysInvListCaption1">
              <KeepTogether>true</KeepTogether>
              <Paragraphs>
                <Paragraph>
                  <TextRuns>
                    <TextRun>
                      <Value>=First(Fields!WhsePhysInvListCaption.Value, "DataSet_Result")</Value>
                      <Style>
                        <FontFamily>Segoe UI</FontFamily>
                        <FontSize>14pt</FontSize>
                        <FontWeight>Bold</FontWeight>
                      </Style>
                    </TextRun>
                  </TextRuns>
                  <Style />
                </Paragraph>
              </Paragraphs>
              <Height>20pt</Height>
              <Width>14.95991cm</Width>
              <ZIndex>1</ZIndex>
              <Style>
                <VerticalAlign>Top</VerticalAlign>
              </Style>
            </Textbox>
            <Textbox Name="COMPANYNAME1">
              <KeepTogether>true</KeepTogether>
              <Paragraphs>
                <Paragraph>
                  <TextRuns>
                    <TextRun>
                      <Value>=First(Fields!CompanyName.Value, "DataSet_Result")</Value>
                      <Style>
                        <FontFamily>Segoe UI</FontFamily>
                        <FontSize>8pt</FontSize>
                        <FontWeight>Normal</FontWeight>
                      </Style>
                    </TextRun>
                  </TextRuns>
                  <Style />
                </Paragraph>
              </Paragraphs>
              <Top>0.70518cm</Top>
              <Height>11pt</Height>
              <Width>14.95991cm</Width>
              <ZIndex>2</ZIndex>
              <Style>
                <VerticalAlign>Top</VerticalAlign>
              </Style>
            </Textbox>
            <Textbox Name="ExecutionTimeTextBox">
              <KeepTogether>true</KeepTogether>
              <Paragraphs>
                <Paragraph>
                  <TextRuns>
                    <TextRun>
                      <Value>=Globals!ExecutionTime</Value>
                      <Style>
                        <FontStyle>Normal</FontStyle>
                        <FontFamily>Segoe UI</FontFamily>
                        <FontSize>8pt</FontSize>
                        <Format>D</Format>
                      </Style>
                    </TextRun>
                  </TextRuns>
                  <Style>
                    <TextAlign>Right</TextAlign>
                  </Style>
                </Paragraph>
              </Paragraphs>
              <Left>14.95992cm</Left>
              <Height>11pt</Height>
              <Width>3.17907cm</Width>
              <ZIndex>3</ZIndex>
              <Style>
                <VerticalAlign>Top</VerticalAlign>
              </Style>
            </Textbox>
            <Textbox Name="UserIdTextBox">
              <CanGrow>true</CanGrow>
              <KeepTogether>true</KeepTogether>
              <Paragraphs>
                <Paragraph>
                  <TextRuns>
                    <TextRun>
                      <Value>=User!UserID</Value>
                      <Style>
                        <FontStyle>Normal</FontStyle>
                        <FontFamily>Segoe UI</FontFamily>
                        <FontSize>8pt</FontSize>
                      </Style>
                    </TextRun>
                  </TextRuns>
                  <Style>
                    <TextAlign>Right</TextAlign>
                  </Style>
                </Paragraph>
              </Paragraphs>
              <Top>0.75636cm</Top>
              <Left>14.95992cm</Left>
              <Height>11pt</Height>
              <Width>3.17907cm</Width>
              <ZIndex>4</ZIndex>
              <Style>
                <VerticalAlign>Top</VerticalAlign>
              </Style>
            </Textbox>
          </ReportItems>
          <Style />
        </PageHeader>
        <PageHeight>29.7cm</PageHeight>
        <PageWidth>21cm</PageWidth>
        <InteractiveHeight>11in</InteractiveHeight>
        <InteractiveWidth>8.5in</InteractiveWidth>
        <LeftMargin>1.76388cm</LeftMargin>
        <RightMargin>1.05834cm</RightMargin>
        <TopMargin>1.05834cm</TopMargin>
        <BottomMargin>1.48166cm</BottomMargin>
        <ColumnSpacing>1.27cm</ColumnSpacing>
        <Style />
      </Page>
    </ReportSection>
  </ReportSections>
  <Code>Public Function BlankZero(ByVal Value As Decimal)
    if Value = 0 then
        Return ""
    end if
    Return Value
End Function

Public Function BlankPos(ByVal Value As Decimal)
    if Value &gt; 0 then
        Return ""
    end if
    Return Value
End Function

Public Function BlankZeroAndPos(ByVal Value As Decimal)
    if Value &gt;= 0 then
        Return ""
    end if
    Return Value
End Function

Public Function BlankNeg(ByVal Value As Decimal)
    if Value &lt; 0 then
        Return ""
    end if
    Return Value
End Function

Public Function BlankNegAndZero(ByVal Value As Decimal)
    if Value &lt;= 0 then
        Return ""
    end if
    Return Value
End Function
</Code>
  <Language>=User!Language</Language>
  <ConsumeContainerWhitespace>true</ConsumeContainerWhitespace>
  <rd:ReportUnitType>Cm</rd:ReportUnitType>
  <rd:ReportID>353587fd-885b-4d8b-836a-34bcfad586d8</rd:ReportID>
</Report>
    END_OF_RDLDATA
  }
}

