OBJECT Table 5353 CRM Salesorder
{
  OBJECT-PROPERTIES
  {
    Date=24.11.16;
    Time=12:00:00;
    Version List=NAVW110.00.00.14199;
  }
  PROPERTIES
  {
    DataCaptionFields=Name,OrderNumber;
    TableType=CRM;
    ExternalName=salesorder;
    CaptionML=[DEU=CRM Salesorder;
               ENU=CRM Salesorder];
    Description=Quote that has been accepted.;
  }
  FIELDS
  {
    { 1   ;   ;SalesOrderId        ;GUID          ;ExternalName=salesorderid;
                                                   ExternalType=Uniqueidentifier;
                                                   ExternalAccess=Insert;
                                                   CaptionML=[DEU=Order;
                                                              ENU=Order];
                                                   Description=Unique identifier of the order. }
    { 2   ;   ;OpportunityId       ;GUID          ;TableRelation="CRM Opportunity".OpportunityId;
                                                   ExternalName=opportunityid;
                                                   ExternalType=Lookup;
                                                   CaptionML=[DEU=Opportunity;
                                                              ENU=Opportunity];
                                                   Description=Choose the related opportunity so that the data for the order and opportunity are linked for reporting and analytics. }
    { 3   ;   ;QuoteId             ;GUID          ;TableRelation="CRM Quote".QuoteId;
                                                   ExternalName=quoteid;
                                                   ExternalType=Lookup;
                                                   CaptionML=[DEU=Quote;
                                                              ENU=Quote];
                                                   Description=Choose the related quote so that order data and quote data are linked for reporting and analytics. }
    { 4   ;   ;PriorityCode        ;Option        ;InitValue=DefaultValue;
                                                   ExternalName=prioritycode;
                                                   ExternalType=Picklist;
                                                   OptionOrdinalValues=1;
                                                   CaptionML=[DEU=Priority;
                                                              ENU=Priority];
                                                   OptionCaptionML=[DEU=Default Value;
                                                                    ENU=Default Value];
                                                   OptionString=DefaultValue;
                                                   Description=Select the priority so that preferred customers or critical issues are handled quickly. }
    { 5   ;   ;SubmitStatus        ;Integer       ;ExternalName=submitstatus;
                                                   ExternalType=Integer;
                                                   CaptionML=[DEU=Submitted Status;
                                                              ENU=Submitted Status];
                                                   MinValue=0;
                                                   MaxValue=1000000000;
                                                   Description=Type the code for the submitted status in the fulfillment or shipping center system. }
    { 6   ;   ;OwningUser          ;GUID          ;TableRelation="CRM Systemuser".SystemUserId;
                                                   ExternalName=owninguser;
                                                   ExternalType=Lookup;
                                                   ExternalAccess=Read;
                                                   CaptionML=[DEU=Owning User;
                                                              ENU=Owning User];
                                                   Description=Unique identifier of the user who owns the order. }
    { 7   ;   ;SubmitDate          ;Date          ;ExternalName=submitdate;
                                                   ExternalType=DateTime;
                                                   CaptionML=[DEU=Date Submitted;
                                                              ENU=Date Submitted];
                                                   Description=Enter the date when the order was submitted to the fulfillment or shipping center. }
    { 8   ;   ;OwningBusinessUnit  ;GUID          ;TableRelation="CRM Businessunit".BusinessUnitId;
                                                   ExternalName=owningbusinessunit;
                                                   ExternalType=Lookup;
                                                   ExternalAccess=Read;
                                                   CaptionML=[DEU=Owning Business Unit;
                                                              ENU=Owning Business Unit];
                                                   Description=Shows the business unit that the record owner belongs to. }
    { 9   ;   ;SubmitStatusDescription;BLOB       ;ExternalName=submitstatusdescription;
                                                   ExternalType=Memo;
                                                   CaptionML=[DEU=Submitted Status Description;
                                                              ENU=Submitted Status Description];
                                                   Description=Type additional details or notes about the order for the fulfillment or shipping center.;
                                                   SubType=Memo }
    { 10  ;   ;PriceLevelId        ;GUID          ;TableRelation="CRM Pricelevel".PriceLevelId;
                                                   ExternalName=pricelevelid;
                                                   ExternalType=Lookup;
                                                   CaptionML=[DEU=Price List;
                                                              ENU=Price List];
                                                   Description=Choose the price list associated with this record to make sure the products associated with the campaign are offered at the correct prices. }
    { 11  ;   ;LastBackofficeSubmit;Date          ;ExternalName=lastbackofficesubmit;
                                                   ExternalType=DateTime;
                                                   CaptionML=[DEU=Last Submitted to Back Office;
                                                              ENU=Last Submitted to Back Office];
                                                   Description=Enter the date and time when the order was last submitted to an accounting or ERP system for processing. }
    { 12  ;   ;AccountId           ;GUID          ;TableRelation="CRM Account".AccountId;
                                                   ExternalName=accountid;
                                                   ExternalType=Lookup;
                                                   ExternalAccess=Read;
                                                   CaptionML=[DEU=Account;
                                                              ENU=Account];
                                                   Description=Shows the parent account related to the record. This information is used to link the sales order to the account selected in the Customer field for reporting and analytics. }
    { 13  ;   ;ContactId           ;GUID          ;TableRelation="CRM Contact".ContactId;
                                                   ExternalName=contactid;
                                                   ExternalType=Lookup;
                                                   ExternalAccess=Read;
                                                   CaptionML=[DEU=Contact;
                                                              ENU=Contact];
                                                   Description=Shows the parent contact related to the record. This information is used to link the contract to the contact selected in the Customer field for reporting and analytics. }
    { 14  ;   ;OrderNumber         ;Text100       ;ExternalName=ordernumber;
                                                   ExternalType=String;
                                                   ExternalAccess=Insert;
                                                   CaptionML=[DEU=Order ID;
                                                              ENU=Order ID];
                                                   Description=Shows the order number for customer reference and to use in search. The number cannot be modified. }
    { 15  ;   ;Name                ;Text250       ;ExternalName=name;
                                                   ExternalType=String;
                                                   CaptionML=[DEU=Name;
                                                              ENU=Name];
                                                   Description=Type a descriptive name for the order. }
    { 16  ;   ;PricingErrorCode    ;Option        ;InitValue=None;
                                                   ExternalName=pricingerrorcode;
                                                   ExternalType=Picklist;
                                                   OptionOrdinalValues=[0;1;2;3;4;5;6;7;8;9;10;11;12;13;14;15;16;17;18;19;20;21;22;23;24;25;26;27;28;29;30;31;32;33;34;35;36;37];
                                                   CaptionML=[DEU="Pricing Error ";
                                                              ENU="Pricing Error "];
                                                   OptionCaptionML=[DEU=None,Detail Error,Missing Price Level,Inactive Price Level,Missing Quantity,Missing Unit Price,Missing Product,Invalid Product,Missing Pricing Code,Invalid Pricing Code,Missing UOM,Product Not In Price Level,Missing Price Level Amount,Missing Price Level Percentage,Missing Price,Missing Current Cost,Missing Standard Cost,Invalid Price Level Amount,Invalid Price Level Percentage,Invalid Price,Invalid Current Cost,Invalid Standard Cost,Invalid Rounding Policy,Invalid Rounding Option,Invalid Rounding Amount,Price Calculation Error,Invalid Discount Type,Discount Type Invalid State,Invalid Discount,Invalid Quantity,Invalid Pricing Precision,Missing Product Default UOM,Missing Product UOM Schedule ,Inactive Discount Type,Invalid Price Level Currency,Price Attribute Out Of Range,Base Currency Attribute Overflow,Base Currency Attribute Underflow;
                                                                    ENU=None,Detail Error,Missing Price Level,Inactive Price Level,Missing Quantity,Missing Unit Price,Missing Product,Invalid Product,Missing Pricing Code,Invalid Pricing Code,Missing UOM,Product Not In Price Level,Missing Price Level Amount,Missing Price Level Percentage,Missing Price,Missing Current Cost,Missing Standard Cost,Invalid Price Level Amount,Invalid Price Level Percentage,Invalid Price,Invalid Current Cost,Invalid Standard Cost,Invalid Rounding Policy,Invalid Rounding Option,Invalid Rounding Amount,Price Calculation Error,Invalid Discount Type,Discount Type Invalid State,Invalid Discount,Invalid Quantity,Invalid Pricing Precision,Missing Product Default UOM,Missing Product UOM Schedule ,Inactive Discount Type,Invalid Price Level Currency,Price Attribute Out Of Range,Base Currency Attribute Overflow,Base Currency Attribute Underflow];
                                                   OptionString=None,DetailError,MissingPriceLevel,InactivePriceLevel,MissingQuantity,MissingUnitPrice,MissingProduct,InvalidProduct,MissingPricingCode,InvalidPricingCode,MissingUOM,ProductNotInPriceLevel,MissingPriceLevelAmount,MissingPriceLevelPercentage,MissingPrice,MissingCurrentCost,MissingStandardCost,InvalidPriceLevelAmount,InvalidPriceLevelPercentage,InvalidPrice,InvalidCurrentCost,InvalidStandardCost,InvalidRoundingPolicy,InvalidRoundingOption,InvalidRoundingAmount,PriceCalculationError,InvalidDiscountType,DiscountTypeInvalidState,InvalidDiscount,InvalidQuantity,InvalidPricingPrecision,MissingProductDefaultUOM,MissingProductUOMSchedule,InactiveDiscountType,InvalidPriceLevelCurrency,PriceAttributeOutOfRange,BaseCurrencyAttributeOverflow,BaseCurrencyAttributeUnderflow;
                                                   Description=Select the type of pricing error, such as a missing or invalid product, or missing quantity. }
    { 17  ;   ;Description         ;BLOB          ;ExternalName=description;
                                                   ExternalType=Memo;
                                                   CaptionML=[DEU=Description;
                                                              ENU=Description];
                                                   Description=Type additional information to describe the order, such as the products or services offered or details about the customer's product preferences.;
                                                   SubType=Memo }
    { 18  ;   ;DiscountAmount      ;Decimal       ;ExternalName=discountamount;
                                                   ExternalType=Money;
                                                   CaptionML=[DEU=Order Discount Amount;
                                                              ENU=Order Discount Amount];
                                                   Description=Type the discount amount for the order if the customer is eligible for special savings. }
    { 19  ;   ;FreightAmount       ;Decimal       ;ExternalName=freightamount;
                                                   ExternalType=Money;
                                                   CaptionML=[DEU=Freight Amount;
                                                              ENU=Freight Amount];
                                                   Description=Type the cost of freight or shipping for the products included in the order for use in calculating the Total Amount field. }
    { 20  ;   ;TotalAmount         ;Decimal       ;ExternalName=totalamount;
                                                   ExternalType=Money;
                                                   ExternalAccess=Modify;
                                                   CaptionML=[DEU=Total Amount;
                                                              ENU=Total Amount];
                                                   Description=Shows the total amount due, calculated as the sum of the products, discounts, freight, and taxes for the order. }
    { 21  ;   ;TotalLineItemAmount ;Decimal       ;ExternalName=totallineitemamount;
                                                   ExternalType=Money;
                                                   ExternalAccess=Modify;
                                                   CaptionML=[DEU=Total Detail Amount;
                                                              ENU=Total Detail Amount];
                                                   Description=Shows the sum of all existing and write-in products included on the order, based on the specified price list and quantities. }
    { 22  ;   ;TotalLineItemDiscountAmount;Decimal;ExternalName=totallineitemdiscountamount;
                                                   ExternalType=Money;
                                                   ExternalAccess=Modify;
                                                   CaptionML=[DEU=Total Line Item Discount Amount;
                                                              ENU=Total Line Item Discount Amount];
                                                   Description=Shows the total of the Manual Discount amounts specified on all products included in the order. This value is reflected in the Detail Amount field on the order and is added to any discount amount or rate specified on the order. }
    { 23  ;   ;TotalAmountLessFreight;Decimal     ;ExternalName=totalamountlessfreight;
                                                   ExternalType=Money;
                                                   ExternalAccess=Modify;
                                                   CaptionML=[DEU=Total Pre-Freight Amount;
                                                              ENU=Total Pre-Freight Amount];
                                                   Description=Shows the total product amount for the order, minus any discounts. This value is added to freight and tax amounts in the calculation for the total amount due for the order. }
    { 24  ;   ;TotalDiscountAmount ;Decimal       ;ExternalName=totaldiscountamount;
                                                   ExternalType=Money;
                                                   ExternalAccess=Modify;
                                                   CaptionML=[DEU=Total Discount Amount;
                                                              ENU=Total Discount Amount];
                                                   Description=Shows the total discount amount, based on the discount price and rate entered on the order. }
    { 25  ;   ;RequestDeliveryBy   ;Date          ;ExternalName=requestdeliveryby;
                                                   ExternalType=DateTime;
                                                   CaptionML=[DEU=Requested Delivery Date;
                                                              ENU=Requested Delivery Date];
                                                   Description=Enter the delivery date requested by the customer for all products in the order. }
    { 26  ;   ;TotalTax            ;Decimal       ;ExternalName=totaltax;
                                                   ExternalType=Money;
                                                   ExternalAccess=Modify;
                                                   CaptionML=[DEU=Total Tax;
                                                              ENU=Total Tax];
                                                   Description=Shows the Tax amounts specified on all products included in the order, included in the Total Amount due calculation for the order. }
    { 27  ;   ;ShippingMethodCode  ;Option        ;InitValue=[ ];
                                                   ExternalName=shippingmethodcode;
                                                   ExternalType=Picklist;
                                                   OptionOrdinalValues=[-1;1;2;3;4;5;6;7];
                                                   CaptionML=[DEU=Shipping Method;
                                                              ENU=Shipping Method];
                                                   OptionCaptionML=[DEU=" ,Airborne,DHL,FedEx,UPS,Postal Mail,Full Load,Will Call";
                                                                    ENU=" ,Airborne,DHL,FedEx,UPS,Postal Mail,Full Load,Will Call"];
                                                   OptionString=[ ,Airborne,DHL,FedEx,UPS,PostalMail,FullLoad,WillCall];
                                                   Description=Select a shipping method for deliveries sent to this address. }
    { 28  ;   ;PaymentTermsCode    ;Option        ;InitValue=[ ];
                                                   ExternalName=paymenttermscode;
                                                   ExternalType=Picklist;
                                                   OptionOrdinalValues=[-1;1;2;3;4];
                                                   CaptionML=[DEU=Payment Terms;
                                                              ENU=Payment Terms];
                                                   OptionCaptionML=[DEU=" ,Net 30,2% 10; Net 30,Net 45,Net 60";
                                                                    ENU=" ,Net 30,2% 10; Net 30,Net 45,Net 60"];
                                                   OptionString=[ ,Net30,2%10Net30,Net45,Net60];
                                                   Description=Select the payment terms to indicate when the customer needs to pay the total amount. }
    { 29  ;   ;FreightTermsCode    ;Option        ;InitValue=[ ];
                                                   ExternalName=freighttermscode;
                                                   ExternalType=Picklist;
                                                   OptionOrdinalValues=[-1;1;2];
                                                   CaptionML=[DEU=Freight Terms;
                                                              ENU=Freight Terms];
                                                   OptionCaptionML=[DEU=" ,FOB,No Charge";
                                                                    ENU=" ,FOB,No Charge"];
                                                   OptionString=[ ,FOB,NoCharge];
                                                   Description=Select the freight terms to make sure shipping charges are processed correctly. }
    { 30  ;   ;CreatedBy           ;GUID          ;TableRelation="CRM Systemuser".SystemUserId;
                                                   ExternalName=createdby;
                                                   ExternalType=Lookup;
                                                   ExternalAccess=Read;
                                                   CaptionML=[DEU=Created By;
                                                              ENU=Created By];
                                                   Description=Shows who created the record. }
    { 31  ;   ;CreatedOn           ;DateTime      ;ExternalName=createdon;
                                                   ExternalType=DateTime;
                                                   ExternalAccess=Read;
                                                   CaptionML=[DEU=Created On;
                                                              ENU=Created On];
                                                   Description=Shows the date and time when the record was created. The date and time are displayed in the time zone selected in Microsoft Dynamics CRM options. }
    { 32  ;   ;ModifiedBy          ;GUID          ;TableRelation="CRM Systemuser".SystemUserId;
                                                   ExternalName=modifiedby;
                                                   ExternalType=Lookup;
                                                   ExternalAccess=Read;
                                                   CaptionML=[DEU=Modified By;
                                                              ENU=Modified By];
                                                   Description=Shows who last updated the record. }
    { 33  ;   ;ModifiedOn          ;DateTime      ;ExternalName=modifiedon;
                                                   ExternalType=DateTime;
                                                   ExternalAccess=Read;
                                                   CaptionML=[DEU=Modified On;
                                                              ENU=Modified On];
                                                   Description=Shows the date and time when the record was last updated. The date and time are displayed in the time zone selected in Microsoft Dynamics CRM options. }
    { 34  ;   ;StateCode           ;Option        ;InitValue=Active;
                                                   ExternalName=statecode;
                                                   ExternalType=State;
                                                   ExternalAccess=Modify;
                                                   OptionOrdinalValues=[0;1;2;3;4];
                                                   CaptionML=[DEU=Status;
                                                              ENU=Status];
                                                   OptionCaptionML=[DEU=Active,Submitted,Canceled,Fulfilled,Invoiced;
                                                                    ENU=Active,Submitted,Canceled,Fulfilled,Invoiced];
                                                   OptionString=Active,Submitted,Canceled,Fulfilled,Invoiced;
                                                   Description=Shows whether the order is active, submitted, fulfilled, canceled, or invoiced. Only active orders can be edited. }
    { 35  ;   ;StatusCode          ;Option        ;InitValue=[ ];
                                                   ExternalName=statuscode;
                                                   ExternalType=Status;
                                                   OptionOrdinalValues=[-1;3;4;1;2;100001;100002;100003];
                                                   CaptionML=[DEU=Status Reason;
                                                              ENU=Status Reason];
                                                   OptionCaptionML=[DEU=" ,In Progress,No Money,New,Pending,Complete,Partial,Invoiced";
                                                                    ENU=" ,In Progress,No Money,New,Pending,Complete,Partial,Invoiced"];
                                                   OptionString=[ ,InProgress,NoMoney,New,Pending,Complete,Partial,Invoiced];
                                                   Description=Select the order's status. }
    { 36  ;   ;ShipTo_Name         ;Text200       ;ExternalName=shipto_name;
                                                   ExternalType=String;
                                                   CaptionML=[DEU=Ship To Name;
                                                              ENU=Ship To Name];
                                                   Description=Type a name for the customer's shipping address, such as "Headquarters" or "Field office", to identify the address. }
    { 37  ;   ;VersionNumber       ;BigInteger    ;ExternalName=versionnumber;
                                                   ExternalType=BigInt;
                                                   ExternalAccess=Read;
                                                   CaptionML=[DEU=Version Number;
                                                              ENU=Version Number];
                                                   Description=Version number of the order. }
    { 38  ;   ;ShipTo_Line1        ;Text250       ;ExternalName=shipto_line1;
                                                   ExternalType=String;
                                                   CaptionML=[DEU=Ship To Street 1;
                                                              ENU=Ship To Street 1];
                                                   Description=Type the first line of the customer's shipping address. }
    { 39  ;   ;ShipTo_Line2        ;Text250       ;ExternalName=shipto_line2;
                                                   ExternalType=String;
                                                   CaptionML=[DEU=Ship To Street 2;
                                                              ENU=Ship To Street 2];
                                                   Description=Type the second line of the customer's shipping address. }
    { 40  ;   ;ShipTo_Line3        ;Text250       ;ExternalName=shipto_line3;
                                                   ExternalType=String;
                                                   CaptionML=[DEU=Ship To Street 3;
                                                              ENU=Ship To Street 3];
                                                   Description=Type the third line of the shipping address. }
    { 41  ;   ;ShipTo_City         ;Text80        ;ExternalName=shipto_city;
                                                   ExternalType=String;
                                                   CaptionML=[DEU=Ship To City;
                                                              ENU=Ship To City];
                                                   Description=Type the city for the customer's shipping address. }
    { 42  ;   ;ShipTo_StateOrProvince;Text50      ;ExternalName=shipto_stateorprovince;
                                                   ExternalType=String;
                                                   CaptionML=[DEU=Ship To State/Province;
                                                              ENU=Ship To State/Province];
                                                   Description=Type the state or province for the shipping address. }
    { 43  ;   ;ShipTo_Country      ;Text80        ;ExternalName=shipto_country;
                                                   ExternalType=String;
                                                   CaptionML=[DEU=Ship To Country/Region;
                                                              ENU=Ship To Country/Region];
                                                   Description=Type the country or region for the customer's shipping address. }
    { 44  ;   ;ShipTo_PostalCode   ;Text20        ;ExternalName=shipto_postalcode;
                                                   ExternalType=String;
                                                   CaptionML=[DEU=Ship To ZIP/Postal Code;
                                                              ENU=Ship To ZIP/Postal Code];
                                                   Description=Type the ZIP Code or postal code for the shipping address. }
    { 45  ;   ;WillCall            ;Boolean       ;ExternalName=willcall;
                                                   ExternalType=Boolean;
                                                   CaptionML=[DEU=Ship To;
                                                              ENU=Ship To];
                                                   Description=Select whether the products included in the order should be shipped to the specified address or held until the customer calls with further pick-up or delivery instructions. }
    { 46  ;   ;ShipTo_Telephone    ;Text50        ;ExternalName=shipto_telephone;
                                                   ExternalType=String;
                                                   CaptionML=[DEU=Ship To Phone;
                                                              ENU=Ship To Phone];
                                                   Description=Type the phone number for the customer's shipping address. }
    { 47  ;   ;BillTo_Name         ;Text200       ;ExternalName=billto_name;
                                                   ExternalType=String;
                                                   CaptionML=[DEU=Bill To Name;
                                                              ENU=Bill To Name];
                                                   Description=Type a name for the customer's billing address, such as "Headquarters" or "Field office", to identify the address. }
    { 48  ;   ;ShipTo_FreightTermsCode;Option     ;InitValue=DefaultValue;
                                                   ExternalName=shipto_freighttermscode;
                                                   ExternalType=Picklist;
                                                   OptionOrdinalValues=1;
                                                   CaptionML=[DEU=Ship To Freight Terms;
                                                              ENU=Ship To Freight Terms];
                                                   OptionCaptionML=[DEU=Default Value;
                                                                    ENU=Default Value];
                                                   OptionString=DefaultValue;
                                                   Description=Select the freight terms to make sure shipping orders are processed correctly. }
    { 49  ;   ;ShipTo_Fax          ;Text50        ;ExternalName=shipto_fax;
                                                   ExternalType=String;
                                                   CaptionML=[DEU=Ship to Fax;
                                                              ENU=Ship to Fax];
                                                   Description=Type the fax number for the customer's shipping address. }
    { 50  ;   ;BillTo_Line1        ;Text250       ;ExternalName=billto_line1;
                                                   ExternalType=String;
                                                   CaptionML=[DEU=Bill To Street 1;
                                                              ENU=Bill To Street 1];
                                                   Description=Type the first line of the customer's billing address. }
    { 51  ;   ;BillTo_Line2        ;Text250       ;ExternalName=billto_line2;
                                                   ExternalType=String;
                                                   CaptionML=[DEU=Bill To Street 2;
                                                              ENU=Bill To Street 2];
                                                   Description=Type the second line of the customer's billing address. }
    { 52  ;   ;BillTo_Line3        ;Text250       ;ExternalName=billto_line3;
                                                   ExternalType=String;
                                                   CaptionML=[DEU=Bill To Street 3;
                                                              ENU=Bill To Street 3];
                                                   Description=Type the third line of the billing address. }
    { 53  ;   ;BillTo_City         ;Text80        ;ExternalName=billto_city;
                                                   ExternalType=String;
                                                   CaptionML=[DEU=Bill To City;
                                                              ENU=Bill To City];
                                                   Description=Type the city for the customer's billing address. }
    { 54  ;   ;BillTo_StateOrProvince;Text50      ;ExternalName=billto_stateorprovince;
                                                   ExternalType=String;
                                                   CaptionML=[DEU=Bill To State/Province;
                                                              ENU=Bill To State/Province];
                                                   Description=Type the state or province for the billing address. }
    { 55  ;   ;BillTo_Country      ;Text80        ;ExternalName=billto_country;
                                                   ExternalType=String;
                                                   CaptionML=[DEU=Bill To Country/Region;
                                                              ENU=Bill To Country/Region];
                                                   Description=Type the country or region for the customer's billing address. }
    { 56  ;   ;BillTo_PostalCode   ;Text20        ;ExternalName=billto_postalcode;
                                                   ExternalType=String;
                                                   CaptionML=[DEU=Bill To ZIP/Postal Code;
                                                              ENU=Bill To ZIP/Postal Code];
                                                   Description=Type the ZIP Code or postal code for the billing address. }
    { 57  ;   ;BillTo_Telephone    ;Text50        ;ExternalName=billto_telephone;
                                                   ExternalType=String;
                                                   CaptionML=[DEU=Bill To Phone;
                                                              ENU=Bill To Phone];
                                                   Description=Type the phone number for the customer's billing address. }
    { 58  ;   ;BillTo_Fax          ;Text50        ;ExternalName=billto_fax;
                                                   ExternalType=String;
                                                   CaptionML=[DEU=Bill To Fax;
                                                              ENU=Bill To Fax];
                                                   Description=Type the fax number for the customer's billing address. }
    { 59  ;   ;DiscountPercentage  ;Decimal       ;ExternalName=discountpercentage;
                                                   ExternalType=Decimal;
                                                   CaptionML=[DEU=Order Discount (%);
                                                              ENU=Order Discount (%)];
                                                   Description=Type the discount rate that should be applied to the Detail Amount field to include additional savings for the customer in the order. }
    { 60  ;   ;ContactIdName       ;Text160       ;FieldClass=FlowField;
                                                   CalcFormula=Lookup("CRM Contact".FullName WHERE (ContactId=FIELD(ContactId)));
                                                   ExternalName=contactidname;
                                                   ExternalType=String;
                                                   ExternalAccess=Read;
                                                   CaptionML=[DEU=ContactIdName;
                                                              ENU=ContactIdName] }
    { 61  ;   ;AccountIdName       ;Text160       ;FieldClass=FlowField;
                                                   CalcFormula=Lookup("CRM Account".Name WHERE (AccountId=FIELD(AccountId)));
                                                   ExternalName=accountidname;
                                                   ExternalType=String;
                                                   ExternalAccess=Read;
                                                   CaptionML=[DEU=AccountIdName;
                                                              ENU=AccountIdName] }
    { 62  ;   ;OpportunityIdName   ;Text250       ;FieldClass=FlowField;
                                                   CalcFormula=Lookup("CRM Opportunity".Name WHERE (OpportunityId=FIELD(OpportunityId)));
                                                   ExternalName=opportunityidname;
                                                   ExternalType=String;
                                                   ExternalAccess=Read;
                                                   CaptionML=[DEU=OpportunityIdName;
                                                              ENU=OpportunityIdName] }
    { 63  ;   ;QuoteIdName         ;Text250       ;FieldClass=FlowField;
                                                   CalcFormula=Lookup("CRM Quote".Name WHERE (QuoteId=FIELD(QuoteId)));
                                                   ExternalName=quoteidname;
                                                   ExternalType=String;
                                                   ExternalAccess=Read;
                                                   CaptionML=[DEU=QuoteIdName;
                                                              ENU=QuoteIdName] }
    { 64  ;   ;PriceLevelIdName    ;Text100       ;FieldClass=FlowField;
                                                   CalcFormula=Lookup("CRM Pricelevel".Name WHERE (PriceLevelId=FIELD(PriceLevelId)));
                                                   ExternalName=pricelevelidname;
                                                   ExternalType=String;
                                                   ExternalAccess=Read;
                                                   CaptionML=[DEU=PriceLevelIdName;
                                                              ENU=PriceLevelIdName] }
    { 65  ;   ;CreatedByName       ;Text200       ;FieldClass=FlowField;
                                                   CalcFormula=Lookup("CRM Systemuser".FullName WHERE (SystemUserId=FIELD(CreatedBy)));
                                                   ExternalName=createdbyname;
                                                   ExternalType=String;
                                                   ExternalAccess=Read;
                                                   CaptionML=[DEU=CreatedByName;
                                                              ENU=CreatedByName] }
    { 66  ;   ;ModifiedByName      ;Text200       ;FieldClass=FlowField;
                                                   CalcFormula=Lookup("CRM Systemuser".FullName WHERE (SystemUserId=FIELD(ModifiedBy)));
                                                   ExternalName=modifiedbyname;
                                                   ExternalType=String;
                                                   ExternalAccess=Read;
                                                   CaptionML=[DEU=ModifiedByName;
                                                              ENU=ModifiedByName] }
    { 67  ;   ;CustomerId          ;GUID          ;TableRelation=IF (CustomerIdType=CONST(account)) "CRM Account".AccountId
                                                                 ELSE IF (CustomerIdType=CONST(contact)) "CRM Contact".ContactId;
                                                   ExternalName=customerid;
                                                   ExternalType=Customer;
                                                   CaptionML=[DEU=Customer;
                                                              ENU=Customer];
                                                   Description=Select the customer account or contact to provide a quick link to additional customer details, such as account information, activities, and opportunities. }
    { 68  ;   ;CustomerIdType      ;Option        ;ExternalName=customeridtype;
                                                   ExternalType=EntityName;
                                                   CaptionML=[DEU=Customer Type;
                                                              ENU=Customer Type];
                                                   OptionCaptionML=[DEU=" ,account,contact";
                                                                    ENU=" ,account,contact"];
                                                   OptionString=[ ,account,contact] }
    { 69  ;   ;OwnerId             ;GUID          ;TableRelation=IF (OwnerIdType=CONST(systemuser)) "CRM Systemuser".SystemUserId
                                                                 ELSE IF (OwnerIdType=CONST(team)) "CRM Team".TeamId;
                                                   ExternalName=ownerid;
                                                   ExternalType=Owner;
                                                   CaptionML=[DEU=Owner;
                                                              ENU=Owner];
                                                   Description=Enter the user or team who is assigned to manage the record. This field is updated every time the record is assigned to a different user. }
    { 70  ;   ;OwnerIdType         ;Option        ;ExternalName=owneridtype;
                                                   ExternalType=EntityName;
                                                   CaptionML=[DEU=OwnerIdType;
                                                              ENU=OwnerIdType];
                                                   OptionCaptionML=[DEU=" ,systemuser,team";
                                                                    ENU=" ,systemuser,team"];
                                                   OptionString=[ ,systemuser,team] }
    { 71  ;   ;BillTo_ContactName  ;Text150       ;ExternalName=billto_contactname;
                                                   ExternalType=String;
                                                   CaptionML=[DEU=Bill To Contact Name;
                                                              ENU=Bill To Contact Name];
                                                   Description=Type the primary contact name at the customer's billing address. }
    { 72  ;   ;BillTo_AddressId    ;GUID          ;ExternalName=billto_addressid;
                                                   ExternalType=Uniqueidentifier;
                                                   CaptionML=[DEU=Bill To Address ID;
                                                              ENU=Bill To Address ID];
                                                   Description=Unique identifier of the billing address. }
    { 73  ;   ;ShipTo_AddressId    ;GUID          ;ExternalName=shipto_addressid;
                                                   ExternalType=Uniqueidentifier;
                                                   CaptionML=[DEU=Ship To Address ID;
                                                              ENU=Ship To Address ID];
                                                   Description=Unique identifier of the shipping address. }
    { 74  ;   ;IsPriceLocked       ;Boolean       ;ExternalName=ispricelocked;
                                                   ExternalType=Boolean;
                                                   ExternalAccess=Modify;
                                                   CaptionML=[DEU=Prices Locked;
                                                              ENU=Prices Locked];
                                                   Description=Select whether prices specified on the invoice are locked from any further updates. }
    { 75  ;   ;DateFulfilled       ;Date          ;ExternalName=datefulfilled;
                                                   ExternalType=DateTime;
                                                   CaptionML=[DEU=Date Fulfilled;
                                                              ENU=Date Fulfilled];
                                                   Description=Enter the date that all or part of the order was shipped to the customer. }
    { 76  ;   ;ShipTo_ContactName  ;Text150       ;ExternalName=shipto_contactname;
                                                   ExternalType=String;
                                                   CaptionML=[DEU=Ship To Contact Name;
                                                              ENU=Ship To Contact Name];
                                                   Description=Type the primary contact name at the customer's shipping address. }
    { 77  ;   ;UTCConversionTimeZoneCode;Integer  ;ExternalName=utcconversiontimezonecode;
                                                   ExternalType=Integer;
                                                   CaptionML=[DEU=UTC Conversion Time Zone Code;
                                                              ENU=UTC Conversion Time Zone Code];
                                                   MinValue=-1;
                                                   Description=Time zone code that was in use when the record was created. }
    { 78  ;   ;TransactionCurrencyId;GUID         ;TableRelation="CRM Transactioncurrency".TransactionCurrencyId;
                                                   ExternalName=transactioncurrencyid;
                                                   ExternalType=Lookup;
                                                   ExternalAccess=Insert;
                                                   CaptionML=[DEU=Currency;
                                                              ENU=Currency];
                                                   Description=Choose the local currency for the record to make sure budgets are reported in the correct currency. }
    { 79  ;   ;TimeZoneRuleVersionNumber;Integer  ;ExternalName=timezoneruleversionnumber;
                                                   ExternalType=Integer;
                                                   CaptionML=[DEU=Time Zone Rule Version Number;
                                                              ENU=Time Zone Rule Version Number];
                                                   MinValue=-1;
                                                   Description=For internal use only. }
    { 80  ;   ;ImportSequenceNumber;Integer       ;ExternalName=importsequencenumber;
                                                   ExternalType=Integer;
                                                   ExternalAccess=Insert;
                                                   CaptionML=[DEU=Import Sequence Number;
                                                              ENU=Import Sequence Number];
                                                   Description=Unique identifier of the data import or data migration that created this record. }
    { 81  ;   ;ExchangeRate        ;Decimal       ;ExternalName=exchangerate;
                                                   ExternalType=Decimal;
                                                   ExternalAccess=Read;
                                                   CaptionML=[DEU=Exchange Rate;
                                                              ENU=Exchange Rate];
                                                   Description=Shows the conversion rate of the record's currency. The exchange rate is used to convert all money fields in the record from the local currency to the system's default currency. }
    { 82  ;   ;OverriddenCreatedOn ;Date          ;ExternalName=overriddencreatedon;
                                                   ExternalType=DateTime;
                                                   ExternalAccess=Insert;
                                                   CaptionML=[DEU=Record Created On;
                                                              ENU=Record Created On];
                                                   Description=Date and time that the record was migrated. }
    { 83  ;   ;TotalLineItemAmount_Base;Decimal   ;ExternalName=totallineitemamount_base;
                                                   ExternalType=Money;
                                                   ExternalAccess=Read;
                                                   CaptionML=[DEU=Total Detail Amount (Base);
                                                              ENU=Total Detail Amount (Base)];
                                                   Description=Shows the Detail Amount field converted to the system's default base currency. The calculation uses the exchange rate specified in the Currencies area. }
    { 84  ;   ;TotalDiscountAmount_Base;Decimal   ;ExternalName=totaldiscountamount_base;
                                                   ExternalType=Money;
                                                   ExternalAccess=Read;
                                                   CaptionML=[DEU=Total Discount Amount (Base);
                                                              ENU=Total Discount Amount (Base)];
                                                   Description=Shows the Total Discount Amount field converted to the system's default base currency for reporting purposes. The calculation uses the exchange rate specified in the Currencies area. }
    { 85  ;   ;TotalAmountLessFreight_Base;Decimal;ExternalName=totalamountlessfreight_base;
                                                   ExternalType=Money;
                                                   ExternalAccess=Read;
                                                   CaptionML=[DEU=Total Pre-Freight Amount (Base);
                                                              ENU=Total Pre-Freight Amount (Base)];
                                                   Description=Shows the Pre-Freight Amount field converted to the system's default base currency for reporting purposes. The calculation uses the exchange rate specified in the Currencies area. }
    { 86  ;   ;TotalAmount_Base    ;Decimal       ;ExternalName=totalamount_base;
                                                   ExternalType=Money;
                                                   ExternalAccess=Read;
                                                   CaptionML=[DEU=Total Amount (Base);
                                                              ENU=Total Amount (Base)];
                                                   Description=Shows the Total Amount field converted to the system's default base currency for reporting purposes. The calculation uses the exchange rate specified in the Currencies area. }
    { 87  ;   ;TransactionCurrencyIdName;Text100  ;FieldClass=FlowField;
                                                   CalcFormula=Lookup("CRM Transactioncurrency".CurrencyName WHERE (TransactionCurrencyId=FIELD(TransactionCurrencyId)));
                                                   ExternalName=transactioncurrencyidname;
                                                   ExternalType=String;
                                                   ExternalAccess=Read;
                                                   CaptionML=[DEU=TransactionCurrencyIdName;
                                                              ENU=TransactionCurrencyIdName] }
    { 88  ;   ;DiscountAmount_Base ;Decimal       ;ExternalName=discountamount_base;
                                                   ExternalType=Money;
                                                   ExternalAccess=Read;
                                                   CaptionML=[DEU=Order Discount Amount (Base);
                                                              ENU=Order Discount Amount (Base)];
                                                   Description=Shows the Order Discount field converted to the system's default base currency for reporting purposes. The calculation uses the exchange rate specified in the Currencies area. }
    { 89  ;   ;FreightAmount_Base  ;Decimal       ;ExternalName=freightamount_base;
                                                   ExternalType=Money;
                                                   ExternalAccess=Read;
                                                   CaptionML=[DEU=Freight Amount (Base);
                                                              ENU=Freight Amount (Base)];
                                                   Description=Shows the Freight Amount field converted to the system's default base currency for reporting purposes. The calculation uses the exchange rate specified in the Currencies area. }
    { 90  ;   ;TotalLineItemDiscountAmount_Ba;Decimal;
                                                   ExternalName=totallineitemdiscountamount_base;
                                                   ExternalType=Money;
                                                   ExternalAccess=Read;
                                                   CaptionML=[DEU=Total Line Item Discount Amount (Base);
                                                              ENU=Total Line Item Discount Amount (Base)];
                                                   Description=Shows the Total Line Item Discount Amount field converted to the system's default base currency for reporting purposes. The calculation uses the exchange rate specified in the Currencies area. }
    { 91  ;   ;TotalTax_Base       ;Decimal       ;ExternalName=totaltax_base;
                                                   ExternalType=Money;
                                                   ExternalAccess=Read;
                                                   CaptionML=[DEU=Total Tax (Base);
                                                              ENU=Total Tax (Base)];
                                                   Description=Shows the Total Tax field converted to the system's default base currency for reporting purposes. The calculation uses the exchange rate specified in the Currencies area. }
    { 92  ;   ;CreatedOnBehalfBy   ;GUID          ;TableRelation="CRM Systemuser".SystemUserId;
                                                   ExternalName=createdonbehalfby;
                                                   ExternalType=Lookup;
                                                   ExternalAccess=Read;
                                                   CaptionML=[DEU=Created By (Delegate);
                                                              ENU=Created By (Delegate)];
                                                   Description=Shows who created the record on behalf of another user. }
    { 93  ;   ;CreatedOnBehalfByName;Text200      ;FieldClass=FlowField;
                                                   CalcFormula=Lookup("CRM Systemuser".FullName WHERE (SystemUserId=FIELD(CreatedOnBehalfBy)));
                                                   ExternalName=createdonbehalfbyname;
                                                   ExternalType=String;
                                                   ExternalAccess=Read;
                                                   CaptionML=[DEU=CreatedOnBehalfByName;
                                                              ENU=CreatedOnBehalfByName] }
    { 94  ;   ;ModifiedOnBehalfBy  ;GUID          ;TableRelation="CRM Systemuser".SystemUserId;
                                                   ExternalName=modifiedonbehalfby;
                                                   ExternalType=Lookup;
                                                   ExternalAccess=Read;
                                                   CaptionML=[DEU=Modified By (Delegate);
                                                              ENU=Modified By (Delegate)];
                                                   Description=Shows who last updated the record on behalf of another user. }
    { 95  ;   ;ModifiedOnBehalfByName;Text200     ;FieldClass=FlowField;
                                                   CalcFormula=Lookup("CRM Systemuser".FullName WHERE (SystemUserId=FIELD(ModifiedOnBehalfBy)));
                                                   ExternalName=modifiedonbehalfbyname;
                                                   ExternalType=String;
                                                   ExternalAccess=Read;
                                                   CaptionML=[DEU=ModifiedOnBehalfByName;
                                                              ENU=ModifiedOnBehalfByName] }
    { 96  ;   ;OwningTeam          ;GUID          ;TableRelation="CRM Team".TeamId;
                                                   ExternalName=owningteam;
                                                   ExternalType=Lookup;
                                                   ExternalAccess=Read;
                                                   CaptionML=[DEU=Owning Team;
                                                              ENU=Owning Team];
                                                   Description=Unique identifier of the team who owns the order. }
    { 97  ;   ;BillTo_Composite    ;BLOB          ;ExternalName=billto_composite;
                                                   ExternalType=Memo;
                                                   ExternalAccess=Read;
                                                   CaptionML=[DEU=Bill To Address;
                                                              ENU=Bill To Address];
                                                   Description=Shows the complete Bill To address.;
                                                   SubType=Memo }
    { 98  ;   ;ShipTo_Composite    ;BLOB          ;ExternalName=shipto_composite;
                                                   ExternalType=Memo;
                                                   ExternalAccess=Read;
                                                   CaptionML=[DEU=Ship To Address;
                                                              ENU=Ship To Address];
                                                   Description=Shows the complete Ship To address.;
                                                   SubType=Memo }
    { 99  ;   ;ProcessId           ;GUID          ;ExternalName=processid;
                                                   ExternalType=Uniqueidentifier;
                                                   CaptionML=[DEU=Process;
                                                              ENU=Process];
                                                   Description=Shows the ID of the process. }
    { 100 ;   ;StageId             ;GUID          ;ExternalName=stageid;
                                                   ExternalType=Uniqueidentifier;
                                                   CaptionML=[DEU=Process Stage;
                                                              ENU=Process Stage];
                                                   Description=Shows the ID of the stage. }
    { 101 ;   ;EntityImageId       ;GUID          ;ExternalName=entityimageid;
                                                   ExternalType=Uniqueidentifier;
                                                   ExternalAccess=Read;
                                                   CaptionML=[DEU=Entity Image Id;
                                                              ENU=Entity Image Id];
                                                   Description=For internal use only. }
    { 102 ;   ;TraversedPath       ;Text250       ;ExternalName=traversedpath;
                                                   ExternalType=String;
                                                   CaptionML=[DEU=Traversed Path;
                                                              ENU=Traversed Path];
                                                   Description=For internal use only. }
  }
  KEYS
  {
    {    ;SalesOrderId                            ;Clustered=Yes }
    {    ;Name                                     }
  }
  FIELDGROUPS
  {
    { 1   ;DropDown            ;Name                                     }
  }
  CODE
  {

    BEGIN
    {
      Dynamics CRM Version: 7.1.0.2040
    }
    END.
  }
}

