OBJECT Table 5361 CRM Uom
{
  OBJECT-PROPERTIES
  {
    Date=24.11.16;
    Time=12:00:00;
    Version List=NAVW110.00.00.14199;
  }
  PROPERTIES
  {
    TableType=CRM;
    ExternalName=uom;
    CaptionML=[DEU=CRM Uom;
               ENU=CRM Uom];
    Description=Unit of measure.;
  }
  FIELDS
  {
    { 1   ;   ;UoMId               ;GUID          ;ExternalName=uomid;
                                                   ExternalType=Uniqueidentifier;
                                                   ExternalAccess=Insert;
                                                   CaptionML=[DEU=Unit;
                                                              ENU=Unit];
                                                   Description=Unique identifier of the unit. }
    { 2   ;   ;BaseUoM             ;GUID          ;TableRelation="CRM Uom".UoMId;
                                                   ExternalName=baseuom;
                                                   ExternalType=Lookup;
                                                   CaptionML=[DEU=Base Unit;
                                                              ENU=Base Unit];
                                                   Description=Choose the base or primary unit on which the unit is based. }
    { 3   ;   ;Name                ;Text100       ;ExternalName=name;
                                                   ExternalType=String;
                                                   CaptionML=[DEU=Name;
                                                              ENU=Name];
                                                   Description=Type a descriptive title or name for the unit of measure. }
    { 4   ;   ;UoMScheduleId       ;GUID          ;TableRelation="CRM Uomschedule".UoMScheduleId;
                                                   ExternalName=uomscheduleid;
                                                   ExternalType=Lookup;
                                                   ExternalAccess=Insert;
                                                   CaptionML=[DEU=Unit Schedule;
                                                              ENU=Unit Schedule];
                                                   Description=Choose the ID of the unit group that the unit is associated with. }
    { 5   ;   ;Quantity            ;Decimal       ;ExternalName=quantity;
                                                   ExternalType=Decimal;
                                                   CaptionML=[DEU=Quantity;
                                                              ENU=Quantity];
                                                   Description=Unit quantity for the product. }
    { 6   ;   ;CreatedOn           ;DateTime      ;ExternalName=createdon;
                                                   ExternalType=DateTime;
                                                   ExternalAccess=Read;
                                                   CaptionML=[DEU=Created On;
                                                              ENU=Created On];
                                                   Description=Date and time when the unit was created. }
    { 7   ;   ;CreatedBy           ;GUID          ;TableRelation="CRM Systemuser".SystemUserId;
                                                   ExternalName=createdby;
                                                   ExternalType=Lookup;
                                                   ExternalAccess=Read;
                                                   CaptionML=[DEU=Created By;
                                                              ENU=Created By];
                                                   Description=Unique identifier of the user who created the unit. }
    { 8   ;   ;ModifiedBy          ;GUID          ;TableRelation="CRM Systemuser".SystemUserId;
                                                   ExternalName=modifiedby;
                                                   ExternalType=Lookup;
                                                   ExternalAccess=Read;
                                                   CaptionML=[DEU=Modified By;
                                                              ENU=Modified By];
                                                   Description=Unique identifier of the user who last modified the unit. }
    { 9   ;   ;ModifiedOn          ;DateTime      ;ExternalName=modifiedon;
                                                   ExternalType=DateTime;
                                                   ExternalAccess=Read;
                                                   CaptionML=[DEU=Modified On;
                                                              ENU=Modified On];
                                                   Description=Date and time when the unit was last modified. }
    { 10  ;   ;IsScheduleBaseUoM   ;Boolean       ;ExternalName=isschedulebaseuom;
                                                   ExternalType=Boolean;
                                                   ExternalAccess=Read;
                                                   CaptionML=[DEU=Is Schedule Base Unit;
                                                              ENU=Is Schedule Base Unit];
                                                   Description=Tells whether the unit is the base unit for the associated unit group. }
    { 11  ;   ;BaseUoMName         ;Text100       ;FieldClass=FlowField;
                                                   CalcFormula=Lookup("CRM Uom".Name WHERE (UoMId=FIELD(BaseUoM)));
                                                   ExternalName=baseuomname;
                                                   ExternalType=String;
                                                   ExternalAccess=Read;
                                                   CaptionML=[DEU=BaseUoMName;
                                                              ENU=BaseUoMName];
                                                   Description=Name of the base unit for the product, such as a two-liter bottle. }
    { 12  ;   ;CreatedByName       ;Text200       ;FieldClass=FlowField;
                                                   CalcFormula=Lookup("CRM Systemuser".FullName WHERE (SystemUserId=FIELD(CreatedBy)));
                                                   ExternalName=createdbyname;
                                                   ExternalType=String;
                                                   ExternalAccess=Read;
                                                   CaptionML=[DEU=CreatedByName;
                                                              ENU=CreatedByName] }
    { 13  ;   ;ModifiedByName      ;Text200       ;FieldClass=FlowField;
                                                   CalcFormula=Lookup("CRM Systemuser".FullName WHERE (SystemUserId=FIELD(ModifiedBy)));
                                                   ExternalName=modifiedbyname;
                                                   ExternalType=String;
                                                   ExternalAccess=Read;
                                                   CaptionML=[DEU=ModifiedByName;
                                                              ENU=ModifiedByName] }
    { 14  ;   ;VersionNumber       ;BigInteger    ;ExternalName=versionnumber;
                                                   ExternalType=BigInt;
                                                   ExternalAccess=Read;
                                                   CaptionML=[DEU=Version Number;
                                                              ENU=Version Number];
                                                   Description=Version number of the unit. }
    { 15  ;   ;OrganizationId      ;GUID          ;ExternalName=organizationid;
                                                   ExternalType=Uniqueidentifier;
                                                   ExternalAccess=Read;
                                                   CaptionML=[DEU="Organization ";
                                                              ENU="Organization "];
                                                   Description=Unique identifier of the organization associated with the unit of measure. }
    { 16  ;   ;ImportSequenceNumber;Integer       ;ExternalName=importsequencenumber;
                                                   ExternalType=Integer;
                                                   ExternalAccess=Insert;
                                                   CaptionML=[DEU=Import Sequence Number;
                                                              ENU=Import Sequence Number];
                                                   Description=Unique identifier of the data import or data migration that created this record. }
    { 17  ;   ;OverriddenCreatedOn ;Date          ;ExternalName=overriddencreatedon;
                                                   ExternalType=DateTime;
                                                   ExternalAccess=Insert;
                                                   CaptionML=[DEU=Record Created On;
                                                              ENU=Record Created On];
                                                   Description=Date and time that the record was migrated. }
    { 18  ;   ;CreatedOnBehalfBy   ;GUID          ;TableRelation="CRM Systemuser".SystemUserId;
                                                   ExternalName=createdonbehalfby;
                                                   ExternalType=Lookup;
                                                   ExternalAccess=Read;
                                                   CaptionML=[DEU=Created By (Delegate);
                                                              ENU=Created By (Delegate)];
                                                   Description=Unique identifier of the delegate user who created the uom. }
    { 19  ;   ;CreatedOnBehalfByName;Text200      ;FieldClass=FlowField;
                                                   CalcFormula=Lookup("CRM Systemuser".FullName WHERE (SystemUserId=FIELD(CreatedOnBehalfBy)));
                                                   ExternalName=createdonbehalfbyname;
                                                   ExternalType=String;
                                                   ExternalAccess=Read;
                                                   CaptionML=[DEU=CreatedOnBehalfByName;
                                                              ENU=CreatedOnBehalfByName] }
    { 20  ;   ;ModifiedOnBehalfBy  ;GUID          ;TableRelation="CRM Systemuser".SystemUserId;
                                                   ExternalName=modifiedonbehalfby;
                                                   ExternalType=Lookup;
                                                   ExternalAccess=Read;
                                                   CaptionML=[DEU=Modified By (Delegate);
                                                              ENU=Modified By (Delegate)];
                                                   Description=Unique identifier of the delegate user who last modified the uom. }
    { 21  ;   ;ModifiedOnBehalfByName;Text200     ;FieldClass=FlowField;
                                                   CalcFormula=Lookup("CRM Systemuser".FullName WHERE (SystemUserId=FIELD(ModifiedOnBehalfBy)));
                                                   ExternalName=modifiedonbehalfbyname;
                                                   ExternalType=String;
                                                   ExternalAccess=Read;
                                                   CaptionML=[DEU=ModifiedOnBehalfByName;
                                                              ENU=ModifiedOnBehalfByName] }
  }
  KEYS
  {
    {    ;UoMId                                   ;Clustered=Yes }
    {    ;Name                                     }
  }
  FIELDGROUPS
  {
    { 1   ;DropDown            ;Name                                     }
  }
  CODE
  {

    BEGIN
    {
      Dynamics CRM Version: 7.1.0.2040
    }
    END.
  }
}

