OBJECT Table 99000781 Standard Task Tool
{
  OBJECT-PROPERTIES
  {
    Date=05.11.08;
    Time=12:00:00;
    Version List=NAVW16.00;
  }
  PROPERTIES
  {
    CaptionML=[DEU=Standardkatalog Werkzeug;
               ENU=Standard Task Tool];
  }
  FIELDS
  {
    { 1   ;   ;Standard Task Code  ;Code10        ;TableRelation="Standard Task";
                                                   CaptionML=[DEU=Standardkatalogcode;
                                                              ENU=Standard Task Code];
                                                   NotBlank=Yes }
    { 2   ;   ;Line No.            ;Integer       ;CaptionML=[DEU=Zeilennr.;
                                                              ENU=Line No.] }
    { 4   ;   ;No.                 ;Code20        ;CaptionML=[DEU=Nr.;
                                                              ENU=No.] }
    { 5   ;   ;Description         ;Text50        ;CaptionML=[DEU=Beschreibung;
                                                              ENU=Description] }
  }
  KEYS
  {
    {    ;Standard Task Code,Line No.             ;Clustered=Yes }
  }
  FIELDGROUPS
  {
  }
  CODE
  {

    BEGIN
    END.
  }
}

