OBJECT Table 5090 Sales Cycle
{
  OBJECT-PROPERTIES
  {
    Date=07.09.12;
    Time=12:00:00;
    Version List=NAVW17.00;
  }
  PROPERTIES
  {
    DataCaptionFields=Code,Description;
    OnDelete=BEGIN
               CALCFIELDS("No. of Opportunities");
               TESTFIELD("No. of Opportunities",0);

               SalesCycleStage.SETRANGE("Sales Cycle Code",Code);
               SalesCycleStage.DELETEALL(TRUE);

               RMCommentLine.SETRANGE("Table Name",RMCommentLine."Table Name"::"Sales Cycle");
               RMCommentLine.SETRANGE("No.",Code);
               RMCommentLine.DELETEALL;
             END;

    CaptionML=[DEU=Verkaufsprozess;
               ENU=Sales Cycle];
    LookupPageID=Page5119;
  }
  FIELDS
  {
    { 1   ;   ;Code                ;Code10        ;CaptionML=[DEU=Code;
                                                              ENU=Code];
                                                   NotBlank=Yes }
    { 2   ;   ;Description         ;Text50        ;CaptionML=[DEU=Beschreibung;
                                                              ENU=Description] }
    { 3   ;   ;Probability Calculation;Option     ;CaptionML=[DEU=Wahrscheinlichkeitsberechnung;
                                                              ENU=Probability Calculation];
                                                   OptionCaptionML=[DEU=Multiplizieren,Addieren,Erfolgschancen %,Abgeschlossen %;
                                                                    ENU=Multiply,Add,Chances of Success %,Completed %];
                                                   OptionString=Multiply,Add,Chances of Success %,Completed % }
    { 4   ;   ;Blocked             ;Boolean       ;CaptionML=[DEU=Gesperrt;
                                                              ENU=Blocked] }
    { 5   ;   ;No. of Opportunities;Integer       ;FieldClass=FlowField;
                                                   CalcFormula=Count("Opportunity Entry" WHERE (Active=CONST(Yes),
                                                                                                Sales Cycle Code=FIELD(Code),
                                                                                                Action Taken=FILTER(<>Won&<>Lost),
                                                                                                Estimated Close Date=FIELD(Date Filter)));
                                                   CaptionML=[DEU=Anzahl Verkaufschancen;
                                                              ENU=No. of Opportunities];
                                                   Editable=No }
    { 6   ;   ;Estimated Value (LCY);Decimal      ;FieldClass=FlowField;
                                                   CalcFormula=Sum("Opportunity Entry"."Estimated Value (LCY)" WHERE (Active=CONST(Yes),
                                                                                                                      Sales Cycle Code=FIELD(Code),
                                                                                                                      Action Taken=FILTER(<>Won&<>Lost),
                                                                                                                      Estimated Close Date=FIELD(Date Filter)));
                                                   CaptionML=[DEU=Erwarteter Wert (MW);
                                                              ENU=Estimated Value (LCY)];
                                                   Editable=No;
                                                   AutoFormatType=1 }
    { 7   ;   ;Calcd. Current Value (LCY);Decimal ;FieldClass=FlowField;
                                                   CalcFormula=Sum("Opportunity Entry"."Calcd. Current Value (LCY)" WHERE (Active=CONST(Yes),
                                                                                                                           Sales Cycle Code=FIELD(Code),
                                                                                                                           Action Taken=FILTER(<>Won&<>Lost),
                                                                                                                           Estimated Close Date=FIELD(Date Filter)));
                                                   CaptionML=[DEU=Berech. aktueller Wert (MW);
                                                              ENU=Calcd. Current Value (LCY)];
                                                   Editable=No;
                                                   AutoFormatType=1 }
    { 8   ;   ;Comment             ;Boolean       ;FieldClass=FlowField;
                                                   CalcFormula=Exist("Rlshp. Mgt. Comment Line" WHERE (Table Name=CONST(Sales Cycle),
                                                                                                       No.=FIELD(Code),
                                                                                                       Sub No.=CONST(0)));
                                                   CaptionML=[DEU=Bemerkung;
                                                              ENU=Comment];
                                                   Editable=No }
    { 9   ;   ;Date Filter         ;Date          ;FieldClass=FlowFilter;
                                                   CaptionML=[DEU=Datumsfilter;
                                                              ENU=Date Filter] }
  }
  KEYS
  {
    {    ;Code                                    ;Clustered=Yes }
  }
  FIELDGROUPS
  {
  }
  CODE
  {
    VAR
      RMCommentLine@1000 : Record 5061;
      SalesCycleStage@1001 : Record 5091;

    BEGIN
    END.
  }
}

