OBJECT Table 856 Cash Flow Report Selection
{
  OBJECT-PROPERTIES
  {
    Date=25.10.16;
    Time=12:00:00;
    Version List=NAVW110.00;
  }
  PROPERTIES
  {
    CaptionML=[DEU=Cashflowberichtsauswahl;
               ENU=Cash Flow Report Selection];
  }
  FIELDS
  {
    { 2   ;   ;Sequence            ;Code10        ;CaptionML=[DEU=Reihenfolge;
                                                              ENU=Sequence];
                                                   Numeric=Yes }
    { 3   ;   ;Report ID           ;Integer       ;TableRelation=AllObjWithCaption."Object ID" WHERE (Object Type=CONST(Report));
                                                   OnValidate=BEGIN
                                                                CALCFIELDS("Report Caption");
                                                              END;

                                                   CaptionML=[DEU=Berichts-ID;
                                                              ENU=Report ID] }
    { 4   ;   ;Report Caption      ;Text250       ;FieldClass=FlowField;
                                                   CalcFormula=Lookup(AllObjWithCaption."Object Caption" WHERE (Object Type=CONST(Report),
                                                                                                                Object ID=FIELD(Report ID)));
                                                   CaptionML=[DEU=Berichtsbezeichnung;
                                                              ENU=Report Caption];
                                                   Editable=No }
  }
  KEYS
  {
    {    ;Sequence                                ;Clustered=Yes }
  }
  FIELDGROUPS
  {
  }
  CODE
  {
    VAR
      CashFlowReportSelection@1000 : Record 856;

    PROCEDURE NewRecord@1000();
    BEGIN
      IF CashFlowReportSelection.FINDLAST AND (CashFlowReportSelection.Sequence <> '') THEN
        Sequence := INCSTR(CashFlowReportSelection.Sequence)
      ELSE
        Sequence := '1';
    END;

    BEGIN
    END.
  }
}

