OBJECT Table 416 Handled IC Outbox Trans.
{
  OBJECT-PROPERTIES
  {
    Date=07.09.12;
    Time=12:00:00;
    Version List=NAVW17.00;
  }
  PROPERTIES
  {
    OnDelete=VAR
               ICOutboxJnlLine@1000 : Record 417;
               ICOutboxSalesHdr@1001 : Record 430;
               ICOutboxPurchHdr@1002 : Record 432;
             BEGIN
               CASE "Source Type" OF
                 "Source Type"::Journal:
                   BEGIN
                     ICOutboxJnlLine.SETRANGE("Transaction No.","Transaction No.");
                     ICOutboxJnlLine.SETRANGE("IC Partner Code","IC Partner Code");
                     ICOutboxJnlLine.SETRANGE("Transaction Source","Transaction Source");
                     ICOutboxJnlLine.DELETEALL(TRUE);
                   END;
                 "Source Type"::"Sales Document":
                   IF ICOutboxSalesHdr.GET("Transaction No.","IC Partner Code","Transaction Source") THEN
                     ICOutboxSalesHdr.DELETE(TRUE);
                 "Source Type"::"Purchase Document":
                   IF ICOutboxPurchHdr.GET("Transaction No.","IC Partner Code","Transaction Source") THEN
                     ICOutboxPurchHdr.DELETE(TRUE);
               END;
               DeleteComments("Transaction No.","IC Partner Code");
             END;

    CaptionML=[DEU=Bearbeitete IC-Ausgangstrans.;
               ENU=Handled IC Outbox Trans.];
  }
  FIELDS
  {
    { 1   ;   ;Transaction No.     ;Integer       ;CaptionML=[DEU=Transaktionsnr.;
                                                              ENU=Transaction No.];
                                                   Editable=No }
    { 2   ;   ;IC Partner Code     ;Code20        ;TableRelation="IC Partner";
                                                   CaptionML=[DEU=IC-Partnercode;
                                                              ENU=IC Partner Code];
                                                   Editable=No }
    { 3   ;   ;Source Type         ;Option        ;CaptionML=[DEU=Herkunftsart;
                                                              ENU=Source Type];
                                                   OptionCaptionML=[DEU=Buch.-Blatt,Verkaufsbeleg,Einkaufsbeleg;
                                                                    ENU=Journal,Sales Document,Purchase Document];
                                                   OptionString=Journal,Sales Document,Purchase Document;
                                                   Editable=No }
    { 5   ;   ;Document Type       ;Option        ;CaptionML=[DEU=Belegart;
                                                              ENU=Document Type];
                                                   OptionCaptionML=[DEU=" ,Zahlung,Rechnung,Gutschrift,Erstattung,Auftrag,Reklamation";
                                                                    ENU=" ,Payment,Invoice,Credit Memo,Refund,Order,Return Order"];
                                                   OptionString=[ ,Payment,Invoice,Credit Memo,Refund,Order,Return Order];
                                                   Editable=No }
    { 6   ;   ;Document No.        ;Code20        ;CaptionML=[DEU=Belegnr.;
                                                              ENU=Document No.];
                                                   Editable=No }
    { 7   ;   ;Posting Date        ;Date          ;CaptionML=[DEU=Buchungsdatum;
                                                              ENU=Posting Date];
                                                   Editable=No }
    { 8   ;   ;Transaction Source  ;Option        ;CaptionML=[DEU=Transaktionsursprung;
                                                              ENU=Transaction Source];
                                                   OptionCaptionML=[DEU=Abgelehnt durch aktuellen Mandanten,Erstellt durch aktuellen Mandanten;
                                                                    ENU=Rejected by Current Company,Created by Current Company];
                                                   OptionString=Rejected by Current Company,Created by Current Company;
                                                   Editable=No }
    { 9   ;   ;Document Date       ;Date          ;CaptionML=[DEU=Belegdatum;
                                                              ENU=Document Date];
                                                   Editable=No }
    { 11  ;   ;Status              ;Option        ;CaptionML=[DEU=Status;
                                                              ENU=Status];
                                                   OptionCaptionML=[DEU=An IC-Partner gesendet,An IC-Partner gesendete Ablehnung,Storniert;
                                                                    ENU=Sent to IC Partner,Rejection Sent to IC Partner,Cancelled];
                                                   OptionString=Sent to IC Partner,Rejection Sent to IC Partner,Cancelled;
                                                   Editable=No }
    { 12  ;   ;IC Partner G/L Acc. No.;Code20     ;CaptionML=[DEU=IC-Partner Sachkontonr.;
                                                              ENU=IC Partner G/L Acc. No.] }
    { 13  ;   ;Source Line No.     ;Integer       ;CaptionML=[DEU=Herkunftszeilennr.;
                                                              ENU=Source Line No.] }
  }
  KEYS
  {
    {    ;Transaction No.,IC Partner Code,Transaction Source;
                                                   Clustered=Yes }
  }
  FIELDGROUPS
  {
  }
  CODE
  {

    PROCEDURE ShowDetails@1();
    VAR
      ComplICOutBoxJnlLine@1000 : Record 417;
      ComplICOutboxSalesHeader@1001 : Record 430;
      ComplICOutboxPurchHeader@1002 : Record 432;
      FrmComplICOutBoxJnlLine@1005 : Page 614;
      FrmComplICOutboxSalesHeader@1004 : Page 640;
      FrmComplICOutboxPurchHeader@1003 : Page 642;
    BEGIN
      CASE "Source Type" OF
        "Source Type"::Journal:
          BEGIN
            ComplICOutBoxJnlLine.SETRANGE("Transaction No.","Transaction No.");
            ComplICOutBoxJnlLine.SETRANGE("IC Partner Code","IC Partner Code");
            ComplICOutBoxJnlLine.SETRANGE("Transaction Source","Transaction Source");
            FrmComplICOutBoxJnlLine.SETTABLEVIEW(ComplICOutBoxJnlLine);
            FrmComplICOutBoxJnlLine.RUNMODAL;
          END;
        "Source Type"::"Sales Document":
          BEGIN
            ComplICOutboxSalesHeader.SETRANGE("IC Transaction No.","Transaction No.");
            ComplICOutboxSalesHeader.SETRANGE("IC Partner Code","IC Partner Code");
            ComplICOutboxSalesHeader.SETRANGE("Transaction Source","Transaction Source");
            FrmComplICOutboxSalesHeader.SETTABLEVIEW(ComplICOutboxSalesHeader);
            FrmComplICOutboxSalesHeader.RUNMODAL;
          END;
        "Source Type"::"Purchase Document":
          BEGIN
            ComplICOutboxPurchHeader.SETRANGE("IC Partner Code","IC Partner Code");
            ComplICOutboxPurchHeader.SETRANGE("IC Transaction No.","Transaction No.");
            ComplICOutboxPurchHeader.SETRANGE("Transaction Source","Transaction Source");
            FrmComplICOutboxPurchHeader.SETTABLEVIEW(ComplICOutboxPurchHeader);
            FrmComplICOutboxPurchHeader.RUNMODAL;
          END;
      END;
    END;

    LOCAL PROCEDURE DeleteComments@2(TransactionNo@1000 : Integer;ICPartnerCode@1001 : Code[20]);
    VAR
      ICCommentLine@1002 : Record 424;
    BEGIN
      ICCommentLine.SETRANGE("Table Name",ICCommentLine."Table Name"::"Handled IC Outbox Transaction");
      ICCommentLine.SETRANGE("Transaction No.",TransactionNo);
      ICCommentLine.SETRANGE("IC Partner Code",ICPartnerCode);
      ICCommentLine.DELETEALL;
    END;

    BEGIN
    END.
  }
}

