OBJECT Table 551 VAT Rate Change Conversion
{
  OBJECT-PROPERTIES
  {
    Date=15.09.15;
    Time=12:00:00;
    Version List=NAVW19.00;
  }
  PROPERTIES
  {
    OnInsert=BEGIN
               TESTFIELD("To Code");
             END;

    OnRename=BEGIN
               "Converted Date" := 0D;
             END;

    CaptionML=[DEU=Konvertierung des MwSt.-Satzes;
               ENU=VAT Rate Change Conversion];
  }
  FIELDS
  {
    { 1   ;   ;Type                ;Option        ;CaptionML=[DEU=Art;
                                                              ENU=Type];
                                                   OptionCaptionML=[DEU=MwSt.-Produktbuchungsgruppe,Produktbuchungsgruppe;
                                                                    ENU=VAT Prod. Posting Group,Gen. Prod. Posting Group];
                                                   OptionString=VAT Prod. Posting Group,Gen. Prod. Posting Group }
    { 2   ;   ;From Code           ;Code10        ;TableRelation=IF (Type=CONST(VAT Prod. Posting Group)) "VAT Product Posting Group"
                                                                 ELSE IF (Type=CONST(Gen. Prod. Posting Group)) "Gen. Product Posting Group";
                                                   OnValidate=BEGIN
                                                                CheckforLoop;
                                                              END;

                                                   CaptionML=[DEU=Von Code;
                                                              ENU=From Code];
                                                   NotBlank=Yes }
    { 3   ;   ;To Code             ;Code10        ;TableRelation=IF (Type=CONST(VAT Prod. Posting Group)) "VAT Product Posting Group"
                                                                 ELSE IF (Type=CONST(Gen. Prod. Posting Group)) "Gen. Product Posting Group";
                                                   OnValidate=BEGIN
                                                                IF "To Code" <> xRec."To Code" THEN
                                                                  "Converted Date" := 0D;

                                                                CheckforLoop;
                                                              END;

                                                   CaptionML=[DEU=Nach Code;
                                                              ENU=To Code];
                                                   NotBlank=Yes }
    { 10  ;   ;Converted Date      ;Date          ;CaptionML=[DEU=Konvertierungsdatum;
                                                              ENU=Converted Date];
                                                   Editable=No }
  }
  KEYS
  {
    {    ;Type,From Code                          ;Clustered=Yes }
  }
  FIELDGROUPS
  {
  }
  CODE
  {
    VAR
      Text0001@1000 : TextConst 'DEU=Durch diesen Posten entsteht eine Schleife mit dem Posten, dessen Feld ''%1'' auf ''%2'' festgelegt ist.;ENU=This entry will create a loop with the entry where the %1 field is set to %2.';

    LOCAL PROCEDURE CheckforLoop@1002();
    VAR
      VATRateChangeConversion@1001 : Record 551;
    BEGIN
      VATRateChangeConversion.RESET;
      VATRateChangeConversion.SETRANGE(Type,Type);
      VATRateChangeConversion.SETRANGE("From Code","To Code");
      IF VATRateChangeConversion.FINDFIRST THEN
        ERROR(Text0001,FIELDCAPTION("From Code"),VATRateChangeConversion."From Code");

      VATRateChangeConversion.RESET;
      VATRateChangeConversion.SETRANGE(Type,Type);
      VATRateChangeConversion.SETRANGE("To Code","From Code");
      IF VATRateChangeConversion.FINDFIRST THEN
        ERROR(Text0001,FIELDCAPTION("To Code"),VATRateChangeConversion."To Code");
    END;

    BEGIN
    END.
  }
}

