OBJECT Table 5617 FA Register
{
  OBJECT-PROPERTIES
  {
    Date=07.09.12;
    Time=12:00:00;
    Version List=NAVW17.00;
  }
  PROPERTIES
  {
    CaptionML=[DEU=Anlagenjournal;
               ENU=FA Register];
    LookupPageID=Page5627;
  }
  FIELDS
  {
    { 1   ;   ;No.                 ;Integer       ;CaptionML=[DEU=Nr.;
                                                              ENU=No.] }
    { 2   ;   ;From Entry No.      ;Integer       ;TableRelation="FA Ledger Entry";
                                                   CaptionML=[DEU=Von Lfd. Nr.;
                                                              ENU=From Entry No.] }
    { 3   ;   ;To Entry No.        ;Integer       ;TableRelation="FA Ledger Entry";
                                                   CaptionML=[DEU=Bis Lfd. Nr.;
                                                              ENU=To Entry No.] }
    { 4   ;   ;Creation Date       ;Date          ;CaptionML=[DEU=Errichtungsdatum;
                                                              ENU=Creation Date] }
    { 5   ;   ;Source Code         ;Code10        ;TableRelation="Source Code";
                                                   CaptionML=[DEU=Herkunftscode;
                                                              ENU=Source Code] }
    { 6   ;   ;User ID             ;Code50        ;TableRelation=User."User Name";
                                                   OnLookup=VAR
                                                              UserMgt@1000 : Codeunit 418;
                                                            BEGIN
                                                              UserMgt.LookupUserID("User ID");
                                                            END;

                                                   TestTableRelation=No;
                                                   CaptionML=[DEU=Benutzer-ID;
                                                              ENU=User ID] }
    { 7   ;   ;Journal Batch Name  ;Code10        ;CaptionML=[DEU=Buch.-Blattname;
                                                              ENU=Journal Batch Name] }
    { 8   ;   ;Journal Type        ;Option        ;CaptionML=[DEU=Buch.-Blatt Art;
                                                              ENU=Journal Type];
                                                   OptionCaptionML=[DEU=Fibu,Anlage;
                                                                    ENU=G/L,Fixed Asset];
                                                   OptionString=G/L,Fixed Asset }
    { 9   ;   ;G/L Register No.    ;Integer       ;TableRelation="G/L Register";
                                                   TestTableRelation=No;
                                                   CaptionML=[DEU=Fibujournalnr.;
                                                              ENU=G/L Register No.];
                                                   BlankZero=Yes }
    { 10  ;   ;From Maintenance Entry No.;Integer ;TableRelation="Maintenance Ledger Entry";
                                                   CaptionML=[DEU=Von Wartung Lfd. Nr.;
                                                              ENU=From Maintenance Entry No.] }
    { 11  ;   ;To Maintenance Entry No.;Integer   ;TableRelation="Maintenance Ledger Entry";
                                                   CaptionML=[DEU=Bis Wartungsposten Lfd. Nr.;
                                                              ENU=To Maintenance Entry No.] }
  }
  KEYS
  {
    {    ;No.                                     ;Clustered=Yes }
    {    ;Creation Date                            }
    {    ;Source Code,Journal Batch Name,Creation Date }
  }
  FIELDGROUPS
  {
  }
  CODE
  {

    BEGIN
    END.
  }
}

