OBJECT Table 5343 CRM Opportunity
{
  OBJECT-PROPERTIES
  {
    Date=24.11.16;
    Time=12:00:00;
    Version List=NAVW110.00.00.14199;
  }
  PROPERTIES
  {
    TableType=CRM;
    ExternalName=opportunity;
    CaptionML=[DEU=CRM Opportunity;
               ENU=CRM Opportunity];
    Description=Potential revenue-generating event, or sale to an account, which needs to be tracked through a sales process to completion.;
  }
  FIELDS
  {
    { 1   ;   ;OpportunityId       ;GUID          ;ExternalName=opportunityid;
                                                   ExternalType=Uniqueidentifier;
                                                   ExternalAccess=Insert;
                                                   CaptionML=[DEU=Opportunity;
                                                              ENU=Opportunity];
                                                   Description=Unique identifier of the opportunity. }
    { 2   ;   ;PriceLevelId        ;GUID          ;TableRelation="CRM Pricelevel".PriceLevelId;
                                                   ExternalName=pricelevelid;
                                                   ExternalType=Lookup;
                                                   CaptionML=[DEU=Price List;
                                                              ENU=Price List];
                                                   Description=Choose the price list associated with this record to make sure the products associated with the campaign are offered at the correct prices. }
    { 3   ;   ;OpportunityRatingCode;Option       ;InitValue=Warm;
                                                   ExternalName=opportunityratingcode;
                                                   ExternalType=Picklist;
                                                   OptionOrdinalValues=[1;2;3];
                                                   CaptionML=[DEU=Rating;
                                                              ENU=Rating];
                                                   OptionCaptionML=[DEU=Hot,Warm,Cold;
                                                                    ENU=Hot,Warm,Cold];
                                                   OptionString=Hot,Warm,Cold;
                                                   Description=Select the expected value or priority of the opportunity based on revenue, customer status, or closing probability. }
    { 4   ;   ;PriorityCode        ;Option        ;InitValue=DefaultValue;
                                                   ExternalName=prioritycode;
                                                   ExternalType=Picklist;
                                                   OptionOrdinalValues=1;
                                                   CaptionML=[DEU=Priority;
                                                              ENU=Priority];
                                                   OptionCaptionML=[DEU=Default Value;
                                                                    ENU=Default Value];
                                                   OptionString=DefaultValue;
                                                   Description=Select the priority so that preferred customers or critical issues are handled quickly. }
    { 5   ;   ;ContactId           ;GUID          ;TableRelation="CRM Contact".ContactId;
                                                   ExternalName=contactid;
                                                   ExternalType=Lookup;
                                                   ExternalAccess=Read;
                                                   CaptionML=[DEU=ContactId;
                                                              ENU=ContactId];
                                                   Description=Unique identifier of the contact associated with the opportunity. }
    { 6   ;   ;AccountId           ;GUID          ;TableRelation="CRM Account".AccountId;
                                                   ExternalName=accountid;
                                                   ExternalType=Lookup;
                                                   ExternalAccess=Read;
                                                   CaptionML=[DEU=AccountId;
                                                              ENU=AccountId];
                                                   Description=Unique identifier of the account with which the opportunity is associated. }
    { 7   ;   ;Name                ;Text250       ;ExternalName=name;
                                                   ExternalType=String;
                                                   CaptionML=[DEU=Topic;
                                                              ENU=Topic];
                                                   Description=Type a subject or descriptive name, such as the expected order or company name, for the opportunity. }
    { 8   ;   ;StepId              ;GUID          ;ExternalName=stepid;
                                                   ExternalType=Uniqueidentifier;
                                                   CaptionML=[DEU=Step;
                                                              ENU=Step];
                                                   Description=Shows the ID of the workflow step. }
    { 9   ;   ;Description         ;BLOB          ;ExternalName=description;
                                                   ExternalType=Memo;
                                                   CaptionML=[DEU=Description;
                                                              ENU=Description];
                                                   Description=Type additional information to describe the opportunity, such as possible products to sell or past purchases from the customer.;
                                                   SubType=Memo }
    { 10  ;   ;EstimatedValue      ;Decimal       ;ExternalName=estimatedvalue;
                                                   ExternalType=Money;
                                                   CaptionML=[DEU=Est. Revenue;
                                                              ENU=Est. Revenue];
                                                   Description=Type the estimated revenue amount to indicate the potential sale or value of the opportunity for revenue forecasting. This field can be either system-populated or editable based on the selection in the Revenue field. }
    { 11  ;   ;StepName            ;Text200       ;ExternalName=stepname;
                                                   ExternalType=String;
                                                   CaptionML=[DEU=Pipeline Phase;
                                                              ENU=Pipeline Phase];
                                                   Description=Shows the current phase in the sales pipeline for the opportunity. This is updated by a workflow. }
    { 12  ;   ;SalesStageCode      ;Option        ;InitValue=DefaultValue;
                                                   ExternalName=salesstagecode;
                                                   ExternalType=Picklist;
                                                   OptionOrdinalValues=1;
                                                   CaptionML=[DEU=Process Code;
                                                              ENU=Process Code];
                                                   OptionCaptionML=[DEU=Default Value;
                                                                    ENU=Default Value];
                                                   OptionString=DefaultValue;
                                                   Description=Select the sales process stage for the opportunity to indicate the probability of closing the opportunity. }
    { 13  ;   ;ParticipatesInWorkflow;Boolean     ;ExternalName=participatesinworkflow;
                                                   ExternalType=Boolean;
                                                   CaptionML=[DEU=Participates in Workflow;
                                                              ENU=Participates in Workflow];
                                                   Description=Information about whether the opportunity participates in workflow rules. }
    { 14  ;   ;PricingErrorCode    ;Option        ;InitValue=None;
                                                   ExternalName=pricingerrorcode;
                                                   ExternalType=Picklist;
                                                   OptionOrdinalValues=[0;1;2;3;4;5;6;7;8;9;10;11;12;13;14;15;16;17;18;19;20;21;22;23;24;25;26;27;28;29;30;31;32;33;34;35;36;37];
                                                   CaptionML=[DEU="Pricing Error ";
                                                              ENU="Pricing Error "];
                                                   OptionCaptionML=[DEU=None,Detail Error,Missing Price Level,Inactive Price Level,Missing Quantity,Missing Unit Price,Missing Product,Invalid Product,Missing Pricing Code,Invalid Pricing Code,Missing UOM,Product Not In Price Level,Missing Price Level Amount,Missing Price Level Percentage,Missing Price,Missing Current Cost,Missing Standard Cost,Invalid Price Level Amount,Invalid Price Level Percentage,Invalid Price,Invalid Current Cost,Invalid Standard Cost,Invalid Rounding Policy,Invalid Rounding Option,Invalid Rounding Amount,Price Calculation Error,Invalid Discount Type,Discount Type Invalid State,Invalid Discount,Invalid Quantity,Invalid Pricing Precision,Missing Product Default UOM,Missing Product UOM Schedule ,Inactive Discount Type,Invalid Price Level Currency,Price Attribute Out Of Range,Base Currency Attribute Overflow,Base Currency Attribute Underflow;
                                                                    ENU=None,Detail Error,Missing Price Level,Inactive Price Level,Missing Quantity,Missing Unit Price,Missing Product,Invalid Product,Missing Pricing Code,Invalid Pricing Code,Missing UOM,Product Not In Price Level,Missing Price Level Amount,Missing Price Level Percentage,Missing Price,Missing Current Cost,Missing Standard Cost,Invalid Price Level Amount,Invalid Price Level Percentage,Invalid Price,Invalid Current Cost,Invalid Standard Cost,Invalid Rounding Policy,Invalid Rounding Option,Invalid Rounding Amount,Price Calculation Error,Invalid Discount Type,Discount Type Invalid State,Invalid Discount,Invalid Quantity,Invalid Pricing Precision,Missing Product Default UOM,Missing Product UOM Schedule ,Inactive Discount Type,Invalid Price Level Currency,Price Attribute Out Of Range,Base Currency Attribute Overflow,Base Currency Attribute Underflow];
                                                   OptionString=None,DetailError,MissingPriceLevel,InactivePriceLevel,MissingQuantity,MissingUnitPrice,MissingProduct,InvalidProduct,MissingPricingCode,InvalidPricingCode,MissingUOM,ProductNotInPriceLevel,MissingPriceLevelAmount,MissingPriceLevelPercentage,MissingPrice,MissingCurrentCost,MissingStandardCost,InvalidPriceLevelAmount,InvalidPriceLevelPercentage,InvalidPrice,InvalidCurrentCost,InvalidStandardCost,InvalidRoundingPolicy,InvalidRoundingOption,InvalidRoundingAmount,PriceCalculationError,InvalidDiscountType,DiscountTypeInvalidState,InvalidDiscount,InvalidQuantity,InvalidPricingPrecision,MissingProductDefaultUOM,MissingProductUOMSchedule,InactiveDiscountType,InvalidPriceLevelCurrency,PriceAttributeOutOfRange,BaseCurrencyAttributeOverflow,BaseCurrencyAttributeUnderflow;
                                                   Description=Pricing error for the opportunity. }
    { 15  ;   ;EstimatedCloseDate  ;Date          ;ExternalName=estimatedclosedate;
                                                   ExternalType=DateTime;
                                                   CaptionML=[DEU=Est. Close Date;
                                                              ENU=Est. Close Date];
                                                   Description=Enter the expected closing date of the opportunity to help make accurate revenue forecasts. }
    { 16  ;   ;CloseProbability    ;Integer       ;ExternalName=closeprobability;
                                                   ExternalType=Integer;
                                                   CaptionML=[DEU=Probability;
                                                              ENU=Probability];
                                                   MinValue=0;
                                                   MaxValue=100;
                                                   Description=Type a number from 0 to 100 that represents the likelihood of closing the opportunity. This can aid the sales team in their efforts to convert the opportunity in a sale. }
    { 17  ;   ;ActualValue         ;Decimal       ;ExternalName=actualvalue;
                                                   ExternalType=Money;
                                                   CaptionML=[DEU=Actual Revenue;
                                                              ENU=Actual Revenue];
                                                   Description=Type the actual revenue amount for the opportunity for reporting and analysis of estimated versus actual sales. Field defaults to the Est. Revenue value when an opportunity is won. }
    { 18  ;   ;ActualCloseDate     ;Date          ;ExternalName=actualclosedate;
                                                   ExternalType=DateTime;
                                                   CaptionML=[DEU=Actual Close Date;
                                                              ENU=Actual Close Date];
                                                   Description=Shows the date and time when the opportunity was closed or canceled. }
    { 19  ;   ;OwningUser          ;GUID          ;TableRelation="CRM Systemuser".SystemUserId;
                                                   ExternalName=owninguser;
                                                   ExternalType=Lookup;
                                                   ExternalAccess=Read;
                                                   CaptionML=[DEU=Owning User;
                                                              ENU=Owning User];
                                                   Description=Unique identifier of the user who owns the opportunity. }
    { 20  ;   ;OwningBusinessUnit  ;GUID          ;TableRelation="CRM Businessunit".BusinessUnitId;
                                                   ExternalName=owningbusinessunit;
                                                   ExternalType=Lookup;
                                                   ExternalAccess=Read;
                                                   CaptionML=[DEU=Owning Business Unit;
                                                              ENU=Owning Business Unit];
                                                   Description=Unique identifier of the business unit that owns the opportunity. }
    { 21  ;   ;CreatedOn           ;DateTime      ;ExternalName=createdon;
                                                   ExternalType=DateTime;
                                                   ExternalAccess=Read;
                                                   CaptionML=[DEU=Created On;
                                                              ENU=Created On];
                                                   Description=Shows the date and time when the record was created. The date and time are displayed in the time zone selected in Microsoft Dynamics CRM options. }
    { 22  ;   ;CreatedBy           ;GUID          ;TableRelation="CRM Systemuser".SystemUserId;
                                                   ExternalName=createdby;
                                                   ExternalType=Lookup;
                                                   ExternalAccess=Read;
                                                   CaptionML=[DEU=Created By;
                                                              ENU=Created By];
                                                   Description=Shows who created the record. }
    { 23  ;   ;ModifiedOn          ;DateTime      ;ExternalName=modifiedon;
                                                   ExternalType=DateTime;
                                                   ExternalAccess=Read;
                                                   CaptionML=[DEU=Modified On;
                                                              ENU=Modified On];
                                                   Description=Shows the date and time when the record was last updated. The date and time are displayed in the time zone selected in Microsoft Dynamics CRM options. }
    { 24  ;   ;ModifiedBy          ;GUID          ;TableRelation="CRM Systemuser".SystemUserId;
                                                   ExternalName=modifiedby;
                                                   ExternalType=Lookup;
                                                   ExternalAccess=Read;
                                                   CaptionML=[DEU=Modified By;
                                                              ENU=Modified By];
                                                   Description=Shows who last updated the record. }
    { 25  ;   ;VersionNumber       ;BigInteger    ;ExternalName=versionnumber;
                                                   ExternalType=BigInt;
                                                   ExternalAccess=Read;
                                                   CaptionML=[DEU=Version Number;
                                                              ENU=Version Number];
                                                   Description=Version number of the opportunity. }
    { 26  ;   ;StateCode           ;Option        ;InitValue=Open;
                                                   ExternalName=statecode;
                                                   ExternalType=State;
                                                   ExternalAccess=Modify;
                                                   OptionOrdinalValues=[0;1;2];
                                                   CaptionML=[DEU=Status;
                                                              ENU=Status];
                                                   OptionCaptionML=[DEU=Open,Won,Lost;
                                                                    ENU=Open,Won,Lost];
                                                   OptionString=Open,Won,Lost;
                                                   Description=Shows whether the opportunity is open, won, or lost. Won and lost opportunities are read-only and can't be edited until they are reactivated. }
    { 27  ;   ;StatusCode          ;Option        ;InitValue=[ ];
                                                   ExternalName=statuscode;
                                                   ExternalType=Status;
                                                   OptionOrdinalValues=[-1;1;2;3;4;5];
                                                   CaptionML=[DEU=Status Reason;
                                                              ENU=Status Reason];
                                                   OptionCaptionML=[DEU=" ,In Progress,On Hold,Won,Canceled,Out-Sold";
                                                                    ENU=" ,In Progress,On Hold,Won,Canceled,Out-Sold"];
                                                   OptionString=[ ,InProgress,OnHold,Won,Canceled,Out-Sold];
                                                   Description=Select the opportunity's status. }
    { 28  ;   ;IsRevenueSystemCalculated;Boolean  ;ExternalName=isrevenuesystemcalculated;
                                                   ExternalType=Boolean;
                                                   CaptionML=[DEU=Revenue;
                                                              ENU=Revenue];
                                                   Description=Select whether the estimated revenue for the opportunity is calculated automatically based on the products entered or entered manually by a user. }
    { 29  ;   ;ContactIdName       ;Text160       ;FieldClass=FlowField;
                                                   CalcFormula=Lookup("CRM Contact".FullName WHERE (ContactId=FIELD(ContactId)));
                                                   ExternalName=contactidname;
                                                   ExternalType=String;
                                                   ExternalAccess=Read;
                                                   CaptionML=[DEU=ContactIdName;
                                                              ENU=ContactIdName] }
    { 30  ;   ;AccountIdName       ;Text160       ;FieldClass=FlowField;
                                                   CalcFormula=Lookup("CRM Account".Name WHERE (AccountId=FIELD(AccountId)));
                                                   ExternalName=accountidname;
                                                   ExternalType=String;
                                                   ExternalAccess=Read;
                                                   CaptionML=[DEU=AccountIdName;
                                                              ENU=AccountIdName] }
    { 31  ;   ;PriceLevelIdName    ;Text100       ;FieldClass=FlowField;
                                                   CalcFormula=Lookup("CRM Pricelevel".Name WHERE (PriceLevelId=FIELD(PriceLevelId)));
                                                   ExternalName=pricelevelidname;
                                                   ExternalType=String;
                                                   ExternalAccess=Read;
                                                   CaptionML=[DEU=PriceLevelIdName;
                                                              ENU=PriceLevelIdName] }
    { 32  ;   ;CreatedByName       ;Text200       ;FieldClass=FlowField;
                                                   CalcFormula=Lookup("CRM Systemuser".FullName WHERE (SystemUserId=FIELD(CreatedBy)));
                                                   ExternalName=createdbyname;
                                                   ExternalType=String;
                                                   ExternalAccess=Read;
                                                   CaptionML=[DEU=CreatedByName;
                                                              ENU=CreatedByName] }
    { 33  ;   ;ModifiedByName      ;Text200       ;FieldClass=FlowField;
                                                   CalcFormula=Lookup("CRM Systemuser".FullName WHERE (SystemUserId=FIELD(ModifiedBy)));
                                                   ExternalName=modifiedbyname;
                                                   ExternalType=String;
                                                   ExternalAccess=Read;
                                                   CaptionML=[DEU=ModifiedByName;
                                                              ENU=ModifiedByName] }
    { 34  ;   ;CustomerId          ;GUID          ;TableRelation=IF (CustomerIdType=CONST(account)) "CRM Account".AccountId
                                                                 ELSE IF (CustomerIdType=CONST(contact)) "CRM Contact".ContactId;
                                                   ExternalName=customerid;
                                                   ExternalType=Customer;
                                                   CaptionML=[DEU=Potential Customer;
                                                              ENU=Potential Customer];
                                                   Description=Select the customer account or contact to provide a quick link to additional customer details, such as address, phone number, activities, and orders. }
    { 35  ;   ;CustomerIdType      ;Option        ;ExternalName=customeridtype;
                                                   ExternalType=EntityName;
                                                   CaptionML=[DEU=Potential Customer Type;
                                                              ENU=Potential Customer Type];
                                                   OptionCaptionML=[DEU=" ,account,contact";
                                                                    ENU=" ,account,contact"];
                                                   OptionString=[ ,account,contact] }
    { 36  ;   ;OwnerId             ;GUID          ;TableRelation=IF (OwnerIdType=CONST(systemuser)) "CRM Systemuser".SystemUserId
                                                                 ELSE IF (OwnerIdType=CONST(team)) "CRM Team".TeamId;
                                                   ExternalName=ownerid;
                                                   ExternalType=Owner;
                                                   CaptionML=[DEU=Owner;
                                                              ENU=Owner];
                                                   Description=Enter the user or team who is assigned to manage the record. This field is updated every time the record is assigned to a different user. }
    { 37  ;   ;OwnerIdType         ;Option        ;ExternalName=owneridtype;
                                                   ExternalType=EntityName;
                                                   CaptionML=[DEU=OwnerIdType;
                                                              ENU=OwnerIdType];
                                                   OptionCaptionML=[DEU=" ,systemuser,team";
                                                                    ENU=" ,systemuser,team"];
                                                   OptionString=[ ,systemuser,team] }
    { 38  ;   ;TransactionCurrencyId;GUID         ;TableRelation="CRM Transactioncurrency".TransactionCurrencyId;
                                                   ExternalName=transactioncurrencyid;
                                                   ExternalType=Lookup;
                                                   CaptionML=[DEU=Currency;
                                                              ENU=Currency];
                                                   Description=Choose the local currency for the record to make sure budgets are reported in the correct currency. }
    { 39  ;   ;ExchangeRate        ;Decimal       ;ExternalName=exchangerate;
                                                   ExternalType=Decimal;
                                                   ExternalAccess=Read;
                                                   CaptionML=[DEU=Exchange Rate;
                                                              ENU=Exchange Rate];
                                                   Description=Shows the conversion rate of the record's currency. The exchange rate is used to convert all money fields in the record from the local currency to the system's default currency. }
    { 40  ;   ;ImportSequenceNumber;Integer       ;ExternalName=importsequencenumber;
                                                   ExternalType=Integer;
                                                   ExternalAccess=Insert;
                                                   CaptionML=[DEU=Import Sequence Number;
                                                              ENU=Import Sequence Number];
                                                   Description=Unique identifier of the data import or data migration that created this record. }
    { 41  ;   ;UTCConversionTimeZoneCode;Integer  ;ExternalName=utcconversiontimezonecode;
                                                   ExternalType=Integer;
                                                   CaptionML=[DEU=UTC Conversion Time Zone Code;
                                                              ENU=UTC Conversion Time Zone Code];
                                                   MinValue=-1;
                                                   Description=Time zone code that was in use when the record was created. }
    { 42  ;   ;TimeZoneRuleVersionNumber;Integer  ;ExternalName=timezoneruleversionnumber;
                                                   ExternalType=Integer;
                                                   CaptionML=[DEU=Time Zone Rule Version Number;
                                                              ENU=Time Zone Rule Version Number];
                                                   MinValue=-1;
                                                   Description=For internal use only. }
    { 43  ;   ;OverriddenCreatedOn ;Date          ;ExternalName=overriddencreatedon;
                                                   ExternalType=DateTime;
                                                   ExternalAccess=Insert;
                                                   CaptionML=[DEU=Record Created On;
                                                              ENU=Record Created On];
                                                   Description=Date and time that the record was migrated. }
    { 44  ;   ;TransactionCurrencyIdName;Text100  ;FieldClass=FlowField;
                                                   CalcFormula=Lookup("CRM Transactioncurrency".CurrencyName WHERE (TransactionCurrencyId=FIELD(TransactionCurrencyId)));
                                                   ExternalName=transactioncurrencyidname;
                                                   ExternalType=String;
                                                   ExternalAccess=Read;
                                                   CaptionML=[DEU=TransactionCurrencyIdName;
                                                              ENU=TransactionCurrencyIdName] }
    { 45  ;   ;ActualValue_Base    ;Decimal       ;ExternalName=actualvalue_base;
                                                   ExternalType=Money;
                                                   ExternalAccess=Read;
                                                   CaptionML=[DEU=Actual Revenue (Base);
                                                              ENU=Actual Revenue (Base)];
                                                   Description=Shows the Actual Revenue field converted to the system's default base currency for reporting purposes. The calculation uses the exchange rate specified in the Currencies area. }
    { 46  ;   ;EstimatedValue_Base ;Decimal       ;ExternalName=estimatedvalue_base;
                                                   ExternalType=Money;
                                                   ExternalAccess=Read;
                                                   CaptionML=[DEU=Est. Revenue (Base);
                                                              ENU=Est. Revenue (Base)];
                                                   Description=Shows the Actual Revenue field converted to the system's default base currency for reporting purposes. The calculation uses the exchange rate specified in the Currencies area. }
    { 47  ;   ;TotalTax            ;Decimal       ;ExternalName=totaltax;
                                                   ExternalType=Money;
                                                   ExternalAccess=Modify;
                                                   CaptionML=[DEU=Total Tax;
                                                              ENU=Total Tax];
                                                   Description=Shows the total of the Tax amounts specified on all products included in the opportunity, included in the Total Amount field calculation for the opportunity. }
    { 48  ;   ;DiscountPercentage  ;Decimal       ;ExternalName=discountpercentage;
                                                   ExternalType=Decimal;
                                                   CaptionML=[DEU=Opportunity Discount (%);
                                                              ENU=Opportunity Discount (%)];
                                                   Description=Type the discount rate that should be applied to the Product Totals field to include additional savings for the customer in the opportunity. }
    { 49  ;   ;TotalAmount         ;Decimal       ;ExternalName=totalamount;
                                                   ExternalType=Money;
                                                   ExternalAccess=Modify;
                                                   CaptionML=[DEU=Total Amount;
                                                              ENU=Total Amount];
                                                   Description=Shows the total amount due, calculated as the sum of the products, discounts, freight, and taxes for the opportunity. }
    { 50  ;   ;DiscountAmount      ;Decimal       ;ExternalName=discountamount;
                                                   ExternalType=Money;
                                                   CaptionML=[DEU=Opportunity Discount Amount;
                                                              ENU=Opportunity Discount Amount];
                                                   Description=Type the discount amount for the opportunity if the customer is eligible for special savings. }
    { 51  ;   ;TotalAmountLessFreight;Decimal     ;ExternalName=totalamountlessfreight;
                                                   ExternalType=Money;
                                                   ExternalAccess=Modify;
                                                   CaptionML=[DEU=Total Pre-Freight Amount;
                                                              ENU=Total Pre-Freight Amount];
                                                   Description=Shows the total product amount for the opportunity, minus any discounts. This value is added to freight and tax amounts in the calculation for the total amount of the opportunity. }
    { 52  ;   ;FreightAmount       ;Decimal       ;ExternalName=freightamount;
                                                   ExternalType=Money;
                                                   CaptionML=[DEU=Freight Amount;
                                                              ENU=Freight Amount];
                                                   Description=Type the cost of freight or shipping for the products included in the opportunity for use in calculating the Total Amount field. }
    { 53  ;   ;TotalLineItemDiscountAmount;Decimal;ExternalName=totallineitemdiscountamount;
                                                   ExternalType=Money;
                                                   ExternalAccess=Modify;
                                                   CaptionML=[DEU=Total Line Item Discount Amount;
                                                              ENU=Total Line Item Discount Amount];
                                                   Description=Shows the total of the Manual Discount amounts specified on all products included in the opportunity. This value is reflected in the Total Detail Amount field on the opportunity and is added to any discount amount or rate specified on the opportunity. }
    { 54  ;   ;TotalLineItemAmount ;Decimal       ;ExternalName=totallineitemamount;
                                                   ExternalType=Money;
                                                   ExternalAccess=Modify;
                                                   CaptionML=[DEU=Total Detail Amount;
                                                              ENU=Total Detail Amount];
                                                   Description=Shows the sum of all existing and write-in products included on the opportunity, based on the specified price list and quantities. }
    { 55  ;   ;TotalDiscountAmount ;Decimal       ;ExternalName=totaldiscountamount;
                                                   ExternalType=Money;
                                                   ExternalAccess=Modify;
                                                   CaptionML=[DEU=Total Discount Amount;
                                                              ENU=Total Discount Amount];
                                                   Description=Shows the total discount amount, based on the discount price and rate entered on the opportunity. }
    { 56  ;   ;TotalLineItemAmount_Base;Decimal   ;ExternalName=totallineitemamount_base;
                                                   ExternalType=Money;
                                                   ExternalAccess=Read;
                                                   CaptionML=[DEU=Total Detail Amount (Base);
                                                              ENU=Total Detail Amount (Base)];
                                                   Description=Shows the Total Detail Amount field converted to the system's default base currency for reporting purposes. The calculation uses the exchange rate specified in the Currencies area. }
    { 57  ;   ;TotalDiscountAmount_Base;Decimal   ;ExternalName=totaldiscountamount_base;
                                                   ExternalType=Money;
                                                   ExternalAccess=Read;
                                                   CaptionML=[DEU=Total Discount Amount (Base);
                                                              ENU=Total Discount Amount (Base)];
                                                   Description=Shows the Total Discount Amount field converted to the system's default base currency for reporting purposes. The calculation uses the exchange rate specified in the Currencies area. }
    { 58  ;   ;TotalTax_Base       ;Decimal       ;ExternalName=totaltax_base;
                                                   ExternalType=Money;
                                                   ExternalAccess=Read;
                                                   CaptionML=[DEU=Total Tax (Base);
                                                              ENU=Total Tax (Base)];
                                                   Description=Shows the Total Tax field converted to the system's default base currency for reporting purposes. The calculation uses the exchange rate specified in the Currencies area. }
    { 59  ;   ;DiscountAmount_Base ;Decimal       ;ExternalName=discountamount_base;
                                                   ExternalType=Money;
                                                   ExternalAccess=Read;
                                                   CaptionML=[DEU=Opportunity Discount Amount (Base);
                                                              ENU=Opportunity Discount Amount (Base)];
                                                   Description=Shows the Opportunity Discount Amount field converted to the system's default base currency for reporting purposes. The calculation uses the exchange rate specified in the Currencies area. }
    { 60  ;   ;TotalLineItemDiscountAmount_Ba;Decimal;
                                                   ExternalName=totallineitemdiscountamount_base;
                                                   ExternalType=Money;
                                                   ExternalAccess=Read;
                                                   CaptionML=[DEU=Total Line Item Discount Amount (Base);
                                                              ENU=Total Line Item Discount Amount (Base)];
                                                   Description=Shows the Total Line Item Discount Amount field to the system's default base currency for reporting purposes. The calculation uses the exchange rate specified in the Currencies area. }
    { 61  ;   ;TotalAmount_Base    ;Decimal       ;ExternalName=totalamount_base;
                                                   ExternalType=Money;
                                                   ExternalAccess=Read;
                                                   CaptionML=[DEU=Total Amount (Base);
                                                              ENU=Total Amount (Base)];
                                                   Description=Shows the Total Amount field converted to the system's default base currency for reporting purposes. The calculation uses the exchange rate specified in the Currencies area. }
    { 62  ;   ;TotalAmountLessFreight_Base;Decimal;ExternalName=totalamountlessfreight_base;
                                                   ExternalType=Money;
                                                   ExternalAccess=Read;
                                                   CaptionML=[DEU=Total Pre-Freight Amount (Base);
                                                              ENU=Total Pre-Freight Amount (Base)];
                                                   Description=Shows the Total Pre-Freight Amount field converted to the system's default base currency for reporting purposes. The calculation uses the exchange rate specified in the Currencies area. }
    { 63  ;   ;FreightAmount_Base  ;Decimal       ;ExternalName=freightamount_base;
                                                   ExternalType=Money;
                                                   ExternalAccess=Read;
                                                   CaptionML=[DEU=Freight Amount (Base);
                                                              ENU=Freight Amount (Base)];
                                                   Description=Shows the Freight Amount field converted to the system's default base currency for reporting purposes. The calculation uses the exchange rate specified in the Currencies area. }
    { 64  ;   ;CreatedOnBehalfBy   ;GUID          ;TableRelation="CRM Systemuser".SystemUserId;
                                                   ExternalName=createdonbehalfby;
                                                   ExternalType=Lookup;
                                                   ExternalAccess=Read;
                                                   CaptionML=[DEU=Created By (Delegate);
                                                              ENU=Created By (Delegate)];
                                                   Description=Shows who created the record on behalf of another user. }
    { 65  ;   ;CreatedOnBehalfByName;Text200      ;FieldClass=FlowField;
                                                   CalcFormula=Lookup("CRM Systemuser".FullName WHERE (SystemUserId=FIELD(CreatedOnBehalfBy)));
                                                   ExternalName=createdonbehalfbyname;
                                                   ExternalType=String;
                                                   ExternalAccess=Read;
                                                   CaptionML=[DEU=CreatedOnBehalfByName;
                                                              ENU=CreatedOnBehalfByName] }
    { 66  ;   ;ModifiedOnBehalfBy  ;GUID          ;TableRelation="CRM Systemuser".SystemUserId;
                                                   ExternalName=modifiedonbehalfby;
                                                   ExternalType=Lookup;
                                                   ExternalAccess=Read;
                                                   CaptionML=[DEU=Modified By (Delegate);
                                                              ENU=Modified By (Delegate)];
                                                   Description=Shows who last updated the record on behalf of another user. }
    { 67  ;   ;ModifiedOnBehalfByName;Text200     ;FieldClass=FlowField;
                                                   CalcFormula=Lookup("CRM Systemuser".FullName WHERE (SystemUserId=FIELD(ModifiedOnBehalfBy)));
                                                   ExternalName=modifiedonbehalfbyname;
                                                   ExternalType=String;
                                                   ExternalAccess=Read;
                                                   CaptionML=[DEU=ModifiedOnBehalfByName;
                                                              ENU=ModifiedOnBehalfByName] }
    { 68  ;   ;OwningTeam          ;GUID          ;TableRelation="CRM Team".TeamId;
                                                   ExternalName=owningteam;
                                                   ExternalType=Lookup;
                                                   ExternalAccess=Read;
                                                   CaptionML=[DEU=Owning Team;
                                                              ENU=Owning Team];
                                                   Description=Unique identifier of the team who owns the opportunity. }
    { 69  ;   ;BudgetStatus        ;Option        ;InitValue=[ ];
                                                   ExternalName=budgetstatus;
                                                   ExternalType=Picklist;
                                                   OptionOrdinalValues=[-1;0;1;2;3];
                                                   CaptionML=[DEU=Budget;
                                                              ENU=Budget];
                                                   OptionCaptionML=[DEU=" ,No Committed Budget,May Buy,Can Buy,Will Buy";
                                                                    ENU=" ,No Committed Budget,May Buy,Can Buy,Will Buy"];
                                                   OptionString=[ ,NoCommittedBudget,MayBuy,CanBuy,WillBuy];
                                                   Description=Select the likely budget status for the lead's company. This may help determine the lead rating or your sales approach. }
    { 70  ;   ;DecisionMaker       ;Boolean       ;ExternalName=decisionmaker;
                                                   ExternalType=Boolean;
                                                   CaptionML=[DEU=Decision Maker?;
                                                              ENU=Decision Maker?];
                                                   Description=Select whether your notes include information about who makes the purchase decisions at the lead's company. }
    { 71  ;   ;Need                ;Option        ;InitValue=[ ];
                                                   ExternalName=need;
                                                   ExternalType=Picklist;
                                                   OptionOrdinalValues=[-1;0;1;2;3];
                                                   CaptionML=[DEU=Need;
                                                              ENU=Need];
                                                   OptionCaptionML=[DEU=" ,Must have,Should have,Good to have,No need";
                                                                    ENU=" ,Must have,Should have,Good to have,No need"];
                                                   OptionString=[ ,Musthave,Shouldhave,Goodtohave,Noneed];
                                                   Description=Choose how high the level of need is for the lead's company. }
    { 72  ;   ;TimeLine            ;Option        ;InitValue=[ ];
                                                   ExternalName=timeline;
                                                   ExternalType=Picklist;
                                                   OptionOrdinalValues=[-1;0;1;2;3;4];
                                                   CaptionML=[DEU=Timeline;
                                                              ENU=Timeline];
                                                   OptionCaptionML=[DEU=" ,Immediate,This Quarter,Next Quarter,This Year,Not known";
                                                                    ENU=" ,Immediate,This Quarter,Next Quarter,This Year,Not known"];
                                                   OptionString=[ ,Immediate,ThisQuarter,NextQuarter,ThisYear,Notknown];
                                                   Description=Select when the opportunity is likely to be closed. }
    { 73  ;   ;BudgetAmount        ;Decimal       ;ExternalName=budgetamount;
                                                   ExternalType=Money;
                                                   CaptionML=[DEU=Budget Amount;
                                                              ENU=Budget Amount];
                                                   Description=Type a value between 0 and 1,000,000,000,000 to indicate the lead's potential available budget. }
    { 74  ;   ;BudgetAmount_Base   ;Decimal       ;ExternalName=budgetamount_base;
                                                   ExternalType=Money;
                                                   ExternalAccess=Read;
                                                   CaptionML=[DEU=Budget Amount (Base);
                                                              ENU=Budget Amount (Base)];
                                                   Description=Shows the budget amount converted to the system's base currency. }
    { 75  ;   ;ParentAccountId     ;GUID          ;TableRelation="CRM Account".AccountId;
                                                   ExternalName=parentaccountid;
                                                   ExternalType=Lookup;
                                                   CaptionML=[DEU=Account;
                                                              ENU=Account];
                                                   Description=Choose an account to connect this opportunity to, so that the relationship is visible in reports and analytics, and to provide a quick link to additional details, such as financial information and activities. }
    { 76  ;   ;ParentAccountIdName ;Text160       ;FieldClass=FlowField;
                                                   CalcFormula=Lookup("CRM Account".Name WHERE (AccountId=FIELD(ParentAccountId)));
                                                   ExternalName=parentaccountidname;
                                                   ExternalType=String;
                                                   ExternalAccess=Read;
                                                   CaptionML=[DEU=ParentAccountIdName;
                                                              ENU=ParentAccountIdName] }
    { 77  ;   ;ParentContactId     ;GUID          ;TableRelation="CRM Contact".ContactId;
                                                   ExternalName=parentcontactid;
                                                   ExternalType=Lookup;
                                                   CaptionML=[DEU=Contact;
                                                              ENU=Contact];
                                                   Description=Choose a contact to connect this opportunity to, so that the relationship is visible in reports and analytics. }
    { 78  ;   ;ParentContactIdName ;Text160       ;FieldClass=FlowField;
                                                   CalcFormula=Lookup("CRM Contact".FullName WHERE (ContactId=FIELD(ParentContactId)));
                                                   ExternalName=parentcontactidname;
                                                   ExternalType=String;
                                                   ExternalAccess=Read;
                                                   CaptionML=[DEU=ParentContactIdName;
                                                              ENU=ParentContactIdName] }
    { 79  ;   ;EvaluateFit         ;Boolean       ;ExternalName=evaluatefit;
                                                   ExternalType=Boolean;
                                                   CaptionML=[DEU=Evaluate Fit;
                                                              ENU=Evaluate Fit];
                                                   Description=Select whether the fit between the lead's requirements and your offerings was evaluated. }
    { 80  ;   ;InitialCommunication;Option        ;InitValue=[ ];
                                                   ExternalName=initialcommunication;
                                                   ExternalType=Picklist;
                                                   OptionOrdinalValues=[-1;0;1];
                                                   CaptionML=[DEU=Initial Communication;
                                                              ENU=Initial Communication];
                                                   OptionCaptionML=[DEU=" ,Contacted,Not Contacted";
                                                                    ENU=" ,Contacted,Not Contacted"];
                                                   OptionString=[ ,Contacted,NotContacted];
                                                   Description=Choose whether someone from the sales team contacted this lead earlier. }
    { 81  ;   ;ConfirmInterest     ;Boolean       ;ExternalName=confirminterest;
                                                   ExternalType=Boolean;
                                                   CaptionML=[DEU=Confirm Interest;
                                                              ENU=Confirm Interest];
                                                   Description=Select whether the lead confirmed interest in your offerings. This helps in determining the lead quality and the probability of it turning into an opportunity. }
    { 82  ;   ;ScheduleFollowup_Prospect;Date     ;ExternalName=schedulefollowup_prospect;
                                                   ExternalType=DateTime;
                                                   CaptionML=[DEU=Scheduled Follow up (Prospect);
                                                              ENU=Scheduled Follow up (Prospect)];
                                                   Description=Enter the date and time of the prospecting follow-up meeting with the lead. }
    { 83  ;   ;ScheduleFollowup_Qualify;Date      ;ExternalName=schedulefollowup_qualify;
                                                   ExternalType=DateTime;
                                                   CaptionML=[DEU=Scheduled Follow up (Qualify);
                                                              ENU=Scheduled Follow up (Qualify)];
                                                   Description=Enter the date and time of the qualifying follow-up meeting with the lead. }
    { 84  ;   ;ScheduleProposalMeeting;Date       ;ExternalName=scheduleproposalmeeting;
                                                   ExternalType=DateTime;
                                                   CaptionML=[DEU=Schedule Proposal Meeting;
                                                              ENU=Schedule Proposal Meeting];
                                                   Description=Enter the date and time of the proposal meeting for the opportunity. }
    { 85  ;   ;FinalDecisionDate   ;Date          ;ExternalName=finaldecisiondate;
                                                   ExternalType=DateTime;
                                                   CaptionML=[DEU=Final Decision Date;
                                                              ENU=Final Decision Date];
                                                   Description=Enter the date and time when the final decision of the opportunity was made. }
    { 86  ;   ;DevelopProposal     ;Boolean       ;ExternalName=developproposal;
                                                   ExternalType=Boolean;
                                                   CaptionML=[DEU=Develop Proposal;
                                                              ENU=Develop Proposal];
                                                   Description=Select whether a proposal has been developed for the opportunity. }
    { 87  ;   ;CompleteInternalReview;Boolean     ;ExternalName=completeinternalreview;
                                                   ExternalType=Boolean;
                                                   CaptionML=[DEU=Complete Internal Review;
                                                              ENU=Complete Internal Review];
                                                   Description=Select whether an internal review has been completed for this opportunity. }
    { 88  ;   ;CaptureProposalFeedback;Boolean    ;ExternalName=captureproposalfeedback;
                                                   ExternalType=Boolean;
                                                   CaptionML=[DEU=Proposal Feedback Captured;
                                                              ENU=Proposal Feedback Captured];
                                                   Description=Choose whether the proposal feedback has been captured for the opportunity. }
    { 89  ;   ;ResolveFeedback     ;Boolean       ;ExternalName=resolvefeedback;
                                                   ExternalType=Boolean;
                                                   CaptionML=[DEU=Feedback Resolved;
                                                              ENU=Feedback Resolved];
                                                   Description=Choose whether the proposal feedback has been captured and resolved for the opportunity. }
    { 90  ;   ;PresentProposal     ;Boolean       ;ExternalName=presentproposal;
                                                   ExternalType=Boolean;
                                                   CaptionML=[DEU=Presented Proposal;
                                                              ENU=Presented Proposal];
                                                   Description=Select whether a proposal for the opportunity has been presented to the account. }
    { 91  ;   ;SendThankYouNote    ;Boolean       ;ExternalName=sendthankyounote;
                                                   ExternalType=Boolean;
                                                   CaptionML=[DEU=Send Thank You Note;
                                                              ENU=Send Thank You Note];
                                                   Description=Select whether a thank you note has been sent to the account for considering the proposal. }
    { 92  ;   ;SalesStage          ;Option        ;InitValue=[ ];
                                                   ExternalName=salesstage;
                                                   ExternalType=Picklist;
                                                   OptionOrdinalValues=[-1;0;1;2;3];
                                                   CaptionML=[DEU=Sales Stage;
                                                              ENU=Sales Stage];
                                                   OptionCaptionML=[DEU=" ,Qualify,Develop,Propose,Close";
                                                                    ENU=" ,Qualify,Develop,Propose,Close"];
                                                   OptionString=[ ,Qualify,Develop,Propose,Close];
                                                   Description=Select the sales stage of this opportunity to aid the sales team in their efforts to win this opportunity. }
    { 93  ;   ;TraversedPath       ;Text250       ;ExternalName=traversedpath;
                                                   ExternalType=String;
                                                   CaptionML=[DEU=Traversed Path;
                                                              ENU=Traversed Path];
                                                   Description=For internal use only. }
    { 94  ;   ;CompleteFinalProposal;Boolean      ;ExternalName=completefinalproposal;
                                                   ExternalType=Boolean;
                                                   CaptionML=[DEU=Final Proposal Ready;
                                                              ENU=Final Proposal Ready];
                                                   Description=Select whether a final proposal has been completed for the opportunity. }
    { 95  ;   ;FileDebrief         ;Boolean       ;ExternalName=filedebrief;
                                                   ExternalType=Boolean;
                                                   CaptionML=[DEU=File Debrief;
                                                              ENU=File Debrief];
                                                   Description=Choose whether the sales team has recorded detailed notes on the proposals and the account's responses. }
    { 96  ;   ;PursuitDecision     ;Boolean       ;ExternalName=pursuitdecision;
                                                   ExternalType=Boolean;
                                                   CaptionML=[DEU=Decide Go/No-Go;
                                                              ENU=Decide Go/No-Go];
                                                   Description=Select whether the decision about pursuing the opportunity has been made. }
    { 97  ;   ;CustomerPainPoints  ;BLOB          ;ExternalName=customerpainpoints;
                                                   ExternalType=Memo;
                                                   CaptionML=[DEU=Customer Pain Points;
                                                              ENU=Customer Pain Points];
                                                   Description=Type notes about the customer's pain points to help the sales team identify products and services that could address these pain points.;
                                                   SubType=Memo }
    { 98  ;   ;CustomerNeed        ;BLOB          ;ExternalName=customerneed;
                                                   ExternalType=Memo;
                                                   CaptionML=[DEU=Customer Need;
                                                              ENU=Customer Need];
                                                   Description=Type some notes about the customer's requirements, to help the sales team identify products and services that could meet their requirements.;
                                                   SubType=Memo }
    { 99  ;   ;ProposedSolution    ;BLOB          ;ExternalName=proposedsolution;
                                                   ExternalType=Memo;
                                                   CaptionML=[DEU=Proposed Solution;
                                                              ENU=Proposed Solution];
                                                   Description=Type notes about the proposed solution for the opportunity.;
                                                   SubType=Memo }
    { 100 ;   ;QualificationComments;BLOB         ;ExternalName=qualificationcomments;
                                                   ExternalType=Memo;
                                                   CaptionML=[DEU=Qualification Comments;
                                                              ENU=Qualification Comments];
                                                   Description=Type comments about the qualification or scoring of the lead.;
                                                   SubType=Memo }
    { 101 ;   ;QuoteComments       ;BLOB          ;ExternalName=quotecomments;
                                                   ExternalType=Memo;
                                                   CaptionML=[DEU=Quote Comments;
                                                              ENU=Quote Comments];
                                                   Description=Type comments about the quotes associated with the opportunity.;
                                                   SubType=Memo }
    { 102 ;   ;PurchaseProcess     ;Option        ;InitValue=[ ];
                                                   ExternalName=purchaseprocess;
                                                   ExternalType=Picklist;
                                                   OptionOrdinalValues=[-1;0;1;2];
                                                   CaptionML=[DEU=Purchase Process;
                                                              ENU=Purchase Process];
                                                   OptionCaptionML=[DEU=" ,Individual,Committee,Unknown";
                                                                    ENU=" ,Individual,Committee,Unknown"];
                                                   OptionString=[ ,Individual,Committee,Unknown];
                                                   Description=Choose whether an individual or a committee will be involved in the purchase process for the lead. }
    { 103 ;   ;PurchaseTimeframe   ;Option        ;InitValue=[ ];
                                                   ExternalName=purchasetimeframe;
                                                   ExternalType=Picklist;
                                                   OptionOrdinalValues=[-1;0;1;2;3;4];
                                                   CaptionML=[DEU=Purchase Timeframe;
                                                              ENU=Purchase Timeframe];
                                                   OptionCaptionML=[DEU=" ,Immediate,This Quarter,Next Quarter,This Year,Unknown";
                                                                    ENU=" ,Immediate,This Quarter,Next Quarter,This Year,Unknown"];
                                                   OptionString=[ ,Immediate,ThisQuarter,NextQuarter,ThisYear,Unknown];
                                                   Description=Choose how long the lead will likely take to make the purchase. }
    { 104 ;   ;IdentifyCustomerContacts;Boolean   ;ExternalName=identifycustomercontacts;
                                                   ExternalType=Boolean;
                                                   CaptionML=[DEU=Identify Customer Contacts;
                                                              ENU=Identify Customer Contacts];
                                                   Description=Select whether the customer contacts for this opportunity have been identified. }
    { 105 ;   ;IdentifyCompetitors ;Boolean       ;ExternalName=identifycompetitors;
                                                   ExternalType=Boolean;
                                                   CaptionML=[DEU=Identify Competitors;
                                                              ENU=Identify Competitors];
                                                   Description=Select whether information about competitors is included. }
    { 106 ;   ;IdentifyPursuitTeam ;Boolean       ;ExternalName=identifypursuitteam;
                                                   ExternalType=Boolean;
                                                   CaptionML=[DEU=Identify Sales Team;
                                                              ENU=Identify Sales Team];
                                                   Description=Choose whether you have recorded who will pursue the opportunity. }
    { 107 ;   ;CurrentSituation    ;BLOB          ;ExternalName=currentsituation;
                                                   ExternalType=Memo;
                                                   CaptionML=[DEU=Current Situation;
                                                              ENU=Current Situation];
                                                   Description=Type notes about the company or organization associated with the opportunity.;
                                                   SubType=Memo }
    { 108 ;   ;PresentFinalProposal;Boolean       ;ExternalName=presentfinalproposal;
                                                   ExternalType=Boolean;
                                                   CaptionML=[DEU=Present Final Proposal;
                                                              ENU=Present Final Proposal];
                                                   Description=Select whether the final proposal has been presented to the account. }
    { 109 ;   ;StageId             ;GUID          ;ExternalName=stageid;
                                                   ExternalType=Uniqueidentifier;
                                                   CaptionML=[DEU=Process Stage;
                                                              ENU=Process Stage];
                                                   Description=Shows the ID of the stage. }
    { 110 ;   ;ProcessId           ;GUID          ;ExternalName=processid;
                                                   ExternalType=Uniqueidentifier;
                                                   CaptionML=[DEU=Process;
                                                              ENU=Process];
                                                   Description=Shows the ID of the process. }
  }
  KEYS
  {
    {    ;OpportunityId                           ;Clustered=Yes }
    {    ;Name                                     }
  }
  FIELDGROUPS
  {
    { 1   ;DropDown            ;Name                                     }
  }
  CODE
  {

    BEGIN
    {
      Dynamics CRM Version: 7.1.0.2040
    }
    END.
  }
}

