OBJECT Table 2000000006 Company
{
  OBJECT-PROPERTIES
  {
    Date=25.05.05;
    Time=12:00:00;
    Version List=;
  }
  PROPERTIES
  {
    DataPerCompany=No;
    CaptionML=[DEU=Mandant;
               ENU=Company];
  }
  FIELDS
  {
    { 1   ;   ;Name                ;Text30        ;CaptionML=[DEU=Name;
                                                              ENU=Name] }
    { 2   ;   ;Evaluation Company  ;Boolean       ;CaptionML=[DEU=Bewertungsunternehmen;
                                                              ENU=Evaluation Company] }
  }
  KEYS
  {
    {    ;Name                                    ;Clustered=Yes }
  }
  FIELDGROUPS
  {
  }
  CODE
  {

    BEGIN
    END.
  }
}

