OBJECT Table 399 XBRL Schema
{
  OBJECT-PROPERTIES
  {
    Date=05.11.08;
    Time=12:00:00;
    Version List=NAVW16.00;
  }
  PROPERTIES
  {
    OnDelete=VAR
               XBRLTaxonomyLine@1006 : Record 395;
               XBRLLinkbase@1001 : Record 400;
             BEGIN
               WITH XBRLTaxonomyLine DO BEGIN
                 SETRANGE("XBRL Taxonomy Name",Rec."XBRL Taxonomy Name");
                 SETRANGE("XBRL Schema Line No.",Rec."Line No.");
                 DELETEALL(TRUE);
               END;
               WITH XBRLLinkbase DO BEGIN
                 SETRANGE("XBRL Taxonomy Name",Rec."XBRL Taxonomy Name");
                 SETRANGE("XBRL Schema Line No.",Rec."Line No.");
                 DELETEALL(TRUE);
               END;
             END;

    CaptionML=[DEU=XBRL-Schema;
               ENU=XBRL Schema];
  }
  FIELDS
  {
    { 1   ;   ;XBRL Taxonomy Name  ;Code20        ;TableRelation="XBRL Taxonomy";
                                                   CaptionML=[DEU=XBRL-Taxonomiename;
                                                              ENU=XBRL Taxonomy Name];
                                                   NotBlank=Yes }
    { 2   ;   ;Line No.            ;Integer       ;CaptionML=[DEU=Zeilennr.;
                                                              ENU=Line No.] }
    { 3   ;   ;Description         ;Text50        ;CaptionML=[DEU=Beschreibung;
                                                              ENU=Description] }
    { 4   ;   ;targetNamespace     ;Text250       ;CaptionML=[DEU=targetNamespace;
                                                              ENU=targetNamespace] }
    { 5   ;   ;XSD                 ;BLOB          ;CaptionML=[DEU=XSD;
                                                              ENU=XSD];
                                                   SubType=Memo }
    { 6   ;   ;xmlns:xbrli         ;Text250       ;CaptionML=[DEU=xmlns:xbrli;
                                                              ENU=xmlns:xbrli] }
    { 7   ;   ;schemaLocation      ;Text250       ;CaptionML=[DEU=schemaLocation;
                                                              ENU=schemaLocation] }
    { 8   ;   ;Folder Name         ;Text250       ;CaptionML=[DEU=Ordnername;
                                                              ENU=Folder Name] }
  }
  KEYS
  {
    {    ;XBRL Taxonomy Name,Line No.             ;Clustered=Yes }
  }
  FIELDGROUPS
  {
  }
  CODE
  {

    BEGIN
    END.
  }
}

