OBJECT Table 5086 Cont. Duplicate Search String
{
  OBJECT-PROPERTIES
  {
    Date=25.10.16;
    Time=12:00:00;
    Version List=NAVW110.00;
  }
  PROPERTIES
  {
    CaptionML=[DEU=Kontaktdublettensuchtext;
               ENU=Cont. Duplicate Search String];
  }
  FIELDS
  {
    { 1   ;   ;Contact Company No. ;Code20        ;TableRelation=Contact WHERE (Type=CONST(Company));
                                                   CaptionML=[DEU=Kontaktunternehmensnummer;
                                                              ENU=Contact Company No.];
                                                   NotBlank=Yes }
    { 2   ;   ;Field               ;Option        ;CaptionML=[DEU=Feld;
                                                              ENU=Field];
                                                   OptionCaptionML=[DEU=Name,Name 2,Adresse,Adresse 2,PLZ-Code,Ort,Telefonnr.,USt-IdNr.;
                                                                    ENU=Name,Name 2,Address,Address 2,Post Code,City,Phone No.,VAT Registration No.];
                                                   OptionString=Name,Name 2,Address,Address 2,Post Code,City,Phone No.,VAT Registration No. }
    { 3   ;   ;Part of Field       ;Option        ;CaptionML=[DEU=Teil des Feldes;
                                                              ENU=Part of Field];
                                                   OptionCaptionML=[DEU=Am Beginn,Am Ende;
                                                                    ENU=First,Last];
                                                   OptionString=First,Last }
    { 4   ;   ;Search String       ;Text10        ;CaptionML=[DEU=Suchtext;
                                                              ENU=Search String] }
  }
  KEYS
  {
    {    ;Contact Company No.,Field,Part of Field ;Clustered=Yes }
    {    ;Field,Part of Field,Search String        }
  }
  FIELDGROUPS
  {
  }
  CODE
  {

    BEGIN
    END.
  }
}

